<?xml version="1.0" encoding="utf-8" standalone="no"?>
<!DOCTYPE svg PUBLIC "-//W3C//DTD SVG 1.1//EN"
  "http://www.w3.org/Graphics/SVG/1.1/DTD/svg11.dtd">
<svg xmlns:xlink="http://www.w3.org/1999/xlink" width="711.645904pt" height="527.558125pt" viewBox="0 0 711.645904 527.558125" xmlns="http://www.w3.org/2000/svg" version="1.1">
 <metadata>
  <rdf:RDF xmlns:dc="http://purl.org/dc/elements/1.1/" xmlns:cc="http://creativecommons.org/ns#" xmlns:rdf="http://www.w3.org/1999/02/22-rdf-syntax-ns#">
   <cc:Work>
    <dc:type rdf:resource="http://purl.org/dc/dcmitype/StillImage"/>
    <dc:date>2024-02-05T11:40:53.862257</dc:date>
    <dc:format>image/svg+xml</dc:format>
    <dc:creator>
     <cc:Agent>
      <dc:title>Matplotlib v3.8.2, https://matplotlib.org/</dc:title>
     </cc:Agent>
    </dc:creator>
   </cc:Work>
  </rdf:RDF>
 </metadata>
 <defs>
  <style type="text/css">*{stroke-linejoin: round; stroke-linecap: butt}</style>
 </defs>
 <g id="figure_1">
  <g id="patch_1">
   <path d="M 0 527.558125 
L 711.645904 527.558125 
L 711.645904 0 
L 0 0 
z
" style="fill: #ffffff"/>
  </g>
  <g id="axes_1">
   <g id="patch_2">
    <path d="M 46.965625 211.598125 
L 334.318972 211.598125 
L 334.318972 22.318125 
L 46.965625 22.318125 
z
" style="fill: #ffffff"/>
   </g>
   <g id="patch_3">
    <path d="M 60.027141 211.598125 
L 76.354035 211.598125 
L 76.354035 209.287734 
L 60.027141 209.287734 
z
" clip-path="url(#p4552f923a9)"/>
   </g>
   <g id="patch_4">
    <path d="M 141.661614 211.598125 
L 157.988509 211.598125 
L 157.988509 208.574365 
L 141.661614 208.574365 
z
" clip-path="url(#p4552f923a9)"/>
   </g>
   <g id="patch_5">
    <path d="M 0 0 
z
" clip-path="url(#p4552f923a9)"/>
   </g>
   <g id="patch_6">
    <path d="M 304.930562 211.598125 
L 321.257456 211.598125 
L 321.257456 211.253599 
L 304.930562 211.253599 
z
" clip-path="url(#p4552f923a9)"/>
   </g>
   <g id="patch_7">
    <path d="M 76.354035 211.598125 
L 92.68093 211.598125 
L 92.68093 211.585822 
L 76.354035 211.585822 
z
" clip-path="url(#p4552f923a9)" style="fill: #666666"/>
   </g>
   <g id="patch_8">
    <path d="M 157.988509 211.598125 
L 174.315404 211.598125 
L 174.315404 210.380851 
L 157.988509 210.380851 
z
" clip-path="url(#p4552f923a9)" style="fill: #666666"/>
   </g>
   <g id="patch_9">
    <path d="M 0 0 
z
" clip-path="url(#p4552f923a9)" style="fill: #666666"/>
   </g>
   <g id="patch_10">
    <path d="M 0 0 
z
" clip-path="url(#p4552f923a9)" style="fill: #666666"/>
   </g>
   <g id="patch_11">
    <path d="M 92.68093 211.598125 
L 109.007825 211.598125 
L 109.007825 210.639185 
L 92.68093 210.639185 
z
" clip-path="url(#p4552f923a9)" style="fill: #999999"/>
   </g>
   <g id="patch_12">
    <path d="M 174.315404 211.598125 
L 190.642299 211.598125 
L 190.642299 211.253599 
L 174.315404 211.253599 
z
" clip-path="url(#p4552f923a9)" style="fill: #999999"/>
   </g>
   <g id="patch_13">
    <path d="M 0 0 
z
" clip-path="url(#p4552f923a9)" style="fill: #999999"/>
   </g>
   <g id="patch_14">
    <path d="M 0 0 
z
" clip-path="url(#p4552f923a9)" style="fill: #999999"/>
   </g>
   <g id="matplotlib.axis_1">
    <g id="xtick_1">
     <g id="line2d_1">
      <defs>
       <path id="m34888f64b2" d="M 0 0 
L 0 3.5 
" style="stroke: #000000; stroke-width: 0.8"/>
      </defs>
      <g>
       <use xlink:href="#m34888f64b2" x="84.517483" y="211.598125" style="stroke: #000000; stroke-width: 0.8"/>
      </g>
     </g>
     <g id="text_1">
      <!-- T5 Large -->
      <g transform="translate(62.624514 226.196562) scale(0.1 -0.1)">
       <defs>
        <path id="DejaVuSans-54" d="M -19 4666 
L 3928 4666 
L 3928 4134 
L 2272 4134 
L 2272 0 
L 1638 0 
L 1638 4134 
L -19 4134 
L -19 4666 
z
" transform="scale(0.015625)"/>
        <path id="DejaVuSans-35" d="M 691 4666 
L 3169 4666 
L 3169 4134 
L 1269 4134 
L 1269 2991 
Q 1406 3038 1543 3061 
Q 1681 3084 1819 3084 
Q 2600 3084 3056 2656 
Q 3513 2228 3513 1497 
Q 3513 744 3044 326 
Q 2575 -91 1722 -91 
Q 1428 -91 1123 -41 
Q 819 9 494 109 
L 494 744 
Q 775 591 1075 516 
Q 1375 441 1709 441 
Q 2250 441 2565 725 
Q 2881 1009 2881 1497 
Q 2881 1984 2565 2268 
Q 2250 2553 1709 2553 
Q 1456 2553 1204 2497 
Q 953 2441 691 2322 
L 691 4666 
z
" transform="scale(0.015625)"/>
        <path id="DejaVuSans-20" transform="scale(0.015625)"/>
        <path id="DejaVuSans-4c" d="M 628 4666 
L 1259 4666 
L 1259 531 
L 3531 531 
L 3531 0 
L 628 0 
L 628 4666 
z
" transform="scale(0.015625)"/>
        <path id="DejaVuSans-61" d="M 2194 1759 
Q 1497 1759 1228 1600 
Q 959 1441 959 1056 
Q 959 750 1161 570 
Q 1363 391 1709 391 
Q 2188 391 2477 730 
Q 2766 1069 2766 1631 
L 2766 1759 
L 2194 1759 
z
M 3341 1997 
L 3341 0 
L 2766 0 
L 2766 531 
Q 2569 213 2275 61 
Q 1981 -91 1556 -91 
Q 1019 -91 701 211 
Q 384 513 384 1019 
Q 384 1609 779 1909 
Q 1175 2209 1959 2209 
L 2766 2209 
L 2766 2266 
Q 2766 2663 2505 2880 
Q 2244 3097 1772 3097 
Q 1472 3097 1187 3025 
Q 903 2953 641 2809 
L 641 3341 
Q 956 3463 1253 3523 
Q 1550 3584 1831 3584 
Q 2591 3584 2966 3190 
Q 3341 2797 3341 1997 
z
" transform="scale(0.015625)"/>
        <path id="DejaVuSans-72" d="M 2631 2963 
Q 2534 3019 2420 3045 
Q 2306 3072 2169 3072 
Q 1681 3072 1420 2755 
Q 1159 2438 1159 1844 
L 1159 0 
L 581 0 
L 581 3500 
L 1159 3500 
L 1159 2956 
Q 1341 3275 1631 3429 
Q 1922 3584 2338 3584 
Q 2397 3584 2469 3576 
Q 2541 3569 2628 3553 
L 2631 2963 
z
" transform="scale(0.015625)"/>
        <path id="DejaVuSans-67" d="M 2906 1791 
Q 2906 2416 2648 2759 
Q 2391 3103 1925 3103 
Q 1463 3103 1205 2759 
Q 947 2416 947 1791 
Q 947 1169 1205 825 
Q 1463 481 1925 481 
Q 2391 481 2648 825 
Q 2906 1169 2906 1791 
z
M 3481 434 
Q 3481 -459 3084 -895 
Q 2688 -1331 1869 -1331 
Q 1566 -1331 1297 -1286 
Q 1028 -1241 775 -1147 
L 775 -588 
Q 1028 -725 1275 -790 
Q 1522 -856 1778 -856 
Q 2344 -856 2625 -561 
Q 2906 -266 2906 331 
L 2906 616 
Q 2728 306 2450 153 
Q 2172 0 1784 0 
Q 1141 0 747 490 
Q 353 981 353 1791 
Q 353 2603 747 3093 
Q 1141 3584 1784 3584 
Q 2172 3584 2450 3431 
Q 2728 3278 2906 2969 
L 2906 3500 
L 3481 3500 
L 3481 434 
z
" transform="scale(0.015625)"/>
        <path id="DejaVuSans-65" d="M 3597 1894 
L 3597 1613 
L 953 1613 
Q 991 1019 1311 708 
Q 1631 397 2203 397 
Q 2534 397 2845 478 
Q 3156 559 3463 722 
L 3463 178 
Q 3153 47 2828 -22 
Q 2503 -91 2169 -91 
Q 1331 -91 842 396 
Q 353 884 353 1716 
Q 353 2575 817 3079 
Q 1281 3584 2069 3584 
Q 2775 3584 3186 3129 
Q 3597 2675 3597 1894 
z
M 3022 2063 
Q 3016 2534 2758 2815 
Q 2500 3097 2075 3097 
Q 1594 3097 1305 2825 
Q 1016 2553 972 2059 
L 3022 2063 
z
" transform="scale(0.015625)"/>
       </defs>
       <use xlink:href="#DejaVuSans-54"/>
       <use xlink:href="#DejaVuSans-35" x="61.083984"/>
       <use xlink:href="#DejaVuSans-20" x="124.707031"/>
       <use xlink:href="#DejaVuSans-4c" x="156.494141"/>
       <use xlink:href="#DejaVuSans-61" x="212.207031"/>
       <use xlink:href="#DejaVuSans-72" x="273.486328"/>
       <use xlink:href="#DejaVuSans-67" x="312.849609"/>
       <use xlink:href="#DejaVuSans-65" x="376.326172"/>
      </g>
     </g>
    </g>
    <g id="xtick_2">
     <g id="line2d_2">
      <g>
       <use xlink:href="#m34888f64b2" x="166.151956" y="211.598125" style="stroke: #000000; stroke-width: 0.8"/>
      </g>
     </g>
     <g id="text_2">
      <!-- T5 3B -->
      <g transform="translate(151.716019 226.196562) scale(0.1 -0.1)">
       <defs>
        <path id="DejaVuSans-33" d="M 2597 2516 
Q 3050 2419 3304 2112 
Q 3559 1806 3559 1356 
Q 3559 666 3084 287 
Q 2609 -91 1734 -91 
Q 1441 -91 1130 -33 
Q 819 25 488 141 
L 488 750 
Q 750 597 1062 519 
Q 1375 441 1716 441 
Q 2309 441 2620 675 
Q 2931 909 2931 1356 
Q 2931 1769 2642 2001 
Q 2353 2234 1838 2234 
L 1294 2234 
L 1294 2753 
L 1863 2753 
Q 2328 2753 2575 2939 
Q 2822 3125 2822 3475 
Q 2822 3834 2567 4026 
Q 2313 4219 1838 4219 
Q 1578 4219 1281 4162 
Q 984 4106 628 3988 
L 628 4550 
Q 988 4650 1302 4700 
Q 1616 4750 1894 4750 
Q 2613 4750 3031 4423 
Q 3450 4097 3450 3541 
Q 3450 3153 3228 2886 
Q 3006 2619 2597 2516 
z
" transform="scale(0.015625)"/>
        <path id="DejaVuSans-42" d="M 1259 2228 
L 1259 519 
L 2272 519 
Q 2781 519 3026 730 
Q 3272 941 3272 1375 
Q 3272 1813 3026 2020 
Q 2781 2228 2272 2228 
L 1259 2228 
z
M 1259 4147 
L 1259 2741 
L 2194 2741 
Q 2656 2741 2882 2914 
Q 3109 3088 3109 3444 
Q 3109 3797 2882 3972 
Q 2656 4147 2194 4147 
L 1259 4147 
z
M 628 4666 
L 2241 4666 
Q 2963 4666 3353 4366 
Q 3744 4066 3744 3513 
Q 3744 3084 3544 2831 
Q 3344 2578 2956 2516 
Q 3422 2416 3680 2098 
Q 3938 1781 3938 1306 
Q 3938 681 3513 340 
Q 3088 0 2303 0 
L 628 0 
L 628 4666 
z
" transform="scale(0.015625)"/>
       </defs>
       <use xlink:href="#DejaVuSans-54"/>
       <use xlink:href="#DejaVuSans-35" x="61.083984"/>
       <use xlink:href="#DejaVuSans-20" x="124.707031"/>
       <use xlink:href="#DejaVuSans-33" x="156.494141"/>
       <use xlink:href="#DejaVuSans-42" x="220.117188"/>
      </g>
     </g>
    </g>
    <g id="xtick_3">
     <g id="line2d_3">
      <g>
       <use xlink:href="#m34888f64b2" x="247.78643" y="211.598125" style="stroke: #000000; stroke-width: 0.8"/>
      </g>
     </g>
     <g id="text_3">
      <!-- ByT5 Small -->
      <g transform="translate(219.685649 226.196562) scale(0.1 -0.1)">
       <defs>
        <path id="DejaVuSans-79" d="M 2059 -325 
Q 1816 -950 1584 -1140 
Q 1353 -1331 966 -1331 
L 506 -1331 
L 506 -850 
L 844 -850 
Q 1081 -850 1212 -737 
Q 1344 -625 1503 -206 
L 1606 56 
L 191 3500 
L 800 3500 
L 1894 763 
L 2988 3500 
L 3597 3500 
L 2059 -325 
z
" transform="scale(0.015625)"/>
        <path id="DejaVuSans-53" d="M 3425 4513 
L 3425 3897 
Q 3066 4069 2747 4153 
Q 2428 4238 2131 4238 
Q 1616 4238 1336 4038 
Q 1056 3838 1056 3469 
Q 1056 3159 1242 3001 
Q 1428 2844 1947 2747 
L 2328 2669 
Q 3034 2534 3370 2195 
Q 3706 1856 3706 1288 
Q 3706 609 3251 259 
Q 2797 -91 1919 -91 
Q 1588 -91 1214 -16 
Q 841 59 441 206 
L 441 856 
Q 825 641 1194 531 
Q 1563 422 1919 422 
Q 2459 422 2753 634 
Q 3047 847 3047 1241 
Q 3047 1584 2836 1778 
Q 2625 1972 2144 2069 
L 1759 2144 
Q 1053 2284 737 2584 
Q 422 2884 422 3419 
Q 422 4038 858 4394 
Q 1294 4750 2059 4750 
Q 2388 4750 2728 4690 
Q 3069 4631 3425 4513 
z
" transform="scale(0.015625)"/>
        <path id="DejaVuSans-6d" d="M 3328 2828 
Q 3544 3216 3844 3400 
Q 4144 3584 4550 3584 
Q 5097 3584 5394 3201 
Q 5691 2819 5691 2113 
L 5691 0 
L 5113 0 
L 5113 2094 
Q 5113 2597 4934 2840 
Q 4756 3084 4391 3084 
Q 3944 3084 3684 2787 
Q 3425 2491 3425 1978 
L 3425 0 
L 2847 0 
L 2847 2094 
Q 2847 2600 2669 2842 
Q 2491 3084 2119 3084 
Q 1678 3084 1418 2786 
Q 1159 2488 1159 1978 
L 1159 0 
L 581 0 
L 581 3500 
L 1159 3500 
L 1159 2956 
Q 1356 3278 1631 3431 
Q 1906 3584 2284 3584 
Q 2666 3584 2933 3390 
Q 3200 3197 3328 2828 
z
" transform="scale(0.015625)"/>
        <path id="DejaVuSans-6c" d="M 603 4863 
L 1178 4863 
L 1178 0 
L 603 0 
L 603 4863 
z
" transform="scale(0.015625)"/>
       </defs>
       <use xlink:href="#DejaVuSans-42"/>
       <use xlink:href="#DejaVuSans-79" x="68.603516"/>
       <use xlink:href="#DejaVuSans-54" x="127.783203"/>
       <use xlink:href="#DejaVuSans-35" x="188.867188"/>
       <use xlink:href="#DejaVuSans-20" x="252.490234"/>
       <use xlink:href="#DejaVuSans-53" x="284.277344"/>
       <use xlink:href="#DejaVuSans-6d" x="347.753906"/>
       <use xlink:href="#DejaVuSans-61" x="445.166016"/>
       <use xlink:href="#DejaVuSans-6c" x="506.445312"/>
       <use xlink:href="#DejaVuSans-6c" x="534.228516"/>
      </g>
     </g>
    </g>
    <g id="xtick_4">
     <g id="line2d_4">
      <g>
       <use xlink:href="#m34888f64b2" x="329.420904" y="211.598125" style="stroke: #000000; stroke-width: 0.8"/>
      </g>
     </g>
     <g id="text_4">
      <!-- ByT5 XL -->
      <g transform="translate(308.995904 226.196562) scale(0.1 -0.1)">
       <defs>
        <path id="DejaVuSans-58" d="M 403 4666 
L 1081 4666 
L 2241 2931 
L 3406 4666 
L 4084 4666 
L 2584 2425 
L 4184 0 
L 3506 0 
L 2194 1984 
L 872 0 
L 191 0 
L 1856 2491 
L 403 4666 
z
" transform="scale(0.015625)"/>
       </defs>
       <use xlink:href="#DejaVuSans-42"/>
       <use xlink:href="#DejaVuSans-79" x="68.603516"/>
       <use xlink:href="#DejaVuSans-54" x="127.783203"/>
       <use xlink:href="#DejaVuSans-35" x="188.867188"/>
       <use xlink:href="#DejaVuSans-20" x="252.490234"/>
       <use xlink:href="#DejaVuSans-58" x="284.277344"/>
       <use xlink:href="#DejaVuSans-4c" x="352.783203"/>
      </g>
     </g>
    </g>
    <g id="text_5">
     <!-- Model -->
     <g transform="translate(175.629017 239.874687) scale(0.1 -0.1)">
      <defs>
       <path id="DejaVuSans-4d" d="M 628 4666 
L 1569 4666 
L 2759 1491 
L 3956 4666 
L 4897 4666 
L 4897 0 
L 4281 0 
L 4281 4097 
L 3078 897 
L 2444 897 
L 1241 4097 
L 1241 0 
L 628 0 
L 628 4666 
z
" transform="scale(0.015625)"/>
       <path id="DejaVuSans-6f" d="M 1959 3097 
Q 1497 3097 1228 2736 
Q 959 2375 959 1747 
Q 959 1119 1226 758 
Q 1494 397 1959 397 
Q 2419 397 2687 759 
Q 2956 1122 2956 1747 
Q 2956 2369 2687 2733 
Q 2419 3097 1959 3097 
z
M 1959 3584 
Q 2709 3584 3137 3096 
Q 3566 2609 3566 1747 
Q 3566 888 3137 398 
Q 2709 -91 1959 -91 
Q 1206 -91 779 398 
Q 353 888 353 1747 
Q 353 2609 779 3096 
Q 1206 3584 1959 3584 
z
" transform="scale(0.015625)"/>
       <path id="DejaVuSans-64" d="M 2906 2969 
L 2906 4863 
L 3481 4863 
L 3481 0 
L 2906 0 
L 2906 525 
Q 2725 213 2448 61 
Q 2172 -91 1784 -91 
Q 1150 -91 751 415 
Q 353 922 353 1747 
Q 353 2572 751 3078 
Q 1150 3584 1784 3584 
Q 2172 3584 2448 3432 
Q 2725 3281 2906 2969 
z
M 947 1747 
Q 947 1113 1208 752 
Q 1469 391 1925 391 
Q 2381 391 2643 752 
Q 2906 1113 2906 1747 
Q 2906 2381 2643 2742 
Q 2381 3103 1925 3103 
Q 1469 3103 1208 2742 
Q 947 2381 947 1747 
z
" transform="scale(0.015625)"/>
      </defs>
      <use xlink:href="#DejaVuSans-4d"/>
      <use xlink:href="#DejaVuSans-6f" x="86.279297"/>
      <use xlink:href="#DejaVuSans-64" x="147.460938"/>
      <use xlink:href="#DejaVuSans-65" x="210.9375"/>
      <use xlink:href="#DejaVuSans-6c" x="272.460938"/>
     </g>
    </g>
   </g>
   <g id="matplotlib.axis_2">
    <g id="ytick_1">
     <g id="line2d_5">
      <defs>
       <path id="m9f3d642ade" d="M 0 0 
L -3.5 0 
" style="stroke: #000000; stroke-width: 0.8"/>
      </defs>
      <g>
       <use xlink:href="#m9f3d642ade" x="46.965625" y="211.598125" style="stroke: #000000; stroke-width: 0.8"/>
      </g>
     </g>
     <g id="text_6">
      <!-- 0 -->
      <g transform="translate(33.603125 215.397344) scale(0.1 -0.1)">
       <defs>
        <path id="DejaVuSans-30" d="M 2034 4250 
Q 1547 4250 1301 3770 
Q 1056 3291 1056 2328 
Q 1056 1369 1301 889 
Q 1547 409 2034 409 
Q 2525 409 2770 889 
Q 3016 1369 3016 2328 
Q 3016 3291 2770 3770 
Q 2525 4250 2034 4250 
z
M 2034 4750 
Q 2819 4750 3233 4129 
Q 3647 3509 3647 2328 
Q 3647 1150 3233 529 
Q 2819 -91 2034 -91 
Q 1250 -91 836 529 
Q 422 1150 422 2328 
Q 422 3509 836 4129 
Q 1250 4750 2034 4750 
z
" transform="scale(0.015625)"/>
       </defs>
       <use xlink:href="#DejaVuSans-30"/>
      </g>
     </g>
    </g>
    <g id="ytick_2">
     <g id="line2d_6">
      <g>
       <use xlink:href="#m9f3d642ade" x="46.965625" y="173.742125" style="stroke: #000000; stroke-width: 0.8"/>
      </g>
     </g>
     <g id="text_7">
      <!-- 20 -->
      <g transform="translate(27.240625 177.541344) scale(0.1 -0.1)">
       <defs>
        <path id="DejaVuSans-32" d="M 1228 531 
L 3431 531 
L 3431 0 
L 469 0 
L 469 531 
Q 828 903 1448 1529 
Q 2069 2156 2228 2338 
Q 2531 2678 2651 2914 
Q 2772 3150 2772 3378 
Q 2772 3750 2511 3984 
Q 2250 4219 1831 4219 
Q 1534 4219 1204 4116 
Q 875 4013 500 3803 
L 500 4441 
Q 881 4594 1212 4672 
Q 1544 4750 1819 4750 
Q 2544 4750 2975 4387 
Q 3406 4025 3406 3419 
Q 3406 3131 3298 2873 
Q 3191 2616 2906 2266 
Q 2828 2175 2409 1742 
Q 1991 1309 1228 531 
z
" transform="scale(0.015625)"/>
       </defs>
       <use xlink:href="#DejaVuSans-32"/>
       <use xlink:href="#DejaVuSans-30" x="63.623047"/>
      </g>
     </g>
    </g>
    <g id="ytick_3">
     <g id="line2d_7">
      <g>
       <use xlink:href="#m9f3d642ade" x="46.965625" y="135.886125" style="stroke: #000000; stroke-width: 0.8"/>
      </g>
     </g>
     <g id="text_8">
      <!-- 40 -->
      <g transform="translate(27.240625 139.685344) scale(0.1 -0.1)">
       <defs>
        <path id="DejaVuSans-34" d="M 2419 4116 
L 825 1625 
L 2419 1625 
L 2419 4116 
z
M 2253 4666 
L 3047 4666 
L 3047 1625 
L 3713 1625 
L 3713 1100 
L 3047 1100 
L 3047 0 
L 2419 0 
L 2419 1100 
L 313 1100 
L 313 1709 
L 2253 4666 
z
" transform="scale(0.015625)"/>
       </defs>
       <use xlink:href="#DejaVuSans-34"/>
       <use xlink:href="#DejaVuSans-30" x="63.623047"/>
      </g>
     </g>
    </g>
    <g id="ytick_4">
     <g id="line2d_8">
      <g>
       <use xlink:href="#m9f3d642ade" x="46.965625" y="98.030125" style="stroke: #000000; stroke-width: 0.8"/>
      </g>
     </g>
     <g id="text_9">
      <!-- 60 -->
      <g transform="translate(27.240625 101.829344) scale(0.1 -0.1)">
       <defs>
        <path id="DejaVuSans-36" d="M 2113 2584 
Q 1688 2584 1439 2293 
Q 1191 2003 1191 1497 
Q 1191 994 1439 701 
Q 1688 409 2113 409 
Q 2538 409 2786 701 
Q 3034 994 3034 1497 
Q 3034 2003 2786 2293 
Q 2538 2584 2113 2584 
z
M 3366 4563 
L 3366 3988 
Q 3128 4100 2886 4159 
Q 2644 4219 2406 4219 
Q 1781 4219 1451 3797 
Q 1122 3375 1075 2522 
Q 1259 2794 1537 2939 
Q 1816 3084 2150 3084 
Q 2853 3084 3261 2657 
Q 3669 2231 3669 1497 
Q 3669 778 3244 343 
Q 2819 -91 2113 -91 
Q 1303 -91 875 529 
Q 447 1150 447 2328 
Q 447 3434 972 4092 
Q 1497 4750 2381 4750 
Q 2619 4750 2861 4703 
Q 3103 4656 3366 4563 
z
" transform="scale(0.015625)"/>
       </defs>
       <use xlink:href="#DejaVuSans-36"/>
       <use xlink:href="#DejaVuSans-30" x="63.623047"/>
      </g>
     </g>
    </g>
    <g id="ytick_5">
     <g id="line2d_9">
      <g>
       <use xlink:href="#m9f3d642ade" x="46.965625" y="60.174125" style="stroke: #000000; stroke-width: 0.8"/>
      </g>
     </g>
     <g id="text_10">
      <!-- 80 -->
      <g transform="translate(27.240625 63.973344) scale(0.1 -0.1)">
       <defs>
        <path id="DejaVuSans-38" d="M 2034 2216 
Q 1584 2216 1326 1975 
Q 1069 1734 1069 1313 
Q 1069 891 1326 650 
Q 1584 409 2034 409 
Q 2484 409 2743 651 
Q 3003 894 3003 1313 
Q 3003 1734 2745 1975 
Q 2488 2216 2034 2216 
z
M 1403 2484 
Q 997 2584 770 2862 
Q 544 3141 544 3541 
Q 544 4100 942 4425 
Q 1341 4750 2034 4750 
Q 2731 4750 3128 4425 
Q 3525 4100 3525 3541 
Q 3525 3141 3298 2862 
Q 3072 2584 2669 2484 
Q 3125 2378 3379 2068 
Q 3634 1759 3634 1313 
Q 3634 634 3220 271 
Q 2806 -91 2034 -91 
Q 1263 -91 848 271 
Q 434 634 434 1313 
Q 434 1759 690 2068 
Q 947 2378 1403 2484 
z
M 1172 3481 
Q 1172 3119 1398 2916 
Q 1625 2713 2034 2713 
Q 2441 2713 2670 2916 
Q 2900 3119 2900 3481 
Q 2900 3844 2670 4047 
Q 2441 4250 2034 4250 
Q 1625 4250 1398 4047 
Q 1172 3844 1172 3481 
z
" transform="scale(0.015625)"/>
       </defs>
       <use xlink:href="#DejaVuSans-38"/>
       <use xlink:href="#DejaVuSans-30" x="63.623047"/>
      </g>
     </g>
    </g>
    <g id="ytick_6">
     <g id="line2d_10">
      <g>
       <use xlink:href="#m9f3d642ade" x="46.965625" y="22.318125" style="stroke: #000000; stroke-width: 0.8"/>
      </g>
     </g>
     <g id="text_11">
      <!-- 100 -->
      <g transform="translate(20.878125 26.117344) scale(0.1 -0.1)">
       <defs>
        <path id="DejaVuSans-31" d="M 794 531 
L 1825 531 
L 1825 4091 
L 703 3866 
L 703 4441 
L 1819 4666 
L 2450 4666 
L 2450 531 
L 3481 531 
L 3481 0 
L 794 0 
L 794 531 
z
" transform="scale(0.015625)"/>
       </defs>
       <use xlink:href="#DejaVuSans-31"/>
       <use xlink:href="#DejaVuSans-30" x="63.623047"/>
       <use xlink:href="#DejaVuSans-30" x="127.246094"/>
      </g>
     </g>
    </g>
    <g id="text_12">
     <!-- Accuracy(%) -->
     <g transform="translate(14.798438 148.438594) rotate(-90) scale(0.1 -0.1)">
      <defs>
       <path id="DejaVuSans-41" d="M 2188 4044 
L 1331 1722 
L 3047 1722 
L 2188 4044 
z
M 1831 4666 
L 2547 4666 
L 4325 0 
L 3669 0 
L 3244 1197 
L 1141 1197 
L 716 0 
L 50 0 
L 1831 4666 
z
" transform="scale(0.015625)"/>
       <path id="DejaVuSans-63" d="M 3122 3366 
L 3122 2828 
Q 2878 2963 2633 3030 
Q 2388 3097 2138 3097 
Q 1578 3097 1268 2742 
Q 959 2388 959 1747 
Q 959 1106 1268 751 
Q 1578 397 2138 397 
Q 2388 397 2633 464 
Q 2878 531 3122 666 
L 3122 134 
Q 2881 22 2623 -34 
Q 2366 -91 2075 -91 
Q 1284 -91 818 406 
Q 353 903 353 1747 
Q 353 2603 823 3093 
Q 1294 3584 2113 3584 
Q 2378 3584 2631 3529 
Q 2884 3475 3122 3366 
z
" transform="scale(0.015625)"/>
       <path id="DejaVuSans-75" d="M 544 1381 
L 544 3500 
L 1119 3500 
L 1119 1403 
Q 1119 906 1312 657 
Q 1506 409 1894 409 
Q 2359 409 2629 706 
Q 2900 1003 2900 1516 
L 2900 3500 
L 3475 3500 
L 3475 0 
L 2900 0 
L 2900 538 
Q 2691 219 2414 64 
Q 2138 -91 1772 -91 
Q 1169 -91 856 284 
Q 544 659 544 1381 
z
M 1991 3584 
L 1991 3584 
z
" transform="scale(0.015625)"/>
       <path id="DejaVuSans-28" d="M 1984 4856 
Q 1566 4138 1362 3434 
Q 1159 2731 1159 2009 
Q 1159 1288 1364 580 
Q 1569 -128 1984 -844 
L 1484 -844 
Q 1016 -109 783 600 
Q 550 1309 550 2009 
Q 550 2706 781 3412 
Q 1013 4119 1484 4856 
L 1984 4856 
z
" transform="scale(0.015625)"/>
       <path id="DejaVuSans-25" d="M 4653 2053 
Q 4381 2053 4226 1822 
Q 4072 1591 4072 1178 
Q 4072 772 4226 539 
Q 4381 306 4653 306 
Q 4919 306 5073 539 
Q 5228 772 5228 1178 
Q 5228 1588 5073 1820 
Q 4919 2053 4653 2053 
z
M 4653 2450 
Q 5147 2450 5437 2106 
Q 5728 1763 5728 1178 
Q 5728 594 5436 251 
Q 5144 -91 4653 -91 
Q 4153 -91 3862 251 
Q 3572 594 3572 1178 
Q 3572 1766 3864 2108 
Q 4156 2450 4653 2450 
z
M 1428 4353 
Q 1159 4353 1004 4120 
Q 850 3888 850 3481 
Q 850 3069 1003 2837 
Q 1156 2606 1428 2606 
Q 1700 2606 1854 2837 
Q 2009 3069 2009 3481 
Q 2009 3884 1853 4118 
Q 1697 4353 1428 4353 
z
M 4250 4750 
L 4750 4750 
L 1831 -91 
L 1331 -91 
L 4250 4750 
z
M 1428 4750 
Q 1922 4750 2215 4408 
Q 2509 4066 2509 3481 
Q 2509 2891 2217 2550 
Q 1925 2209 1428 2209 
Q 931 2209 642 2551 
Q 353 2894 353 3481 
Q 353 4063 643 4406 
Q 934 4750 1428 4750 
z
" transform="scale(0.015625)"/>
       <path id="DejaVuSans-29" d="M 513 4856 
L 1013 4856 
Q 1481 4119 1714 3412 
Q 1947 2706 1947 2009 
Q 1947 1309 1714 600 
Q 1481 -109 1013 -844 
L 513 -844 
Q 928 -128 1133 580 
Q 1338 1288 1338 2009 
Q 1338 2731 1133 3434 
Q 928 4138 513 4856 
z
" transform="scale(0.015625)"/>
      </defs>
      <use xlink:href="#DejaVuSans-41"/>
      <use xlink:href="#DejaVuSans-63" x="66.658203"/>
      <use xlink:href="#DejaVuSans-63" x="121.638672"/>
      <use xlink:href="#DejaVuSans-75" x="176.619141"/>
      <use xlink:href="#DejaVuSans-72" x="239.998047"/>
      <use xlink:href="#DejaVuSans-61" x="281.111328"/>
      <use xlink:href="#DejaVuSans-63" x="342.390625"/>
      <use xlink:href="#DejaVuSans-79" x="397.371094"/>
      <use xlink:href="#DejaVuSans-28" x="456.550781"/>
      <use xlink:href="#DejaVuSans-25" x="495.564453"/>
      <use xlink:href="#DejaVuSans-29" x="590.583984"/>
     </g>
    </g>
   </g>
   <g id="patch_15">
    <path d="M 46.965625 211.598125 
L 46.965625 22.318125 
" style="fill: none; stroke: #000000; stroke-width: 0.8; stroke-linejoin: miter; stroke-linecap: square"/>
   </g>
   <g id="patch_16">
    <path d="M 334.318972 211.598125 
L 334.318972 22.318125 
" style="fill: none; stroke: #000000; stroke-width: 0.8; stroke-linejoin: miter; stroke-linecap: square"/>
   </g>
   <g id="patch_17">
    <path d="M 46.965625 211.598125 
L 334.318972 211.598125 
" style="fill: none; stroke: #000000; stroke-width: 0.8; stroke-linejoin: miter; stroke-linecap: square"/>
   </g>
   <g id="patch_18">
    <path d="M 46.965625 22.318125 
L 334.318972 22.318125 
" style="fill: none; stroke: #000000; stroke-width: 0.8; stroke-linejoin: miter; stroke-linecap: square"/>
   </g>
   <g id="text_13">
    <!-- 1.22062 -->
    <g transform="translate(70.949963 207.287734) rotate(-90) scale(0.1 -0.1)">
     <defs>
      <path id="DejaVuSans-2e" d="M 684 794 
L 1344 794 
L 1344 0 
L 684 0 
L 684 794 
z
" transform="scale(0.015625)"/>
     </defs>
     <use xlink:href="#DejaVuSans-31"/>
     <use xlink:href="#DejaVuSans-2e" x="63.623047"/>
     <use xlink:href="#DejaVuSans-32" x="95.410156"/>
     <use xlink:href="#DejaVuSans-32" x="159.033203"/>
     <use xlink:href="#DejaVuSans-30" x="222.65625"/>
     <use xlink:href="#DejaVuSans-36" x="286.279297"/>
     <use xlink:href="#DejaVuSans-32" x="349.902344"/>
    </g>
   </g>
   <g id="text_14">
    <!-- 1.59751 -->
    <g transform="translate(152.584437 206.574365) rotate(-90) scale(0.1 -0.1)">
     <defs>
      <path id="DejaVuSans-39" d="M 703 97 
L 703 672 
Q 941 559 1184 500 
Q 1428 441 1663 441 
Q 2288 441 2617 861 
Q 2947 1281 2994 2138 
Q 2813 1869 2534 1725 
Q 2256 1581 1919 1581 
Q 1219 1581 811 2004 
Q 403 2428 403 3163 
Q 403 3881 828 4315 
Q 1253 4750 1959 4750 
Q 2769 4750 3195 4129 
Q 3622 3509 3622 2328 
Q 3622 1225 3098 567 
Q 2575 -91 1691 -91 
Q 1453 -91 1209 -44 
Q 966 3 703 97 
z
M 1959 2075 
Q 2384 2075 2632 2365 
Q 2881 2656 2881 3163 
Q 2881 3666 2632 3958 
Q 2384 4250 1959 4250 
Q 1534 4250 1286 3958 
Q 1038 3666 1038 3163 
Q 1038 2656 1286 2365 
Q 1534 2075 1959 2075 
z
" transform="scale(0.015625)"/>
      <path id="DejaVuSans-37" d="M 525 4666 
L 3525 4666 
L 3525 4397 
L 1831 0 
L 1172 0 
L 2766 4134 
L 525 4134 
L 525 4666 
z
" transform="scale(0.015625)"/>
     </defs>
     <use xlink:href="#DejaVuSans-31"/>
     <use xlink:href="#DejaVuSans-2e" x="63.623047"/>
     <use xlink:href="#DejaVuSans-35" x="95.410156"/>
     <use xlink:href="#DejaVuSans-39" x="159.033203"/>
     <use xlink:href="#DejaVuSans-37" x="222.65625"/>
     <use xlink:href="#DejaVuSans-35" x="286.279297"/>
     <use xlink:href="#DejaVuSans-31" x="349.902344"/>
    </g>
   </g>
   <g id="text_15">
    <!-- 0.182019 -->
    <g transform="translate(315.853384 209.253599) rotate(-90) scale(0.1 -0.1)">
     <use xlink:href="#DejaVuSans-30"/>
     <use xlink:href="#DejaVuSans-2e" x="63.623047"/>
     <use xlink:href="#DejaVuSans-31" x="95.410156"/>
     <use xlink:href="#DejaVuSans-38" x="159.033203"/>
     <use xlink:href="#DejaVuSans-32" x="222.65625"/>
     <use xlink:href="#DejaVuSans-30" x="286.279297"/>
     <use xlink:href="#DejaVuSans-31" x="349.902344"/>
     <use xlink:href="#DejaVuSans-39" x="413.525391"/>
    </g>
   </g>
   <g id="text_16">
    <!-- 0.0065 -->
    <g transform="translate(87.276858 209.585822) rotate(-90) scale(0.1 -0.1)">
     <use xlink:href="#DejaVuSans-30"/>
     <use xlink:href="#DejaVuSans-2e" x="63.623047"/>
     <use xlink:href="#DejaVuSans-30" x="95.410156"/>
     <use xlink:href="#DejaVuSans-30" x="159.033203"/>
     <use xlink:href="#DejaVuSans-36" x="222.65625"/>
     <use xlink:href="#DejaVuSans-35" x="286.279297"/>
    </g>
   </g>
   <g id="text_17">
    <!-- 0.643108 -->
    <g transform="translate(168.911331 208.380851) rotate(-90) scale(0.1 -0.1)">
     <use xlink:href="#DejaVuSans-30"/>
     <use xlink:href="#DejaVuSans-2e" x="63.623047"/>
     <use xlink:href="#DejaVuSans-36" x="95.410156"/>
     <use xlink:href="#DejaVuSans-34" x="159.033203"/>
     <use xlink:href="#DejaVuSans-33" x="222.65625"/>
     <use xlink:href="#DejaVuSans-31" x="286.279297"/>
     <use xlink:href="#DejaVuSans-30" x="349.902344"/>
     <use xlink:href="#DejaVuSans-38" x="413.525391"/>
    </g>
   </g>
   <g id="text_18">
    <!-- 0.506625 -->
    <g transform="translate(103.603753 208.639185) rotate(-90) scale(0.1 -0.1)">
     <use xlink:href="#DejaVuSans-30"/>
     <use xlink:href="#DejaVuSans-2e" x="63.623047"/>
     <use xlink:href="#DejaVuSans-35" x="95.410156"/>
     <use xlink:href="#DejaVuSans-30" x="159.033203"/>
     <use xlink:href="#DejaVuSans-36" x="222.65625"/>
     <use xlink:href="#DejaVuSans-36" x="286.279297"/>
     <use xlink:href="#DejaVuSans-32" x="349.902344"/>
     <use xlink:href="#DejaVuSans-35" x="413.525391"/>
    </g>
   </g>
   <g id="text_19">
    <!-- 0.182019 -->
    <g transform="translate(185.238226 209.253599) rotate(-90) scale(0.1 -0.1)">
     <use xlink:href="#DejaVuSans-30"/>
     <use xlink:href="#DejaVuSans-2e" x="63.623047"/>
     <use xlink:href="#DejaVuSans-31" x="95.410156"/>
     <use xlink:href="#DejaVuSans-38" x="159.033203"/>
     <use xlink:href="#DejaVuSans-32" x="222.65625"/>
     <use xlink:href="#DejaVuSans-30" x="286.279297"/>
     <use xlink:href="#DejaVuSans-31" x="349.902344"/>
     <use xlink:href="#DejaVuSans-39" x="413.525391"/>
    </g>
   </g>
   <g id="text_20">
    <!-- Times Accuracy by model -->
    <g transform="translate(113.678236 16.318125) scale(0.12 -0.12)">
     <defs>
      <path id="DejaVuSans-69" d="M 603 3500 
L 1178 3500 
L 1178 0 
L 603 0 
L 603 3500 
z
M 603 4863 
L 1178 4863 
L 1178 4134 
L 603 4134 
L 603 4863 
z
" transform="scale(0.015625)"/>
      <path id="DejaVuSans-73" d="M 2834 3397 
L 2834 2853 
Q 2591 2978 2328 3040 
Q 2066 3103 1784 3103 
Q 1356 3103 1142 2972 
Q 928 2841 928 2578 
Q 928 2378 1081 2264 
Q 1234 2150 1697 2047 
L 1894 2003 
Q 2506 1872 2764 1633 
Q 3022 1394 3022 966 
Q 3022 478 2636 193 
Q 2250 -91 1575 -91 
Q 1294 -91 989 -36 
Q 684 19 347 128 
L 347 722 
Q 666 556 975 473 
Q 1284 391 1588 391 
Q 1994 391 2212 530 
Q 2431 669 2431 922 
Q 2431 1156 2273 1281 
Q 2116 1406 1581 1522 
L 1381 1569 
Q 847 1681 609 1914 
Q 372 2147 372 2553 
Q 372 3047 722 3315 
Q 1072 3584 1716 3584 
Q 2034 3584 2315 3537 
Q 2597 3491 2834 3397 
z
" transform="scale(0.015625)"/>
      <path id="DejaVuSans-62" d="M 3116 1747 
Q 3116 2381 2855 2742 
Q 2594 3103 2138 3103 
Q 1681 3103 1420 2742 
Q 1159 2381 1159 1747 
Q 1159 1113 1420 752 
Q 1681 391 2138 391 
Q 2594 391 2855 752 
Q 3116 1113 3116 1747 
z
M 1159 2969 
Q 1341 3281 1617 3432 
Q 1894 3584 2278 3584 
Q 2916 3584 3314 3078 
Q 3713 2572 3713 1747 
Q 3713 922 3314 415 
Q 2916 -91 2278 -91 
Q 1894 -91 1617 61 
Q 1341 213 1159 525 
L 1159 0 
L 581 0 
L 581 4863 
L 1159 4863 
L 1159 2969 
z
" transform="scale(0.015625)"/>
     </defs>
     <use xlink:href="#DejaVuSans-54"/>
     <use xlink:href="#DejaVuSans-69" x="57.958984"/>
     <use xlink:href="#DejaVuSans-6d" x="85.742188"/>
     <use xlink:href="#DejaVuSans-65" x="183.154297"/>
     <use xlink:href="#DejaVuSans-73" x="244.677734"/>
     <use xlink:href="#DejaVuSans-20" x="296.777344"/>
     <use xlink:href="#DejaVuSans-41" x="328.564453"/>
     <use xlink:href="#DejaVuSans-63" x="395.222656"/>
     <use xlink:href="#DejaVuSans-63" x="450.203125"/>
     <use xlink:href="#DejaVuSans-75" x="505.183594"/>
     <use xlink:href="#DejaVuSans-72" x="568.5625"/>
     <use xlink:href="#DejaVuSans-61" x="609.675781"/>
     <use xlink:href="#DejaVuSans-63" x="670.955078"/>
     <use xlink:href="#DejaVuSans-79" x="725.935547"/>
     <use xlink:href="#DejaVuSans-20" x="785.115234"/>
     <use xlink:href="#DejaVuSans-62" x="816.902344"/>
     <use xlink:href="#DejaVuSans-79" x="880.378906"/>
     <use xlink:href="#DejaVuSans-20" x="939.558594"/>
     <use xlink:href="#DejaVuSans-6d" x="971.345703"/>
     <use xlink:href="#DejaVuSans-6f" x="1068.757812"/>
     <use xlink:href="#DejaVuSans-64" x="1129.939453"/>
     <use xlink:href="#DejaVuSans-65" x="1193.416016"/>
     <use xlink:href="#DejaVuSans-6c" x="1254.939453"/>
    </g>
   </g>
   <g id="text_21">
    <!-- a -->
    <g transform="translate(18.23029 16.318125) scale(0.12 -0.12)">
     <defs>
      <path id="DejaVuSerif-Bold-61" d="M 3525 2041 
L 3525 378 
L 4000 378 
L 4000 0 
L 2419 0 
L 2419 422 
Q 2200 159 1931 34 
Q 1663 -91 1319 -91 
Q 809 -91 536 182 
Q 263 456 263 966 
Q 263 1525 655 1803 
Q 1047 2081 1838 2081 
L 2419 2081 
L 2419 2278 
Q 2419 2681 2228 2873 
Q 2038 3066 1638 3066 
Q 1306 3066 1126 2930 
Q 947 2794 872 2484 
L 519 2484 
L 519 3200 
Q 816 3306 1134 3359 
Q 1453 3413 1806 3413 
Q 2697 3413 3111 3081 
Q 3525 2750 3525 2041 
z
M 2419 1044 
L 2419 1709 
L 2003 1709 
Q 1694 1709 1528 1540 
Q 1363 1372 1363 1056 
Q 1363 741 1483 584 
Q 1603 428 1850 428 
Q 2106 428 2262 597 
Q 2419 766 2419 1044 
z
" transform="scale(0.015625)"/>
     </defs>
     <use xlink:href="#DejaVuSerif-Bold-61"/>
    </g>
   </g>
  </g>
  <g id="axes_2">
   <g id="patch_19">
    <path d="M 401.565625 211.598125 
L 688.918972 211.598125 
L 688.918972 22.318125 
L 401.565625 22.318125 
z
" style="fill: #ffffff"/>
   </g>
   <g id="patch_20">
    <path d="M 414.627141 211.598125 
L 430.954035 211.598125 
L 430.954035 181.575333 
L 414.627141 181.575333 
z
" clip-path="url(#p73ffa7cd69)"/>
   </g>
   <g id="patch_21">
    <path d="M 496.261614 211.598125 
L 512.588509 211.598125 
L 512.588509 182.700321 
L 496.261614 182.700321 
z
" clip-path="url(#p73ffa7cd69)"/>
   </g>
   <g id="patch_22">
    <path d="M 0 0 
z
" clip-path="url(#p73ffa7cd69)"/>
   </g>
   <g id="patch_23">
    <path d="M 659.530562 211.598125 
L 675.857456 211.598125 
L 675.857456 190.815838 
L 659.530562 190.815838 
z
" clip-path="url(#p73ffa7cd69)"/>
   </g>
   <g id="patch_24">
    <path d="M 430.954035 211.598125 
L 447.28093 211.598125 
L 447.28093 190.383695 
L 430.954035 190.383695 
z
" clip-path="url(#p73ffa7cd69)" style="fill: #666666"/>
   </g>
   <g id="patch_25">
    <path d="M 512.588509 211.598125 
L 528.915404 211.598125 
L 528.915404 187.596919 
L 512.588509 187.596919 
z
" clip-path="url(#p73ffa7cd69)" style="fill: #666666"/>
   </g>
   <g id="patch_26">
    <path d="M 0 0 
z
" clip-path="url(#p73ffa7cd69)" style="fill: #666666"/>
   </g>
   <g id="patch_27">
    <path d="M 0 0 
z
" clip-path="url(#p73ffa7cd69)" style="fill: #666666"/>
   </g>
   <g id="patch_28">
    <path d="M 447.28093 211.598125 
L 463.607825 211.598125 
L 463.607825 185.608393 
L 447.28093 185.608393 
z
" clip-path="url(#p73ffa7cd69)" style="fill: #999999"/>
   </g>
   <g id="patch_29">
    <path d="M 528.915404 211.598125 
L 545.242299 211.598125 
L 545.242299 190.815838 
L 528.915404 190.815838 
z
" clip-path="url(#p73ffa7cd69)" style="fill: #999999"/>
   </g>
   <g id="patch_30">
    <path d="M 0 0 
z
" clip-path="url(#p73ffa7cd69)" style="fill: #999999"/>
   </g>
   <g id="patch_31">
    <path d="M 0 0 
z
" clip-path="url(#p73ffa7cd69)" style="fill: #999999"/>
   </g>
   <g id="matplotlib.axis_3">
    <g id="xtick_5">
     <g id="line2d_11">
      <g>
       <use xlink:href="#m34888f64b2" x="439.117483" y="211.598125" style="stroke: #000000; stroke-width: 0.8"/>
      </g>
     </g>
     <g id="text_22">
      <!-- T5 Large -->
      <g transform="translate(417.224514 226.196562) scale(0.1 -0.1)">
       <use xlink:href="#DejaVuSans-54"/>
       <use xlink:href="#DejaVuSans-35" x="61.083984"/>
       <use xlink:href="#DejaVuSans-20" x="124.707031"/>
       <use xlink:href="#DejaVuSans-4c" x="156.494141"/>
       <use xlink:href="#DejaVuSans-61" x="212.207031"/>
       <use xlink:href="#DejaVuSans-72" x="273.486328"/>
       <use xlink:href="#DejaVuSans-67" x="312.849609"/>
       <use xlink:href="#DejaVuSans-65" x="376.326172"/>
      </g>
     </g>
    </g>
    <g id="xtick_6">
     <g id="line2d_12">
      <g>
       <use xlink:href="#m34888f64b2" x="520.751956" y="211.598125" style="stroke: #000000; stroke-width: 0.8"/>
      </g>
     </g>
     <g id="text_23">
      <!-- T5 3B -->
      <g transform="translate(506.316019 226.196562) scale(0.1 -0.1)">
       <use xlink:href="#DejaVuSans-54"/>
       <use xlink:href="#DejaVuSans-35" x="61.083984"/>
       <use xlink:href="#DejaVuSans-20" x="124.707031"/>
       <use xlink:href="#DejaVuSans-33" x="156.494141"/>
       <use xlink:href="#DejaVuSans-42" x="220.117188"/>
      </g>
     </g>
    </g>
    <g id="xtick_7">
     <g id="line2d_13">
      <g>
       <use xlink:href="#m34888f64b2" x="602.38643" y="211.598125" style="stroke: #000000; stroke-width: 0.8"/>
      </g>
     </g>
     <g id="text_24">
      <!-- ByT5 Small -->
      <g transform="translate(574.285649 226.196562) scale(0.1 -0.1)">
       <use xlink:href="#DejaVuSans-42"/>
       <use xlink:href="#DejaVuSans-79" x="68.603516"/>
       <use xlink:href="#DejaVuSans-54" x="127.783203"/>
       <use xlink:href="#DejaVuSans-35" x="188.867188"/>
       <use xlink:href="#DejaVuSans-20" x="252.490234"/>
       <use xlink:href="#DejaVuSans-53" x="284.277344"/>
       <use xlink:href="#DejaVuSans-6d" x="347.753906"/>
       <use xlink:href="#DejaVuSans-61" x="445.166016"/>
       <use xlink:href="#DejaVuSans-6c" x="506.445312"/>
       <use xlink:href="#DejaVuSans-6c" x="534.228516"/>
      </g>
     </g>
    </g>
    <g id="xtick_8">
     <g id="line2d_14">
      <g>
       <use xlink:href="#m34888f64b2" x="684.020904" y="211.598125" style="stroke: #000000; stroke-width: 0.8"/>
      </g>
     </g>
     <g id="text_25">
      <!-- ByT5 XL -->
      <g transform="translate(663.595904 226.196562) scale(0.1 -0.1)">
       <use xlink:href="#DejaVuSans-42"/>
       <use xlink:href="#DejaVuSans-79" x="68.603516"/>
       <use xlink:href="#DejaVuSans-54" x="127.783203"/>
       <use xlink:href="#DejaVuSans-35" x="188.867188"/>
       <use xlink:href="#DejaVuSans-20" x="252.490234"/>
       <use xlink:href="#DejaVuSans-58" x="284.277344"/>
       <use xlink:href="#DejaVuSans-4c" x="352.783203"/>
      </g>
     </g>
    </g>
    <g id="text_26">
     <!-- Model -->
     <g transform="translate(530.229017 239.874687) scale(0.1 -0.1)">
      <use xlink:href="#DejaVuSans-4d"/>
      <use xlink:href="#DejaVuSans-6f" x="86.279297"/>
      <use xlink:href="#DejaVuSans-64" x="147.460938"/>
      <use xlink:href="#DejaVuSans-65" x="210.9375"/>
      <use xlink:href="#DejaVuSans-6c" x="272.460938"/>
     </g>
    </g>
   </g>
   <g id="matplotlib.axis_4">
    <g id="ytick_7">
     <g id="line2d_15">
      <g>
       <use xlink:href="#m9f3d642ade" x="401.565625" y="211.598125" style="stroke: #000000; stroke-width: 0.8"/>
      </g>
     </g>
     <g id="text_27">
      <!-- 0 -->
      <g transform="translate(388.203125 215.397344) scale(0.1 -0.1)">
       <use xlink:href="#DejaVuSans-30"/>
      </g>
     </g>
    </g>
    <g id="ytick_8">
     <g id="line2d_16">
      <g>
       <use xlink:href="#m9f3d642ade" x="401.565625" y="173.742125" style="stroke: #000000; stroke-width: 0.8"/>
      </g>
     </g>
     <g id="text_28">
      <!-- 20 -->
      <g transform="translate(381.840625 177.541344) scale(0.1 -0.1)">
       <use xlink:href="#DejaVuSans-32"/>
       <use xlink:href="#DejaVuSans-30" x="63.623047"/>
      </g>
     </g>
    </g>
    <g id="ytick_9">
     <g id="line2d_17">
      <g>
       <use xlink:href="#m9f3d642ade" x="401.565625" y="135.886125" style="stroke: #000000; stroke-width: 0.8"/>
      </g>
     </g>
     <g id="text_29">
      <!-- 40 -->
      <g transform="translate(381.840625 139.685344) scale(0.1 -0.1)">
       <use xlink:href="#DejaVuSans-34"/>
       <use xlink:href="#DejaVuSans-30" x="63.623047"/>
      </g>
     </g>
    </g>
    <g id="ytick_10">
     <g id="line2d_18">
      <g>
       <use xlink:href="#m9f3d642ade" x="401.565625" y="98.030125" style="stroke: #000000; stroke-width: 0.8"/>
      </g>
     </g>
     <g id="text_30">
      <!-- 60 -->
      <g transform="translate(381.840625 101.829344) scale(0.1 -0.1)">
       <use xlink:href="#DejaVuSans-36"/>
       <use xlink:href="#DejaVuSans-30" x="63.623047"/>
      </g>
     </g>
    </g>
    <g id="ytick_11">
     <g id="line2d_19">
      <g>
       <use xlink:href="#m9f3d642ade" x="401.565625" y="60.174125" style="stroke: #000000; stroke-width: 0.8"/>
      </g>
     </g>
     <g id="text_31">
      <!-- 80 -->
      <g transform="translate(381.840625 63.973344) scale(0.1 -0.1)">
       <use xlink:href="#DejaVuSans-38"/>
       <use xlink:href="#DejaVuSans-30" x="63.623047"/>
      </g>
     </g>
    </g>
    <g id="ytick_12">
     <g id="line2d_20">
      <g>
       <use xlink:href="#m9f3d642ade" x="401.565625" y="22.318125" style="stroke: #000000; stroke-width: 0.8"/>
      </g>
     </g>
     <g id="text_32">
      <!-- 100 -->
      <g transform="translate(375.478125 26.117344) scale(0.1 -0.1)">
       <use xlink:href="#DejaVuSans-31"/>
       <use xlink:href="#DejaVuSans-30" x="63.623047"/>
       <use xlink:href="#DejaVuSans-30" x="127.246094"/>
      </g>
     </g>
    </g>
    <g id="text_33">
     <!-- Enumeration Accuracy(%) -->
     <g transform="translate(369.398437 182.168281) rotate(-90) scale(0.1 -0.1)">
      <defs>
       <path id="DejaVuSans-45" d="M 628 4666 
L 3578 4666 
L 3578 4134 
L 1259 4134 
L 1259 2753 
L 3481 2753 
L 3481 2222 
L 1259 2222 
L 1259 531 
L 3634 531 
L 3634 0 
L 628 0 
L 628 4666 
z
" transform="scale(0.015625)"/>
       <path id="DejaVuSans-6e" d="M 3513 2113 
L 3513 0 
L 2938 0 
L 2938 2094 
Q 2938 2591 2744 2837 
Q 2550 3084 2163 3084 
Q 1697 3084 1428 2787 
Q 1159 2491 1159 1978 
L 1159 0 
L 581 0 
L 581 3500 
L 1159 3500 
L 1159 2956 
Q 1366 3272 1645 3428 
Q 1925 3584 2291 3584 
Q 2894 3584 3203 3211 
Q 3513 2838 3513 2113 
z
" transform="scale(0.015625)"/>
       <path id="DejaVuSans-74" d="M 1172 4494 
L 1172 3500 
L 2356 3500 
L 2356 3053 
L 1172 3053 
L 1172 1153 
Q 1172 725 1289 603 
Q 1406 481 1766 481 
L 2356 481 
L 2356 0 
L 1766 0 
Q 1100 0 847 248 
Q 594 497 594 1153 
L 594 3053 
L 172 3053 
L 172 3500 
L 594 3500 
L 594 4494 
L 1172 4494 
z
" transform="scale(0.015625)"/>
      </defs>
      <use xlink:href="#DejaVuSans-45"/>
      <use xlink:href="#DejaVuSans-6e" x="63.183594"/>
      <use xlink:href="#DejaVuSans-75" x="126.5625"/>
      <use xlink:href="#DejaVuSans-6d" x="189.941406"/>
      <use xlink:href="#DejaVuSans-65" x="287.353516"/>
      <use xlink:href="#DejaVuSans-72" x="348.876953"/>
      <use xlink:href="#DejaVuSans-61" x="389.990234"/>
      <use xlink:href="#DejaVuSans-74" x="451.269531"/>
      <use xlink:href="#DejaVuSans-69" x="490.478516"/>
      <use xlink:href="#DejaVuSans-6f" x="518.261719"/>
      <use xlink:href="#DejaVuSans-6e" x="579.443359"/>
      <use xlink:href="#DejaVuSans-20" x="642.822266"/>
      <use xlink:href="#DejaVuSans-41" x="674.609375"/>
      <use xlink:href="#DejaVuSans-63" x="741.267578"/>
      <use xlink:href="#DejaVuSans-63" x="796.248047"/>
      <use xlink:href="#DejaVuSans-75" x="851.228516"/>
      <use xlink:href="#DejaVuSans-72" x="914.607422"/>
      <use xlink:href="#DejaVuSans-61" x="955.720703"/>
      <use xlink:href="#DejaVuSans-63" x="1017"/>
      <use xlink:href="#DejaVuSans-79" x="1071.980469"/>
      <use xlink:href="#DejaVuSans-28" x="1131.160156"/>
      <use xlink:href="#DejaVuSans-25" x="1170.173828"/>
      <use xlink:href="#DejaVuSans-29" x="1265.193359"/>
     </g>
    </g>
   </g>
   <g id="patch_32">
    <path d="M 401.565625 211.598125 
L 401.565625 22.318125 
" style="fill: none; stroke: #000000; stroke-width: 0.8; stroke-linejoin: miter; stroke-linecap: square"/>
   </g>
   <g id="patch_33">
    <path d="M 688.918972 211.598125 
L 688.918972 22.318125 
" style="fill: none; stroke: #000000; stroke-width: 0.8; stroke-linejoin: miter; stroke-linecap: square"/>
   </g>
   <g id="patch_34">
    <path d="M 401.565625 211.598125 
L 688.918972 211.598125 
" style="fill: none; stroke: #000000; stroke-width: 0.8; stroke-linejoin: miter; stroke-linecap: square"/>
   </g>
   <g id="patch_35">
    <path d="M 401.565625 22.318125 
L 688.918972 22.318125 
" style="fill: none; stroke: #000000; stroke-width: 0.8; stroke-linejoin: miter; stroke-linecap: square"/>
   </g>
   <g id="text_34">
    <!-- 15.8616 -->
    <g transform="translate(425.549963 179.575333) rotate(-90) scale(0.1 -0.1)">
     <use xlink:href="#DejaVuSans-31"/>
     <use xlink:href="#DejaVuSans-35" x="63.623047"/>
     <use xlink:href="#DejaVuSans-2e" x="127.246094"/>
     <use xlink:href="#DejaVuSans-38" x="159.033203"/>
     <use xlink:href="#DejaVuSans-36" x="222.65625"/>
     <use xlink:href="#DejaVuSans-31" x="286.279297"/>
     <use xlink:href="#DejaVuSans-36" x="349.902344"/>
    </g>
   </g>
   <g id="text_35">
    <!-- 15.2672 -->
    <g transform="translate(507.184437 180.700321) rotate(-90) scale(0.1 -0.1)">
     <use xlink:href="#DejaVuSans-31"/>
     <use xlink:href="#DejaVuSans-35" x="63.623047"/>
     <use xlink:href="#DejaVuSans-2e" x="127.246094"/>
     <use xlink:href="#DejaVuSans-32" x="159.033203"/>
     <use xlink:href="#DejaVuSans-36" x="222.65625"/>
     <use xlink:href="#DejaVuSans-37" x="286.279297"/>
     <use xlink:href="#DejaVuSans-32" x="349.902344"/>
    </g>
   </g>
   <g id="text_36">
    <!-- 10.9797 -->
    <g transform="translate(670.453384 188.815838) rotate(-90) scale(0.1 -0.1)">
     <use xlink:href="#DejaVuSans-31"/>
     <use xlink:href="#DejaVuSans-30" x="63.623047"/>
     <use xlink:href="#DejaVuSans-2e" x="127.246094"/>
     <use xlink:href="#DejaVuSans-39" x="159.033203"/>
     <use xlink:href="#DejaVuSans-37" x="222.65625"/>
     <use xlink:href="#DejaVuSans-39" x="286.279297"/>
     <use xlink:href="#DejaVuSans-37" x="349.902344"/>
    </g>
   </g>
   <g id="text_37">
    <!-- 11.208 -->
    <g transform="translate(441.876858 188.383695) rotate(-90) scale(0.1 -0.1)">
     <use xlink:href="#DejaVuSans-31"/>
     <use xlink:href="#DejaVuSans-31" x="63.623047"/>
     <use xlink:href="#DejaVuSans-2e" x="127.246094"/>
     <use xlink:href="#DejaVuSans-32" x="159.033203"/>
     <use xlink:href="#DejaVuSans-30" x="222.65625"/>
     <use xlink:href="#DejaVuSans-38" x="286.279297"/>
    </g>
   </g>
   <g id="text_38">
    <!-- 12.6803 -->
    <g transform="translate(523.511331 185.596919) rotate(-90) scale(0.1 -0.1)">
     <use xlink:href="#DejaVuSans-31"/>
     <use xlink:href="#DejaVuSans-32" x="63.623047"/>
     <use xlink:href="#DejaVuSans-2e" x="127.246094"/>
     <use xlink:href="#DejaVuSans-36" x="159.033203"/>
     <use xlink:href="#DejaVuSans-38" x="222.65625"/>
     <use xlink:href="#DejaVuSans-30" x="286.279297"/>
     <use xlink:href="#DejaVuSans-33" x="349.902344"/>
    </g>
   </g>
   <g id="text_39">
    <!-- 13.7308 -->
    <g transform="translate(458.203753 183.608393) rotate(-90) scale(0.1 -0.1)">
     <use xlink:href="#DejaVuSans-31"/>
     <use xlink:href="#DejaVuSans-33" x="63.623047"/>
     <use xlink:href="#DejaVuSans-2e" x="127.246094"/>
     <use xlink:href="#DejaVuSans-37" x="159.033203"/>
     <use xlink:href="#DejaVuSans-33" x="222.65625"/>
     <use xlink:href="#DejaVuSans-30" x="286.279297"/>
     <use xlink:href="#DejaVuSans-38" x="349.902344"/>
    </g>
   </g>
   <g id="text_40">
    <!-- 10.9797 -->
    <g transform="translate(539.838226 188.815838) rotate(-90) scale(0.1 -0.1)">
     <use xlink:href="#DejaVuSans-31"/>
     <use xlink:href="#DejaVuSans-30" x="63.623047"/>
     <use xlink:href="#DejaVuSans-2e" x="127.246094"/>
     <use xlink:href="#DejaVuSans-39" x="159.033203"/>
     <use xlink:href="#DejaVuSans-37" x="222.65625"/>
     <use xlink:href="#DejaVuSans-39" x="286.279297"/>
     <use xlink:href="#DejaVuSans-37" x="349.902344"/>
    </g>
   </g>
   <g id="text_41">
    <!-- Times Enumeration Accuracy by model -->
    <g transform="translate(427.802611 16.318125) scale(0.12 -0.12)">
     <use xlink:href="#DejaVuSans-54"/>
     <use xlink:href="#DejaVuSans-69" x="57.958984"/>
     <use xlink:href="#DejaVuSans-6d" x="85.742188"/>
     <use xlink:href="#DejaVuSans-65" x="183.154297"/>
     <use xlink:href="#DejaVuSans-73" x="244.677734"/>
     <use xlink:href="#DejaVuSans-20" x="296.777344"/>
     <use xlink:href="#DejaVuSans-45" x="328.564453"/>
     <use xlink:href="#DejaVuSans-6e" x="391.748047"/>
     <use xlink:href="#DejaVuSans-75" x="455.126953"/>
     <use xlink:href="#DejaVuSans-6d" x="518.505859"/>
     <use xlink:href="#DejaVuSans-65" x="615.917969"/>
     <use xlink:href="#DejaVuSans-72" x="677.441406"/>
     <use xlink:href="#DejaVuSans-61" x="718.554688"/>
     <use xlink:href="#DejaVuSans-74" x="779.833984"/>
     <use xlink:href="#DejaVuSans-69" x="819.042969"/>
     <use xlink:href="#DejaVuSans-6f" x="846.826172"/>
     <use xlink:href="#DejaVuSans-6e" x="908.007812"/>
     <use xlink:href="#DejaVuSans-20" x="971.386719"/>
     <use xlink:href="#DejaVuSans-41" x="1003.173828"/>
     <use xlink:href="#DejaVuSans-63" x="1069.832031"/>
     <use xlink:href="#DejaVuSans-63" x="1124.8125"/>
     <use xlink:href="#DejaVuSans-75" x="1179.792969"/>
     <use xlink:href="#DejaVuSans-72" x="1243.171875"/>
     <use xlink:href="#DejaVuSans-61" x="1284.285156"/>
     <use xlink:href="#DejaVuSans-63" x="1345.564453"/>
     <use xlink:href="#DejaVuSans-79" x="1400.544922"/>
     <use xlink:href="#DejaVuSans-20" x="1459.724609"/>
     <use xlink:href="#DejaVuSans-62" x="1491.511719"/>
     <use xlink:href="#DejaVuSans-79" x="1554.988281"/>
     <use xlink:href="#DejaVuSans-20" x="1614.167969"/>
     <use xlink:href="#DejaVuSans-6d" x="1645.955078"/>
     <use xlink:href="#DejaVuSans-6f" x="1743.367188"/>
     <use xlink:href="#DejaVuSans-64" x="1804.548828"/>
     <use xlink:href="#DejaVuSans-65" x="1868.025391"/>
     <use xlink:href="#DejaVuSans-6c" x="1929.548828"/>
    </g>
   </g>
   <g id="text_42">
    <!-- b -->
    <g transform="translate(372.83029 16.318125) scale(0.12 -0.12)">
     <defs>
      <path id="DejaVuSerif-Bold-62" d="M 622 378 
L 622 4488 
L 147 4488 
L 147 4863 
L 1728 4863 
L 1728 2900 
Q 1869 3159 2106 3286 
Q 2344 3413 2694 3413 
Q 3403 3413 3811 2945 
Q 4219 2478 4219 1663 
Q 4219 847 3811 378 
Q 3403 -91 2694 -91 
Q 2344 -91 2106 36 
Q 1869 163 1728 422 
L 1728 0 
L 147 0 
L 147 378 
L 622 378 
z
M 1728 1497 
Q 1728 916 1876 656 
Q 2025 397 2356 397 
Q 2697 397 2836 672 
Q 2975 947 2975 1663 
Q 2975 2378 2836 2651 
Q 2697 2925 2356 2925 
Q 2025 2925 1876 2665 
Q 1728 2406 1728 1825 
L 1728 1497 
z
" transform="scale(0.015625)"/>
     </defs>
     <use xlink:href="#DejaVuSerif-Bold-62"/>
    </g>
   </g>
  </g>
  <g id="axes_3">
   <g id="patch_36">
    <path d="M 46.965625 458.198125 
L 334.318972 458.198125 
L 334.318972 268.918125 
L 46.965625 268.918125 
z
" style="fill: #ffffff"/>
   </g>
   <g id="patch_37">
    <path d="M 60.027141 458.198125 
L 76.354035 458.198125 
L 76.354035 419.821186 
L 60.027141 419.821186 
z
" clip-path="url(#pb00373a2ed)"/>
   </g>
   <g id="patch_38">
    <path d="M 141.661614 458.198125 
L 157.988509 458.198125 
L 157.988509 423.260216 
L 141.661614 423.260216 
z
" clip-path="url(#pb00373a2ed)"/>
   </g>
   <g id="patch_39">
    <path d="M 0 0 
z
" clip-path="url(#pb00373a2ed)"/>
   </g>
   <g id="patch_40">
    <path d="M 304.930562 458.198125 
L 321.257456 458.198125 
L 321.257456 428.276427 
L 304.930562 428.276427 
z
" clip-path="url(#pb00373a2ed)"/>
   </g>
   <g id="patch_41">
    <path d="M 76.354035 458.198125 
L 92.68093 458.198125 
L 92.68093 419.158455 
L 76.354035 419.158455 
z
" clip-path="url(#pb00373a2ed)" style="fill: #666666"/>
   </g>
   <g id="patch_42">
    <path d="M 157.988509 458.198125 
L 174.315404 458.198125 
L 174.315404 417.108745 
L 157.988509 417.108745 
z
" clip-path="url(#pb00373a2ed)" style="fill: #666666"/>
   </g>
   <g id="patch_43">
    <path d="M 0 0 
z
" clip-path="url(#pb00373a2ed)" style="fill: #666666"/>
   </g>
   <g id="patch_44">
    <path d="M 0 0 
z
" clip-path="url(#pb00373a2ed)" style="fill: #666666"/>
   </g>
   <g id="patch_45">
    <path d="M 92.68093 458.198125 
L 109.007825 458.198125 
L 109.007825 426.033388 
L 92.68093 426.033388 
z
" clip-path="url(#pb00373a2ed)" style="fill: #999999"/>
   </g>
   <g id="patch_46">
    <path d="M 174.315404 458.198125 
L 190.642299 458.198125 
L 190.642299 428.276427 
L 174.315404 428.276427 
z
" clip-path="url(#pb00373a2ed)" style="fill: #999999"/>
   </g>
   <g id="patch_47">
    <path d="M 0 0 
z
" clip-path="url(#pb00373a2ed)" style="fill: #999999"/>
   </g>
   <g id="patch_48">
    <path d="M 0 0 
z
" clip-path="url(#pb00373a2ed)" style="fill: #999999"/>
   </g>
   <g id="matplotlib.axis_5">
    <g id="xtick_9">
     <g id="line2d_21">
      <g>
       <use xlink:href="#m34888f64b2" x="84.517483" y="458.198125" style="stroke: #000000; stroke-width: 0.8"/>
      </g>
     </g>
     <g id="text_43">
      <!-- T5 Large -->
      <g transform="translate(62.624514 472.796563) scale(0.1 -0.1)">
       <use xlink:href="#DejaVuSans-54"/>
       <use xlink:href="#DejaVuSans-35" x="61.083984"/>
       <use xlink:href="#DejaVuSans-20" x="124.707031"/>
       <use xlink:href="#DejaVuSans-4c" x="156.494141"/>
       <use xlink:href="#DejaVuSans-61" x="212.207031"/>
       <use xlink:href="#DejaVuSans-72" x="273.486328"/>
       <use xlink:href="#DejaVuSans-67" x="312.849609"/>
       <use xlink:href="#DejaVuSans-65" x="376.326172"/>
      </g>
     </g>
    </g>
    <g id="xtick_10">
     <g id="line2d_22">
      <g>
       <use xlink:href="#m34888f64b2" x="166.151956" y="458.198125" style="stroke: #000000; stroke-width: 0.8"/>
      </g>
     </g>
     <g id="text_44">
      <!-- T5 3B -->
      <g transform="translate(151.716019 472.796563) scale(0.1 -0.1)">
       <use xlink:href="#DejaVuSans-54"/>
       <use xlink:href="#DejaVuSans-35" x="61.083984"/>
       <use xlink:href="#DejaVuSans-20" x="124.707031"/>
       <use xlink:href="#DejaVuSans-33" x="156.494141"/>
       <use xlink:href="#DejaVuSans-42" x="220.117188"/>
      </g>
     </g>
    </g>
    <g id="xtick_11">
     <g id="line2d_23">
      <g>
       <use xlink:href="#m34888f64b2" x="247.78643" y="458.198125" style="stroke: #000000; stroke-width: 0.8"/>
      </g>
     </g>
     <g id="text_45">
      <!-- ByT5 Small -->
      <g transform="translate(219.685649 472.796563) scale(0.1 -0.1)">
       <use xlink:href="#DejaVuSans-42"/>
       <use xlink:href="#DejaVuSans-79" x="68.603516"/>
       <use xlink:href="#DejaVuSans-54" x="127.783203"/>
       <use xlink:href="#DejaVuSans-35" x="188.867188"/>
       <use xlink:href="#DejaVuSans-20" x="252.490234"/>
       <use xlink:href="#DejaVuSans-53" x="284.277344"/>
       <use xlink:href="#DejaVuSans-6d" x="347.753906"/>
       <use xlink:href="#DejaVuSans-61" x="445.166016"/>
       <use xlink:href="#DejaVuSans-6c" x="506.445312"/>
       <use xlink:href="#DejaVuSans-6c" x="534.228516"/>
      </g>
     </g>
    </g>
    <g id="xtick_12">
     <g id="line2d_24">
      <g>
       <use xlink:href="#m34888f64b2" x="329.420904" y="458.198125" style="stroke: #000000; stroke-width: 0.8"/>
      </g>
     </g>
     <g id="text_46">
      <!-- ByT5 XL -->
      <g transform="translate(308.995904 472.796563) scale(0.1 -0.1)">
       <use xlink:href="#DejaVuSans-42"/>
       <use xlink:href="#DejaVuSans-79" x="68.603516"/>
       <use xlink:href="#DejaVuSans-54" x="127.783203"/>
       <use xlink:href="#DejaVuSans-35" x="188.867188"/>
       <use xlink:href="#DejaVuSans-20" x="252.490234"/>
       <use xlink:href="#DejaVuSans-58" x="284.277344"/>
       <use xlink:href="#DejaVuSans-4c" x="352.783203"/>
      </g>
     </g>
    </g>
    <g id="text_47">
     <!-- Model -->
     <g transform="translate(175.629017 486.474688) scale(0.1 -0.1)">
      <use xlink:href="#DejaVuSans-4d"/>
      <use xlink:href="#DejaVuSans-6f" x="86.279297"/>
      <use xlink:href="#DejaVuSans-64" x="147.460938"/>
      <use xlink:href="#DejaVuSans-65" x="210.9375"/>
      <use xlink:href="#DejaVuSans-6c" x="272.460938"/>
     </g>
    </g>
   </g>
   <g id="matplotlib.axis_6">
    <g id="ytick_13">
     <g id="line2d_25">
      <g>
       <use xlink:href="#m9f3d642ade" x="46.965625" y="458.198125" style="stroke: #000000; stroke-width: 0.8"/>
      </g>
     </g>
     <g id="text_48">
      <!-- 0.0 -->
      <g transform="translate(24.0625 461.997344) scale(0.1 -0.1)">
       <use xlink:href="#DejaVuSans-30"/>
       <use xlink:href="#DejaVuSans-2e" x="63.623047"/>
       <use xlink:href="#DejaVuSans-30" x="95.410156"/>
      </g>
     </g>
    </g>
    <g id="ytick_14">
     <g id="line2d_26">
      <g>
       <use xlink:href="#m9f3d642ade" x="46.965625" y="420.342125" style="stroke: #000000; stroke-width: 0.8"/>
      </g>
     </g>
     <g id="text_49">
      <!-- 0.2 -->
      <g transform="translate(24.0625 424.141344) scale(0.1 -0.1)">
       <use xlink:href="#DejaVuSans-30"/>
       <use xlink:href="#DejaVuSans-2e" x="63.623047"/>
       <use xlink:href="#DejaVuSans-32" x="95.410156"/>
      </g>
     </g>
    </g>
    <g id="ytick_15">
     <g id="line2d_27">
      <g>
       <use xlink:href="#m9f3d642ade" x="46.965625" y="382.486125" style="stroke: #000000; stroke-width: 0.8"/>
      </g>
     </g>
     <g id="text_50">
      <!-- 0.4 -->
      <g transform="translate(24.0625 386.285344) scale(0.1 -0.1)">
       <use xlink:href="#DejaVuSans-30"/>
       <use xlink:href="#DejaVuSans-2e" x="63.623047"/>
       <use xlink:href="#DejaVuSans-34" x="95.410156"/>
      </g>
     </g>
    </g>
    <g id="ytick_16">
     <g id="line2d_28">
      <g>
       <use xlink:href="#m9f3d642ade" x="46.965625" y="344.630125" style="stroke: #000000; stroke-width: 0.8"/>
      </g>
     </g>
     <g id="text_51">
      <!-- 0.6 -->
      <g transform="translate(24.0625 348.429344) scale(0.1 -0.1)">
       <use xlink:href="#DejaVuSans-30"/>
       <use xlink:href="#DejaVuSans-2e" x="63.623047"/>
       <use xlink:href="#DejaVuSans-36" x="95.410156"/>
      </g>
     </g>
    </g>
    <g id="ytick_17">
     <g id="line2d_29">
      <g>
       <use xlink:href="#m9f3d642ade" x="46.965625" y="306.774125" style="stroke: #000000; stroke-width: 0.8"/>
      </g>
     </g>
     <g id="text_52">
      <!-- 0.8 -->
      <g transform="translate(24.0625 310.573344) scale(0.1 -0.1)">
       <use xlink:href="#DejaVuSans-30"/>
       <use xlink:href="#DejaVuSans-2e" x="63.623047"/>
       <use xlink:href="#DejaVuSans-38" x="95.410156"/>
      </g>
     </g>
    </g>
    <g id="ytick_18">
     <g id="line2d_30">
      <g>
       <use xlink:href="#m9f3d642ade" x="46.965625" y="268.918125" style="stroke: #000000; stroke-width: 0.8"/>
      </g>
     </g>
     <g id="text_53">
      <!-- 1.0 -->
      <g transform="translate(24.0625 272.717344) scale(0.1 -0.1)">
       <use xlink:href="#DejaVuSans-31"/>
       <use xlink:href="#DejaVuSans-2e" x="63.623047"/>
       <use xlink:href="#DejaVuSans-30" x="95.410156"/>
      </g>
     </g>
    </g>
    <g id="text_54">
     <!-- Mean Semantic Similarity -->
     <g transform="translate(17.982813 427.451875) rotate(-90) scale(0.1 -0.1)">
      <use xlink:href="#DejaVuSans-4d"/>
      <use xlink:href="#DejaVuSans-65" x="86.279297"/>
      <use xlink:href="#DejaVuSans-61" x="147.802734"/>
      <use xlink:href="#DejaVuSans-6e" x="209.082031"/>
      <use xlink:href="#DejaVuSans-20" x="272.460938"/>
      <use xlink:href="#DejaVuSans-53" x="304.248047"/>
      <use xlink:href="#DejaVuSans-65" x="367.724609"/>
      <use xlink:href="#DejaVuSans-6d" x="429.248047"/>
      <use xlink:href="#DejaVuSans-61" x="526.660156"/>
      <use xlink:href="#DejaVuSans-6e" x="587.939453"/>
      <use xlink:href="#DejaVuSans-74" x="651.318359"/>
      <use xlink:href="#DejaVuSans-69" x="690.527344"/>
      <use xlink:href="#DejaVuSans-63" x="718.310547"/>
      <use xlink:href="#DejaVuSans-20" x="773.291016"/>
      <use xlink:href="#DejaVuSans-53" x="805.078125"/>
      <use xlink:href="#DejaVuSans-69" x="868.554688"/>
      <use xlink:href="#DejaVuSans-6d" x="896.337891"/>
      <use xlink:href="#DejaVuSans-69" x="993.75"/>
      <use xlink:href="#DejaVuSans-6c" x="1021.533203"/>
      <use xlink:href="#DejaVuSans-61" x="1049.316406"/>
      <use xlink:href="#DejaVuSans-72" x="1110.595703"/>
      <use xlink:href="#DejaVuSans-69" x="1151.708984"/>
      <use xlink:href="#DejaVuSans-74" x="1179.492188"/>
      <use xlink:href="#DejaVuSans-79" x="1218.701172"/>
     </g>
    </g>
   </g>
   <g id="patch_49">
    <path d="M 46.965625 458.198125 
L 46.965625 268.918125 
" style="fill: none; stroke: #000000; stroke-width: 0.8; stroke-linejoin: miter; stroke-linecap: square"/>
   </g>
   <g id="patch_50">
    <path d="M 334.318972 458.198125 
L 334.318972 268.918125 
" style="fill: none; stroke: #000000; stroke-width: 0.8; stroke-linejoin: miter; stroke-linecap: square"/>
   </g>
   <g id="patch_51">
    <path d="M 46.965625 458.198125 
L 334.318972 458.198125 
" style="fill: none; stroke: #000000; stroke-width: 0.8; stroke-linejoin: miter; stroke-linecap: square"/>
   </g>
   <g id="patch_52">
    <path d="M 46.965625 268.918125 
L 334.318972 268.918125 
" style="fill: none; stroke: #000000; stroke-width: 0.8; stroke-linejoin: miter; stroke-linecap: square"/>
   </g>
   <g id="text_55">
    <!-- 0.202752 -->
    <g transform="translate(70.949963 417.821186) rotate(-90) scale(0.1 -0.1)">
     <use xlink:href="#DejaVuSans-30"/>
     <use xlink:href="#DejaVuSans-2e" x="63.623047"/>
     <use xlink:href="#DejaVuSans-32" x="95.410156"/>
     <use xlink:href="#DejaVuSans-30" x="159.033203"/>
     <use xlink:href="#DejaVuSans-32" x="222.65625"/>
     <use xlink:href="#DejaVuSans-37" x="286.279297"/>
     <use xlink:href="#DejaVuSans-35" x="349.902344"/>
     <use xlink:href="#DejaVuSans-32" x="413.525391"/>
    </g>
   </g>
   <g id="text_56">
    <!-- 0.184583 -->
    <g transform="translate(152.584437 421.260216) rotate(-90) scale(0.1 -0.1)">
     <use xlink:href="#DejaVuSans-30"/>
     <use xlink:href="#DejaVuSans-2e" x="63.623047"/>
     <use xlink:href="#DejaVuSans-31" x="95.410156"/>
     <use xlink:href="#DejaVuSans-38" x="159.033203"/>
     <use xlink:href="#DejaVuSans-34" x="222.65625"/>
     <use xlink:href="#DejaVuSans-35" x="286.279297"/>
     <use xlink:href="#DejaVuSans-38" x="349.902344"/>
     <use xlink:href="#DejaVuSans-33" x="413.525391"/>
    </g>
   </g>
   <g id="text_57">
    <!-- 0.158082 -->
    <g transform="translate(315.853384 426.276427) rotate(-90) scale(0.1 -0.1)">
     <use xlink:href="#DejaVuSans-30"/>
     <use xlink:href="#DejaVuSans-2e" x="63.623047"/>
     <use xlink:href="#DejaVuSans-31" x="95.410156"/>
     <use xlink:href="#DejaVuSans-35" x="159.033203"/>
     <use xlink:href="#DejaVuSans-38" x="222.65625"/>
     <use xlink:href="#DejaVuSans-30" x="286.279297"/>
     <use xlink:href="#DejaVuSans-38" x="349.902344"/>
     <use xlink:href="#DejaVuSans-32" x="413.525391"/>
    </g>
   </g>
   <g id="text_58">
    <!-- 0.206254 -->
    <g transform="translate(87.276858 417.158455) rotate(-90) scale(0.1 -0.1)">
     <use xlink:href="#DejaVuSans-30"/>
     <use xlink:href="#DejaVuSans-2e" x="63.623047"/>
     <use xlink:href="#DejaVuSans-32" x="95.410156"/>
     <use xlink:href="#DejaVuSans-30" x="159.033203"/>
     <use xlink:href="#DejaVuSans-36" x="222.65625"/>
     <use xlink:href="#DejaVuSans-32" x="286.279297"/>
     <use xlink:href="#DejaVuSans-35" x="349.902344"/>
     <use xlink:href="#DejaVuSans-34" x="413.525391"/>
    </g>
   </g>
   <g id="text_59">
    <!-- 0.217083 -->
    <g transform="translate(168.911331 415.108745) rotate(-90) scale(0.1 -0.1)">
     <use xlink:href="#DejaVuSans-30"/>
     <use xlink:href="#DejaVuSans-2e" x="63.623047"/>
     <use xlink:href="#DejaVuSans-32" x="95.410156"/>
     <use xlink:href="#DejaVuSans-31" x="159.033203"/>
     <use xlink:href="#DejaVuSans-37" x="222.65625"/>
     <use xlink:href="#DejaVuSans-30" x="286.279297"/>
     <use xlink:href="#DejaVuSans-38" x="349.902344"/>
     <use xlink:href="#DejaVuSans-33" x="413.525391"/>
    </g>
   </g>
   <g id="text_60">
    <!-- 0.169932 -->
    <g transform="translate(103.603753 424.033388) rotate(-90) scale(0.1 -0.1)">
     <use xlink:href="#DejaVuSans-30"/>
     <use xlink:href="#DejaVuSans-2e" x="63.623047"/>
     <use xlink:href="#DejaVuSans-31" x="95.410156"/>
     <use xlink:href="#DejaVuSans-36" x="159.033203"/>
     <use xlink:href="#DejaVuSans-39" x="222.65625"/>
     <use xlink:href="#DejaVuSans-39" x="286.279297"/>
     <use xlink:href="#DejaVuSans-33" x="349.902344"/>
     <use xlink:href="#DejaVuSans-32" x="413.525391"/>
    </g>
   </g>
   <g id="text_61">
    <!-- 0.158082 -->
    <g transform="translate(185.238226 426.276427) rotate(-90) scale(0.1 -0.1)">
     <use xlink:href="#DejaVuSans-30"/>
     <use xlink:href="#DejaVuSans-2e" x="63.623047"/>
     <use xlink:href="#DejaVuSans-31" x="95.410156"/>
     <use xlink:href="#DejaVuSans-35" x="159.033203"/>
     <use xlink:href="#DejaVuSans-38" x="222.65625"/>
     <use xlink:href="#DejaVuSans-30" x="286.279297"/>
     <use xlink:href="#DejaVuSans-38" x="349.902344"/>
     <use xlink:href="#DejaVuSans-32" x="413.525391"/>
    </g>
   </g>
   <g id="text_62">
    <!-- Times Mean Semantic Similarity by model -->
    <g transform="translate(64.399486 262.918125) scale(0.12 -0.12)">
     <use xlink:href="#DejaVuSans-54"/>
     <use xlink:href="#DejaVuSans-69" x="57.958984"/>
     <use xlink:href="#DejaVuSans-6d" x="85.742188"/>
     <use xlink:href="#DejaVuSans-65" x="183.154297"/>
     <use xlink:href="#DejaVuSans-73" x="244.677734"/>
     <use xlink:href="#DejaVuSans-20" x="296.777344"/>
     <use xlink:href="#DejaVuSans-4d" x="328.564453"/>
     <use xlink:href="#DejaVuSans-65" x="414.84375"/>
     <use xlink:href="#DejaVuSans-61" x="476.367188"/>
     <use xlink:href="#DejaVuSans-6e" x="537.646484"/>
     <use xlink:href="#DejaVuSans-20" x="601.025391"/>
     <use xlink:href="#DejaVuSans-53" x="632.8125"/>
     <use xlink:href="#DejaVuSans-65" x="696.289062"/>
     <use xlink:href="#DejaVuSans-6d" x="757.8125"/>
     <use xlink:href="#DejaVuSans-61" x="855.224609"/>
     <use xlink:href="#DejaVuSans-6e" x="916.503906"/>
     <use xlink:href="#DejaVuSans-74" x="979.882812"/>
     <use xlink:href="#DejaVuSans-69" x="1019.091797"/>
     <use xlink:href="#DejaVuSans-63" x="1046.875"/>
     <use xlink:href="#DejaVuSans-20" x="1101.855469"/>
     <use xlink:href="#DejaVuSans-53" x="1133.642578"/>
     <use xlink:href="#DejaVuSans-69" x="1197.119141"/>
     <use xlink:href="#DejaVuSans-6d" x="1224.902344"/>
     <use xlink:href="#DejaVuSans-69" x="1322.314453"/>
     <use xlink:href="#DejaVuSans-6c" x="1350.097656"/>
     <use xlink:href="#DejaVuSans-61" x="1377.880859"/>
     <use xlink:href="#DejaVuSans-72" x="1439.160156"/>
     <use xlink:href="#DejaVuSans-69" x="1480.273438"/>
     <use xlink:href="#DejaVuSans-74" x="1508.056641"/>
     <use xlink:href="#DejaVuSans-79" x="1547.265625"/>
     <use xlink:href="#DejaVuSans-20" x="1606.445312"/>
     <use xlink:href="#DejaVuSans-62" x="1638.232422"/>
     <use xlink:href="#DejaVuSans-79" x="1701.708984"/>
     <use xlink:href="#DejaVuSans-20" x="1760.888672"/>
     <use xlink:href="#DejaVuSans-6d" x="1792.675781"/>
     <use xlink:href="#DejaVuSans-6f" x="1890.087891"/>
     <use xlink:href="#DejaVuSans-64" x="1951.269531"/>
     <use xlink:href="#DejaVuSans-65" x="2014.746094"/>
     <use xlink:href="#DejaVuSans-6c" x="2076.269531"/>
    </g>
   </g>
   <g id="text_63">
    <!-- c -->
    <g transform="translate(18.23029 262.918125) scale(0.12 -0.12)">
     <defs>
      <path id="DejaVuSerif-Bold-63" d="M 3609 1038 
Q 3491 469 3123 189 
Q 2756 -91 2125 -91 
Q 1238 -91 750 368 
Q 263 828 263 1663 
Q 263 2488 744 2950 
Q 1225 3413 2081 3413 
Q 2428 3413 2781 3347 
Q 3134 3281 3500 3150 
L 3500 2228 
L 3150 2228 
Q 3100 2650 2903 2854 
Q 2706 3059 2350 3059 
Q 1888 3059 1692 2746 
Q 1497 2434 1497 1663 
Q 1497 909 1687 586 
Q 1878 263 2309 263 
Q 2644 263 2845 463 
Q 3047 663 3091 1038 
L 3609 1038 
z
" transform="scale(0.015625)"/>
     </defs>
     <use xlink:href="#DejaVuSerif-Bold-63"/>
    </g>
   </g>
  </g>
  <g id="axes_4">
   <g id="patch_53">
    <path d="M 401.565625 458.198125 
L 688.918972 458.198125 
L 688.918972 268.918125 
L 401.565625 268.918125 
z
" style="fill: #ffffff"/>
   </g>
   <g id="patch_54">
    <path d="M 414.627141 458.198125 
L 430.954035 458.198125 
L 430.954035 308.248843 
L 414.627141 308.248843 
z
" clip-path="url(#p3de410d8cb)"/>
   </g>
   <g id="patch_55">
    <path d="M 496.261614 458.198125 
L 512.588509 458.198125 
L 512.588509 307.659128 
L 496.261614 307.659128 
z
" clip-path="url(#p3de410d8cb)"/>
   </g>
   <g id="patch_56">
    <path d="M 0 0 
z
" clip-path="url(#p3de410d8cb)"/>
   </g>
   <g id="patch_57">
    <path d="M 659.530562 458.198125 
L 675.857456 458.198125 
L 675.857456 302.4048 
L 659.530562 302.4048 
z
" clip-path="url(#p3de410d8cb)"/>
   </g>
   <g id="patch_58">
    <path d="M 430.954035 458.198125 
L 447.28093 458.198125 
L 447.28093 311.940448 
L 430.954035 311.940448 
z
" clip-path="url(#p3de410d8cb)" style="fill: #666666"/>
   </g>
   <g id="patch_59">
    <path d="M 512.588509 458.198125 
L 528.915404 458.198125 
L 528.915404 314.345817 
L 512.588509 314.345817 
z
" clip-path="url(#p3de410d8cb)" style="fill: #666666"/>
   </g>
   <g id="patch_60">
    <path d="M 0 0 
z
" clip-path="url(#p3de410d8cb)" style="fill: #666666"/>
   </g>
   <g id="patch_61">
    <path d="M 0 0 
z
" clip-path="url(#p3de410d8cb)" style="fill: #666666"/>
   </g>
   <g id="patch_62">
    <path d="M 447.28093 458.198125 
L 463.607825 458.198125 
L 463.607825 304.515698 
L 447.28093 304.515698 
z
" clip-path="url(#p3de410d8cb)" style="fill: #999999"/>
   </g>
   <g id="patch_63">
    <path d="M 528.915404 458.198125 
L 545.242299 458.198125 
L 545.242299 302.4048 
L 528.915404 302.4048 
z
" clip-path="url(#p3de410d8cb)" style="fill: #999999"/>
   </g>
   <g id="patch_64">
    <path d="M 0 0 
z
" clip-path="url(#p3de410d8cb)" style="fill: #999999"/>
   </g>
   <g id="patch_65">
    <path d="M 0 0 
z
" clip-path="url(#p3de410d8cb)" style="fill: #999999"/>
   </g>
   <g id="matplotlib.axis_7">
    <g id="xtick_13">
     <g id="line2d_31">
      <g>
       <use xlink:href="#m34888f64b2" x="439.117483" y="458.198125" style="stroke: #000000; stroke-width: 0.8"/>
      </g>
     </g>
     <g id="text_64">
      <!-- T5 Large -->
      <g transform="translate(417.224514 472.796563) scale(0.1 -0.1)">
       <use xlink:href="#DejaVuSans-54"/>
       <use xlink:href="#DejaVuSans-35" x="61.083984"/>
       <use xlink:href="#DejaVuSans-20" x="124.707031"/>
       <use xlink:href="#DejaVuSans-4c" x="156.494141"/>
       <use xlink:href="#DejaVuSans-61" x="212.207031"/>
       <use xlink:href="#DejaVuSans-72" x="273.486328"/>
       <use xlink:href="#DejaVuSans-67" x="312.849609"/>
       <use xlink:href="#DejaVuSans-65" x="376.326172"/>
      </g>
     </g>
    </g>
    <g id="xtick_14">
     <g id="line2d_32">
      <g>
       <use xlink:href="#m34888f64b2" x="520.751956" y="458.198125" style="stroke: #000000; stroke-width: 0.8"/>
      </g>
     </g>
     <g id="text_65">
      <!-- T5 3B -->
      <g transform="translate(506.316019 472.796563) scale(0.1 -0.1)">
       <use xlink:href="#DejaVuSans-54"/>
       <use xlink:href="#DejaVuSans-35" x="61.083984"/>
       <use xlink:href="#DejaVuSans-20" x="124.707031"/>
       <use xlink:href="#DejaVuSans-33" x="156.494141"/>
       <use xlink:href="#DejaVuSans-42" x="220.117188"/>
      </g>
     </g>
    </g>
    <g id="xtick_15">
     <g id="line2d_33">
      <g>
       <use xlink:href="#m34888f64b2" x="602.38643" y="458.198125" style="stroke: #000000; stroke-width: 0.8"/>
      </g>
     </g>
     <g id="text_66">
      <!-- ByT5 Small -->
      <g transform="translate(574.285649 472.796563) scale(0.1 -0.1)">
       <use xlink:href="#DejaVuSans-42"/>
       <use xlink:href="#DejaVuSans-79" x="68.603516"/>
       <use xlink:href="#DejaVuSans-54" x="127.783203"/>
       <use xlink:href="#DejaVuSans-35" x="188.867188"/>
       <use xlink:href="#DejaVuSans-20" x="252.490234"/>
       <use xlink:href="#DejaVuSans-53" x="284.277344"/>
       <use xlink:href="#DejaVuSans-6d" x="347.753906"/>
       <use xlink:href="#DejaVuSans-61" x="445.166016"/>
       <use xlink:href="#DejaVuSans-6c" x="506.445312"/>
       <use xlink:href="#DejaVuSans-6c" x="534.228516"/>
      </g>
     </g>
    </g>
    <g id="xtick_16">
     <g id="line2d_34">
      <g>
       <use xlink:href="#m34888f64b2" x="684.020904" y="458.198125" style="stroke: #000000; stroke-width: 0.8"/>
      </g>
     </g>
     <g id="text_67">
      <!-- ByT5 XL -->
      <g transform="translate(663.595904 472.796563) scale(0.1 -0.1)">
       <use xlink:href="#DejaVuSans-42"/>
       <use xlink:href="#DejaVuSans-79" x="68.603516"/>
       <use xlink:href="#DejaVuSans-54" x="127.783203"/>
       <use xlink:href="#DejaVuSans-35" x="188.867188"/>
       <use xlink:href="#DejaVuSans-20" x="252.490234"/>
       <use xlink:href="#DejaVuSans-58" x="284.277344"/>
       <use xlink:href="#DejaVuSans-4c" x="352.783203"/>
      </g>
     </g>
    </g>
    <g id="text_68">
     <!-- Model -->
     <g transform="translate(530.229017 486.474688) scale(0.1 -0.1)">
      <use xlink:href="#DejaVuSans-4d"/>
      <use xlink:href="#DejaVuSans-6f" x="86.279297"/>
      <use xlink:href="#DejaVuSans-64" x="147.460938"/>
      <use xlink:href="#DejaVuSans-65" x="210.9375"/>
      <use xlink:href="#DejaVuSans-6c" x="272.460938"/>
     </g>
    </g>
   </g>
   <g id="matplotlib.axis_8">
    <g id="ytick_19">
     <g id="line2d_35">
      <g>
       <use xlink:href="#m9f3d642ade" x="401.565625" y="458.198125" style="stroke: #000000; stroke-width: 0.8"/>
      </g>
     </g>
     <g id="text_69">
      <!-- 0 -->
      <g transform="translate(388.203125 461.997344) scale(0.1 -0.1)">
       <use xlink:href="#DejaVuSans-30"/>
      </g>
     </g>
    </g>
    <g id="ytick_20">
     <g id="line2d_36">
      <g>
       <use xlink:href="#m9f3d642ade" x="401.565625" y="420.342125" style="stroke: #000000; stroke-width: 0.8"/>
      </g>
     </g>
     <g id="text_70">
      <!-- 2 -->
      <g transform="translate(388.203125 424.141344) scale(0.1 -0.1)">
       <use xlink:href="#DejaVuSans-32"/>
      </g>
     </g>
    </g>
    <g id="ytick_21">
     <g id="line2d_37">
      <g>
       <use xlink:href="#m9f3d642ade" x="401.565625" y="382.486125" style="stroke: #000000; stroke-width: 0.8"/>
      </g>
     </g>
     <g id="text_71">
      <!-- 4 -->
      <g transform="translate(388.203125 386.285344) scale(0.1 -0.1)">
       <use xlink:href="#DejaVuSans-34"/>
      </g>
     </g>
    </g>
    <g id="ytick_22">
     <g id="line2d_38">
      <g>
       <use xlink:href="#m9f3d642ade" x="401.565625" y="344.630125" style="stroke: #000000; stroke-width: 0.8"/>
      </g>
     </g>
     <g id="text_72">
      <!-- 6 -->
      <g transform="translate(388.203125 348.429344) scale(0.1 -0.1)">
       <use xlink:href="#DejaVuSans-36"/>
      </g>
     </g>
    </g>
    <g id="ytick_23">
     <g id="line2d_39">
      <g>
       <use xlink:href="#m9f3d642ade" x="401.565625" y="306.774125" style="stroke: #000000; stroke-width: 0.8"/>
      </g>
     </g>
     <g id="text_73">
      <!-- 8 -->
      <g transform="translate(388.203125 310.573344) scale(0.1 -0.1)">
       <use xlink:href="#DejaVuSans-38"/>
      </g>
     </g>
    </g>
    <g id="ytick_24">
     <g id="line2d_40">
      <g>
       <use xlink:href="#m9f3d642ade" x="401.565625" y="268.918125" style="stroke: #000000; stroke-width: 0.8"/>
      </g>
     </g>
     <g id="text_74">
      <!-- 10 -->
      <g transform="translate(381.840625 272.717344) scale(0.1 -0.1)">
       <use xlink:href="#DejaVuSans-31"/>
       <use xlink:href="#DejaVuSans-30" x="63.623047"/>
      </g>
     </g>
    </g>
    <g id="text_75">
     <!-- Mean Edit Distance -->
     <g transform="translate(375.760937 411.905) rotate(-90) scale(0.1 -0.1)">
      <defs>
       <path id="DejaVuSans-44" d="M 1259 4147 
L 1259 519 
L 2022 519 
Q 2988 519 3436 956 
Q 3884 1394 3884 2338 
Q 3884 3275 3436 3711 
Q 2988 4147 2022 4147 
L 1259 4147 
z
M 628 4666 
L 1925 4666 
Q 3281 4666 3915 4102 
Q 4550 3538 4550 2338 
Q 4550 1131 3912 565 
Q 3275 0 1925 0 
L 628 0 
L 628 4666 
z
" transform="scale(0.015625)"/>
      </defs>
      <use xlink:href="#DejaVuSans-4d"/>
      <use xlink:href="#DejaVuSans-65" x="86.279297"/>
      <use xlink:href="#DejaVuSans-61" x="147.802734"/>
      <use xlink:href="#DejaVuSans-6e" x="209.082031"/>
      <use xlink:href="#DejaVuSans-20" x="272.460938"/>
      <use xlink:href="#DejaVuSans-45" x="304.248047"/>
      <use xlink:href="#DejaVuSans-64" x="367.431641"/>
      <use xlink:href="#DejaVuSans-69" x="430.908203"/>
      <use xlink:href="#DejaVuSans-74" x="458.691406"/>
      <use xlink:href="#DejaVuSans-20" x="497.900391"/>
      <use xlink:href="#DejaVuSans-44" x="529.6875"/>
      <use xlink:href="#DejaVuSans-69" x="606.689453"/>
      <use xlink:href="#DejaVuSans-73" x="634.472656"/>
      <use xlink:href="#DejaVuSans-74" x="686.572266"/>
      <use xlink:href="#DejaVuSans-61" x="725.78125"/>
      <use xlink:href="#DejaVuSans-6e" x="787.060547"/>
      <use xlink:href="#DejaVuSans-63" x="850.439453"/>
      <use xlink:href="#DejaVuSans-65" x="905.419922"/>
     </g>
    </g>
   </g>
   <g id="patch_66">
    <path d="M 401.565625 458.198125 
L 401.565625 268.918125 
" style="fill: none; stroke: #000000; stroke-width: 0.8; stroke-linejoin: miter; stroke-linecap: square"/>
   </g>
   <g id="patch_67">
    <path d="M 688.918972 458.198125 
L 688.918972 268.918125 
" style="fill: none; stroke: #000000; stroke-width: 0.8; stroke-linejoin: miter; stroke-linecap: square"/>
   </g>
   <g id="patch_68">
    <path d="M 401.565625 458.198125 
L 688.918972 458.198125 
" style="fill: none; stroke: #000000; stroke-width: 0.8; stroke-linejoin: miter; stroke-linecap: square"/>
   </g>
   <g id="patch_69">
    <path d="M 401.565625 268.918125 
L 688.918972 268.918125 
" style="fill: none; stroke: #000000; stroke-width: 0.8; stroke-linejoin: miter; stroke-linecap: square"/>
   </g>
   <g id="text_76">
    <!-- 7.92209 -->
    <g transform="translate(425.549963 306.248843) rotate(-90) scale(0.1 -0.1)">
     <use xlink:href="#DejaVuSans-37"/>
     <use xlink:href="#DejaVuSans-2e" x="63.623047"/>
     <use xlink:href="#DejaVuSans-39" x="95.410156"/>
     <use xlink:href="#DejaVuSans-32" x="159.033203"/>
     <use xlink:href="#DejaVuSans-32" x="222.65625"/>
     <use xlink:href="#DejaVuSans-30" x="286.279297"/>
     <use xlink:href="#DejaVuSans-39" x="349.902344"/>
    </g>
   </g>
   <g id="text_77">
    <!-- 7.95324 -->
    <g transform="translate(507.184437 305.659128) rotate(-90) scale(0.1 -0.1)">
     <use xlink:href="#DejaVuSans-37"/>
     <use xlink:href="#DejaVuSans-2e" x="63.623047"/>
     <use xlink:href="#DejaVuSans-39" x="95.410156"/>
     <use xlink:href="#DejaVuSans-35" x="159.033203"/>
     <use xlink:href="#DejaVuSans-33" x="222.65625"/>
     <use xlink:href="#DejaVuSans-32" x="286.279297"/>
     <use xlink:href="#DejaVuSans-34" x="349.902344"/>
    </g>
   </g>
   <g id="text_78">
    <!-- 8.23084 -->
    <g transform="translate(670.453384 300.4048) rotate(-90) scale(0.1 -0.1)">
     <use xlink:href="#DejaVuSans-38"/>
     <use xlink:href="#DejaVuSans-2e" x="63.623047"/>
     <use xlink:href="#DejaVuSans-32" x="95.410156"/>
     <use xlink:href="#DejaVuSans-33" x="159.033203"/>
     <use xlink:href="#DejaVuSans-30" x="222.65625"/>
     <use xlink:href="#DejaVuSans-38" x="286.279297"/>
     <use xlink:href="#DejaVuSans-34" x="349.902344"/>
    </g>
   </g>
   <g id="text_79">
    <!-- 7.72705 -->
    <g transform="translate(441.876858 309.940448) rotate(-90) scale(0.1 -0.1)">
     <use xlink:href="#DejaVuSans-37"/>
     <use xlink:href="#DejaVuSans-2e" x="63.623047"/>
     <use xlink:href="#DejaVuSans-37" x="95.410156"/>
     <use xlink:href="#DejaVuSans-32" x="159.033203"/>
     <use xlink:href="#DejaVuSans-37" x="222.65625"/>
     <use xlink:href="#DejaVuSans-30" x="286.279297"/>
     <use xlink:href="#DejaVuSans-35" x="349.902344"/>
    </g>
   </g>
   <g id="text_80">
    <!-- 7.59997 -->
    <g transform="translate(523.511331 312.345817) rotate(-90) scale(0.1 -0.1)">
     <use xlink:href="#DejaVuSans-37"/>
     <use xlink:href="#DejaVuSans-2e" x="63.623047"/>
     <use xlink:href="#DejaVuSans-35" x="95.410156"/>
     <use xlink:href="#DejaVuSans-39" x="159.033203"/>
     <use xlink:href="#DejaVuSans-39" x="222.65625"/>
     <use xlink:href="#DejaVuSans-39" x="286.279297"/>
     <use xlink:href="#DejaVuSans-37" x="349.902344"/>
    </g>
   </g>
   <g id="text_81">
    <!-- 8.11932 -->
    <g transform="translate(458.203753 302.515698) rotate(-90) scale(0.1 -0.1)">
     <use xlink:href="#DejaVuSans-38"/>
     <use xlink:href="#DejaVuSans-2e" x="63.623047"/>
     <use xlink:href="#DejaVuSans-31" x="95.410156"/>
     <use xlink:href="#DejaVuSans-31" x="159.033203"/>
     <use xlink:href="#DejaVuSans-39" x="222.65625"/>
     <use xlink:href="#DejaVuSans-33" x="286.279297"/>
     <use xlink:href="#DejaVuSans-32" x="349.902344"/>
    </g>
   </g>
   <g id="text_82">
    <!-- 8.23084 -->
    <g transform="translate(539.838226 300.4048) rotate(-90) scale(0.1 -0.1)">
     <use xlink:href="#DejaVuSans-38"/>
     <use xlink:href="#DejaVuSans-2e" x="63.623047"/>
     <use xlink:href="#DejaVuSans-32" x="95.410156"/>
     <use xlink:href="#DejaVuSans-33" x="159.033203"/>
     <use xlink:href="#DejaVuSans-30" x="222.65625"/>
     <use xlink:href="#DejaVuSans-38" x="286.279297"/>
     <use xlink:href="#DejaVuSans-34" x="349.902344"/>
    </g>
   </g>
   <g id="text_83">
    <!-- Times Mean Edit Distance by model -->
    <g transform="translate(437.655736 262.918125) scale(0.12 -0.12)">
     <use xlink:href="#DejaVuSans-54"/>
     <use xlink:href="#DejaVuSans-69" x="57.958984"/>
     <use xlink:href="#DejaVuSans-6d" x="85.742188"/>
     <use xlink:href="#DejaVuSans-65" x="183.154297"/>
     <use xlink:href="#DejaVuSans-73" x="244.677734"/>
     <use xlink:href="#DejaVuSans-20" x="296.777344"/>
     <use xlink:href="#DejaVuSans-4d" x="328.564453"/>
     <use xlink:href="#DejaVuSans-65" x="414.84375"/>
     <use xlink:href="#DejaVuSans-61" x="476.367188"/>
     <use xlink:href="#DejaVuSans-6e" x="537.646484"/>
     <use xlink:href="#DejaVuSans-20" x="601.025391"/>
     <use xlink:href="#DejaVuSans-45" x="632.8125"/>
     <use xlink:href="#DejaVuSans-64" x="695.996094"/>
     <use xlink:href="#DejaVuSans-69" x="759.472656"/>
     <use xlink:href="#DejaVuSans-74" x="787.255859"/>
     <use xlink:href="#DejaVuSans-20" x="826.464844"/>
     <use xlink:href="#DejaVuSans-44" x="858.251953"/>
     <use xlink:href="#DejaVuSans-69" x="935.253906"/>
     <use xlink:href="#DejaVuSans-73" x="963.037109"/>
     <use xlink:href="#DejaVuSans-74" x="1015.136719"/>
     <use xlink:href="#DejaVuSans-61" x="1054.345703"/>
     <use xlink:href="#DejaVuSans-6e" x="1115.625"/>
     <use xlink:href="#DejaVuSans-63" x="1179.003906"/>
     <use xlink:href="#DejaVuSans-65" x="1233.984375"/>
     <use xlink:href="#DejaVuSans-20" x="1295.507812"/>
     <use xlink:href="#DejaVuSans-62" x="1327.294922"/>
     <use xlink:href="#DejaVuSans-79" x="1390.771484"/>
     <use xlink:href="#DejaVuSans-20" x="1449.951172"/>
     <use xlink:href="#DejaVuSans-6d" x="1481.738281"/>
     <use xlink:href="#DejaVuSans-6f" x="1579.150391"/>
     <use xlink:href="#DejaVuSans-64" x="1640.332031"/>
     <use xlink:href="#DejaVuSans-65" x="1703.808594"/>
     <use xlink:href="#DejaVuSans-6c" x="1765.332031"/>
    </g>
   </g>
   <g id="text_84">
    <!-- d -->
    <g transform="translate(372.83029 262.918125) scale(0.12 -0.12)">
     <defs>
      <path id="DejaVuSerif-Bold-64" d="M 2747 1497 
L 2747 1825 
Q 2747 2406 2597 2665 
Q 2447 2925 2119 2925 
Q 1775 2925 1636 2651 
Q 1497 2378 1497 1663 
Q 1497 947 1637 672 
Q 1778 397 2119 397 
Q 2447 397 2597 656 
Q 2747 916 2747 1497 
z
M 3853 378 
L 4325 378 
L 4325 0 
L 2747 0 
L 2747 422 
Q 2606 163 2367 36 
Q 2128 -91 1778 -91 
Q 1072 -91 667 378 
Q 263 847 263 1663 
Q 263 2481 667 2947 
Q 1072 3413 1778 3413 
Q 2128 3413 2367 3286 
Q 2606 3159 2747 2900 
L 2747 4488 
L 2272 4488 
L 2272 4863 
L 3853 4863 
L 3853 378 
z
" transform="scale(0.015625)"/>
     </defs>
     <use xlink:href="#DejaVuSerif-Bold-64"/>
    </g>
   </g>
  </g>
  <g id="legend_1">
   <g id="patch_70">
    <path d="M 86.235937 520.358125 
L 625.595312 520.358125 
Q 627.595312 520.358125 627.595312 518.358125 
L 627.595312 504.68 
Q 627.595312 502.68 625.595312 502.68 
L 86.235937 502.68 
Q 84.235937 502.68 84.235937 504.68 
L 84.235937 518.358125 
Q 84.235937 520.358125 86.235937 520.358125 
z
" style="fill: #ffffff; opacity: 0.8; stroke: #cccccc; stroke-linejoin: miter"/>
   </g>
   <g id="patch_71">
    <path d="M 88.235937 514.278437 
L 108.235937 514.278437 
L 108.235937 507.278437 
L 88.235937 507.278437 
z
"/>
   </g>
   <g id="text_85">
    <!-- Annotated, force explanation -->
    <g transform="translate(116.235937 514.278437) scale(0.1 -0.1)">
     <defs>
      <path id="DejaVuSans-2c" d="M 750 794 
L 1409 794 
L 1409 256 
L 897 -744 
L 494 -744 
L 750 256 
L 750 794 
z
" transform="scale(0.015625)"/>
      <path id="DejaVuSans-66" d="M 2375 4863 
L 2375 4384 
L 1825 4384 
Q 1516 4384 1395 4259 
Q 1275 4134 1275 3809 
L 1275 3500 
L 2222 3500 
L 2222 3053 
L 1275 3053 
L 1275 0 
L 697 0 
L 697 3053 
L 147 3053 
L 147 3500 
L 697 3500 
L 697 3744 
Q 697 4328 969 4595 
Q 1241 4863 1831 4863 
L 2375 4863 
z
" transform="scale(0.015625)"/>
      <path id="DejaVuSans-78" d="M 3513 3500 
L 2247 1797 
L 3578 0 
L 2900 0 
L 1881 1375 
L 863 0 
L 184 0 
L 1544 1831 
L 300 3500 
L 978 3500 
L 1906 2253 
L 2834 3500 
L 3513 3500 
z
" transform="scale(0.015625)"/>
      <path id="DejaVuSans-70" d="M 1159 525 
L 1159 -1331 
L 581 -1331 
L 581 3500 
L 1159 3500 
L 1159 2969 
Q 1341 3281 1617 3432 
Q 1894 3584 2278 3584 
Q 2916 3584 3314 3078 
Q 3713 2572 3713 1747 
Q 3713 922 3314 415 
Q 2916 -91 2278 -91 
Q 1894 -91 1617 61 
Q 1341 213 1159 525 
z
M 3116 1747 
Q 3116 2381 2855 2742 
Q 2594 3103 2138 3103 
Q 1681 3103 1420 2742 
Q 1159 2381 1159 1747 
Q 1159 1113 1420 752 
Q 1681 391 2138 391 
Q 2594 391 2855 752 
Q 3116 1113 3116 1747 
z
" transform="scale(0.015625)"/>
     </defs>
     <use xlink:href="#DejaVuSans-41"/>
     <use xlink:href="#DejaVuSans-6e" x="68.408203"/>
     <use xlink:href="#DejaVuSans-6e" x="131.787109"/>
     <use xlink:href="#DejaVuSans-6f" x="195.166016"/>
     <use xlink:href="#DejaVuSans-74" x="256.347656"/>
     <use xlink:href="#DejaVuSans-61" x="295.556641"/>
     <use xlink:href="#DejaVuSans-74" x="356.835938"/>
     <use xlink:href="#DejaVuSans-65" x="396.044922"/>
     <use xlink:href="#DejaVuSans-64" x="457.568359"/>
     <use xlink:href="#DejaVuSans-2c" x="521.044922"/>
     <use xlink:href="#DejaVuSans-20" x="552.832031"/>
     <use xlink:href="#DejaVuSans-66" x="584.619141"/>
     <use xlink:href="#DejaVuSans-6f" x="619.824219"/>
     <use xlink:href="#DejaVuSans-72" x="681.005859"/>
     <use xlink:href="#DejaVuSans-63" x="719.869141"/>
     <use xlink:href="#DejaVuSans-65" x="774.849609"/>
     <use xlink:href="#DejaVuSans-20" x="836.373047"/>
     <use xlink:href="#DejaVuSans-65" x="868.160156"/>
     <use xlink:href="#DejaVuSans-78" x="927.933594"/>
     <use xlink:href="#DejaVuSans-70" x="987.113281"/>
     <use xlink:href="#DejaVuSans-6c" x="1050.589844"/>
     <use xlink:href="#DejaVuSans-61" x="1078.373047"/>
     <use xlink:href="#DejaVuSans-6e" x="1139.652344"/>
     <use xlink:href="#DejaVuSans-61" x="1203.03125"/>
     <use xlink:href="#DejaVuSans-74" x="1264.310547"/>
     <use xlink:href="#DejaVuSans-69" x="1303.519531"/>
     <use xlink:href="#DejaVuSans-6f" x="1331.302734"/>
     <use xlink:href="#DejaVuSans-6e" x="1392.484375"/>
    </g>
   </g>
   <g id="patch_72">
    <path d="M 281.823437 514.278437 
L 301.823437 514.278437 
L 301.823437 507.278437 
L 281.823437 507.278437 
z
" style="fill: #666666"/>
   </g>
   <g id="text_86">
    <!-- Annotated, force solution -->
    <g transform="translate(309.823437 514.278437) scale(0.1 -0.1)">
     <use xlink:href="#DejaVuSans-41"/>
     <use xlink:href="#DejaVuSans-6e" x="68.408203"/>
     <use xlink:href="#DejaVuSans-6e" x="131.787109"/>
     <use xlink:href="#DejaVuSans-6f" x="195.166016"/>
     <use xlink:href="#DejaVuSans-74" x="256.347656"/>
     <use xlink:href="#DejaVuSans-61" x="295.556641"/>
     <use xlink:href="#DejaVuSans-74" x="356.835938"/>
     <use xlink:href="#DejaVuSans-65" x="396.044922"/>
     <use xlink:href="#DejaVuSans-64" x="457.568359"/>
     <use xlink:href="#DejaVuSans-2c" x="521.044922"/>
     <use xlink:href="#DejaVuSans-20" x="552.832031"/>
     <use xlink:href="#DejaVuSans-66" x="584.619141"/>
     <use xlink:href="#DejaVuSans-6f" x="619.824219"/>
     <use xlink:href="#DejaVuSans-72" x="681.005859"/>
     <use xlink:href="#DejaVuSans-63" x="719.869141"/>
     <use xlink:href="#DejaVuSans-65" x="774.849609"/>
     <use xlink:href="#DejaVuSans-20" x="836.373047"/>
     <use xlink:href="#DejaVuSans-73" x="868.160156"/>
     <use xlink:href="#DejaVuSans-6f" x="920.259766"/>
     <use xlink:href="#DejaVuSans-6c" x="981.441406"/>
     <use xlink:href="#DejaVuSans-75" x="1009.224609"/>
     <use xlink:href="#DejaVuSans-74" x="1072.603516"/>
     <use xlink:href="#DejaVuSans-69" x="1111.8125"/>
     <use xlink:href="#DejaVuSans-6f" x="1139.595703"/>
     <use xlink:href="#DejaVuSans-6e" x="1200.777344"/>
    </g>
   </g>
   <g id="patch_73">
    <path d="M 456.2375 514.278437 
L 476.2375 514.278437 
L 476.2375 507.278437 
L 456.2375 507.278437 
z
" style="fill: #999999"/>
   </g>
   <g id="text_87">
    <!-- Unannotated, force solution -->
    <g transform="translate(484.2375 514.278437) scale(0.1 -0.1)">
     <defs>
      <path id="DejaVuSans-55" d="M 556 4666 
L 1191 4666 
L 1191 1831 
Q 1191 1081 1462 751 
Q 1734 422 2344 422 
Q 2950 422 3222 751 
Q 3494 1081 3494 1831 
L 3494 4666 
L 4128 4666 
L 4128 1753 
Q 4128 841 3676 375 
Q 3225 -91 2344 -91 
Q 1459 -91 1007 375 
Q 556 841 556 1753 
L 556 4666 
z
" transform="scale(0.015625)"/>
     </defs>
     <use xlink:href="#DejaVuSans-55"/>
     <use xlink:href="#DejaVuSans-6e" x="73.193359"/>
     <use xlink:href="#DejaVuSans-61" x="136.572266"/>
     <use xlink:href="#DejaVuSans-6e" x="197.851562"/>
     <use xlink:href="#DejaVuSans-6e" x="261.230469"/>
     <use xlink:href="#DejaVuSans-6f" x="324.609375"/>
     <use xlink:href="#DejaVuSans-74" x="385.791016"/>
     <use xlink:href="#DejaVuSans-61" x="425"/>
     <use xlink:href="#DejaVuSans-74" x="486.279297"/>
     <use xlink:href="#DejaVuSans-65" x="525.488281"/>
     <use xlink:href="#DejaVuSans-64" x="587.011719"/>
     <use xlink:href="#DejaVuSans-2c" x="650.488281"/>
     <use xlink:href="#DejaVuSans-20" x="682.275391"/>
     <use xlink:href="#DejaVuSans-66" x="714.0625"/>
     <use xlink:href="#DejaVuSans-6f" x="749.267578"/>
     <use xlink:href="#DejaVuSans-72" x="810.449219"/>
     <use xlink:href="#DejaVuSans-63" x="849.3125"/>
     <use xlink:href="#DejaVuSans-65" x="904.292969"/>
     <use xlink:href="#DejaVuSans-20" x="965.816406"/>
     <use xlink:href="#DejaVuSans-73" x="997.603516"/>
     <use xlink:href="#DejaVuSans-6f" x="1049.703125"/>
     <use xlink:href="#DejaVuSans-6c" x="1110.884766"/>
     <use xlink:href="#DejaVuSans-75" x="1138.667969"/>
     <use xlink:href="#DejaVuSans-74" x="1202.046875"/>
     <use xlink:href="#DejaVuSans-69" x="1241.255859"/>
     <use xlink:href="#DejaVuSans-6f" x="1269.039062"/>
     <use xlink:href="#DejaVuSans-6e" x="1330.220703"/>
    </g>
   </g>
  </g>
 </g>
 <defs>
  <clipPath id="p4552f923a9">
   <rect x="46.965625" y="22.318125" width="287.353347" height="189.28"/>
  </clipPath>
  <clipPath id="p73ffa7cd69">
   <rect x="401.565625" y="22.318125" width="287.353347" height="189.28"/>
  </clipPath>
  <clipPath id="pb00373a2ed">
   <rect x="46.965625" y="268.918125" width="287.353347" height="189.28"/>
  </clipPath>
  <clipPath id="p3de410d8cb">
   <rect x="401.565625" y="268.918125" width="287.353347" height="189.28"/>
  </clipPath>
 </defs>
</svg>
