\relax 
\abx@aux@refcontext{nyt/global//global/global}
\providecommand\hyper@newdestlabel[2]{}
\providecommand\HyperFirstAtBeginDocument{\AtBeginDocument}
\HyperFirstAtBeginDocument{\ifx\hyper@anchor\@undefined
\global\let\oldnewlabel\newlabel
\gdef\newlabel#1#2{\newlabelxx{#1}#2}
\gdef\newlabelxx#1#2#3#4#5#6{\oldnewlabel{#1}{{#2}{#3}}}
\AtEndDocument{\ifx\hyper@anchor\@undefined
\let\newlabel\oldnewlabel
\fi}
\fi}
\global\let\hyper@last\relax 
\gdef\HyperFirstAtBeginDocument#1{#1}
\providecommand*\HyPL@Entry[1]{}
\HyPL@Entry{0<</S/D>>}
\HyPL@Entry{1<</S/D>>}
\abx@aux@refcontext{nyt/apasortcite//global/global}
\abx@aux@cite{0}{wereafraidLiu2023}
\abx@aux@segm{0}{0}{wereafraidLiu2023}
\abx@aux@refcontext{nyt/apasortcite//global/global}
\abx@aux@cite{0}{attentionallyouVaswani2017}
\abx@aux@segm{0}{0}{attentionallyouVaswani2017}
\abx@aux@refcontext{nyt/apasortcite//global/global}
\abx@aux@cite{0}{analysisevaluationlanguageLoureiro2021}
\abx@aux@segm{0}{0}{analysisevaluationlanguageLoureiro2021}
\abx@aux@cite{0}{analysisevaluationlanguageLoureiro2021}
\abx@aux@segm{0}{0}{analysisevaluationlanguageLoureiro2021}
\abx@aux@refcontext{nyt/apasortcite//global/global}
\abx@aux@cite{0}{bertpretrainingdeepDevlin2019}
\abx@aux@segm{0}{0}{bertpretrainingdeepDevlin2019}
\abx@aux@refcontext{nyt/apasortcite//global/global}
\abx@aux@cite{0}{languagemodelunderstoodAina2021}
\abx@aux@segm{0}{0}{languagemodelunderstoodAina2021}
\abx@aux@cite{0}{languagemodelunderstoodAina2021}
\abx@aux@segm{0}{0}{languagemodelunderstoodAina2021}
\@writefile{toc}{\contentsline {chapter}{\numberline {1}Introduction}{3}{chapter.1}\protected@file@percent }
\@writefile{lof}{\addvspace {10\p@ }}
\@writefile{lot}{\addvspace {10\p@ }}
\abx@aux@page{1}{3}
\abx@aux@page{2}{3}
\@writefile{toc}{\contentsline {section}{\numberline {1.1}Ambiguity resolution}{3}{section.1.1}\protected@file@percent }
\abx@aux@page{4}{3}
\abx@aux@page{5}{3}
\abx@aux@page{7}{3}
\abx@aux@refcontext{nyt/apasortcite//global/global}
\abx@aux@cite{0}{githubcomrdeitsDeits2015}
\abx@aux@segm{0}{0}{githubcomrdeitsDeits2015}
\abx@aux@cite{0}{githubcomrdeitsDeits2015}
\abx@aux@segm{0}{0}{githubcomrdeitsDeits2015}
\abx@aux@refcontext{nyt/apasortcite//global/global}
\abx@aux@cite{0}{cryptonitecrypticcrosswordEfrat2021}
\abx@aux@segm{0}{0}{cryptonitecrypticcrosswordEfrat2021}
\abx@aux@cite{0}{cryptonitecrypticcrosswordEfrat2021}
\abx@aux@segm{0}{0}{cryptonitecrypticcrosswordEfrat2021}
\abx@aux@refcontext{nyt/apasortcite//global/global}
\abx@aux@cite{0}{githubcomrdeitsDeits2015}
\abx@aux@segm{0}{0}{githubcomrdeitsDeits2015}
\abx@aux@cite{0}{githubcomrdeitsDeits2015}
\abx@aux@segm{0}{0}{githubcomrdeitsDeits2015}
\abx@aux@refcontext{nyt/apasortcite//global/global}
\abx@aux@cite{0}{cryptonitecrypticcrosswordEfrat2021}
\abx@aux@segm{0}{0}{cryptonitecrypticcrosswordEfrat2021}
\abx@aux@cite{0}{cryptonitecrypticcrosswordEfrat2021}
\abx@aux@segm{0}{0}{cryptonitecrypticcrosswordEfrat2021}
\abx@aux@refcontext{nyt/apasortcite//global/global}
\abx@aux@cite{0}{exploringlimitstransferRaffel2020}
\abx@aux@segm{0}{0}{exploringlimitstransferRaffel2020}
\abx@aux@refcontext{nyt/apasortcite//global/global}
\abx@aux@cite{0}{decryptingcrypticcrosswordsRozner2021}
\abx@aux@segm{0}{0}{decryptingcrypticcrosswordsRozner2021}
\abx@aux@cite{0}{decryptingcrypticcrosswordsRozner2021}
\abx@aux@segm{0}{0}{decryptingcrypticcrosswordsRozner2021}
\abx@aux@refcontext{nyt/apasortcite//global/global}
\abx@aux@cite{0}{decryptingcrypticcrosswordsRozner2021}
\abx@aux@segm{0}{0}{decryptingcrypticcrosswordsRozner2021}
\abx@aux@cite{0}{decryptingcrypticcrosswordsRozner2021}
\abx@aux@segm{0}{0}{decryptingcrypticcrosswordsRozner2021}
\abx@aux@refcontext{nyt/apasortcite//global/global}
\abx@aux@cite{0}{decryptingcrypticcrosswordsRozner2021}
\abx@aux@segm{0}{0}{decryptingcrypticcrosswordsRozner2021}
\abx@aux@cite{0}{decryptingcrypticcrosswordsRozner2021}
\abx@aux@segm{0}{0}{decryptingcrypticcrosswordsRozner2021}
\abx@aux@refcontext{nyt/apasortcite//global/global}
\abx@aux@cite{0}{decryptingcrypticcrosswordsRozner2021}
\abx@aux@segm{0}{0}{decryptingcrypticcrosswordsRozner2021}
\abx@aux@cite{0}{decryptingcrypticcrosswordsRozner2021}
\abx@aux@segm{0}{0}{decryptingcrypticcrosswordsRozner2021}
\abx@aux@refcontext{nyt/apasortcite//global/global}
\abx@aux@cite{0}{decryptingcrypticcrosswordsRozner2021}
\abx@aux@segm{0}{0}{decryptingcrypticcrosswordsRozner2021}
\abx@aux@cite{0}{decryptingcrypticcrosswordsRozner2021}
\abx@aux@segm{0}{0}{decryptingcrypticcrosswordsRozner2021}
\abx@aux@refcontext{nyt/apasortcite//global/global}
\abx@aux@cite{0}{cryptonitecrypticcrosswordEfrat2021}
\abx@aux@segm{0}{0}{cryptonitecrypticcrosswordEfrat2021}
\abx@aux@refcontext{nyt/apasortcite//global/global}
\abx@aux@cite{0}{scalinglanguagemodelsRae2022}
\abx@aux@segm{0}{0}{scalinglanguagemodelsRae2022}
\abx@aux@refcontext{nyt/apasortcite//global/global}
\abx@aux@cite{0}{chainofthoughtpromptingelicitsWei2022}
\abx@aux@segm{0}{0}{chainofthoughtpromptingelicitsWei2022}
\@writefile{toc}{\contentsline {section}{\numberline {1.2}Existing work}{4}{section.1.2}\protected@file@percent }
\abx@aux@page{9}{4}
\abx@aux@page{11}{4}
\abx@aux@page{13}{4}
\abx@aux@page{15}{4}
\abx@aux@page{16}{4}
\abx@aux@page{18}{4}
\abx@aux@page{20}{4}
\abx@aux@page{22}{4}
\abx@aux@page{24}{4}
\abx@aux@page{26}{4}
\abx@aux@page{27}{4}
\@writefile{toc}{\contentsline {section}{\numberline {1.3}Hypotheses and experimental outline}{4}{section.1.3}\protected@file@percent }
\abx@aux@refcontext{nyt/apasortcite//global/global}
\abx@aux@cite{0}{exploringlimitstransferRaffel2020}
\abx@aux@segm{0}{0}{exploringlimitstransferRaffel2020}
\abx@aux@refcontext{nyt/apasortcite//global/global}
\abx@aux@cite{0}{byt5tokenfreefutureXue2022}
\abx@aux@segm{0}{0}{byt5tokenfreefutureXue2022}
\abx@aux@page{28}{5}
\abx@aux@page{29}{5}
\abx@aux@page{30}{5}
\abx@aux@page{31}{5}
\abx@aux@refcontext{nyt/apasortcite//global/global}
\abx@aux@cite{0}{chamberscrosswordmanualManley1986}
\abx@aux@segm{0}{0}{chamberscrosswordmanualManley1986}
\abx@aux@refcontext{nyt/apasortcite//global/global}
\abx@aux@cite{0}{ximenesartcrosswordMacnutt1966}
\abx@aux@segm{0}{0}{ximenesartcrosswordMacnutt1966}
\@writefile{toc}{\contentsline {chapter}{\numberline {2}Background}{6}{chapter.2}\protected@file@percent }
\@writefile{lof}{\addvspace {10\p@ }}
\@writefile{lot}{\addvspace {10\p@ }}
\@writefile{toc}{\contentsline {section}{\numberline {2.1}Historical background}{6}{section.2.1}\protected@file@percent }
\abx@aux@page{32}{6}
\abx@aux@page{33}{6}
\@writefile{lof}{\contentsline {figure}{\numberline {2.1}{\ignorespaces The first crossword (or word-cross) puzzle by Arthur Wynne}}{7}{figure.2.1}\protected@file@percent }
\newlabel{word-cross}{{2.1}{7}{The first crossword (or word-cross) puzzle by Arthur Wynne}{figure.2.1}{}}
\newlabel{word-cross@cref}{{[figure][1][2]2.1}{[1][6][]7}}
\newlabel{clue1}{{1}{7}{Historical background}{Item.1}{}}
\newlabel{clue1@cref}{{[xnumi][1][]1}{[1][7][]7}}
\@writefile{lof}{\contentsline {figure}{\numberline {2.2}{\ignorespaces A standard 15x15 crossword grid with 26 entries}}{8}{figure.2.2}\protected@file@percent }
\newlabel{grid}{{2.2}{8}{A standard 15x15 crossword grid with 26 entries}{figure.2.2}{}}
\newlabel{grid@cref}{{[figure][2][2]2.2}{[1][6][]8}}
\@writefile{toc}{\contentsline {section}{\numberline {2.2}Why are cryptic crossword clues a challenge for NLP?}{8}{section.2.2}\protected@file@percent }
\@writefile{lot}{\contentsline {table}{\numberline {2.1}{\ignorespaces A selection of the most frequent abbreviations used in cryptic clues.}}{9}{table.2.1}\protected@file@percent }
\newlabel{abbreviations}{{2.1}{9}{A selection of the most frequent abbreviations used in cryptic clues}{table.2.1}{}}
\newlabel{abbreviations@cref}{{[table][1][2]2.1}{[1][8][]9}}
\@writefile{toc}{\contentsline {section}{\numberline {2.3}Taxonomy of clue-solving skills}{10}{section.2.3}\protected@file@percent }
\@writefile{lot}{\contentsline {table}{\numberline {2.2}{\ignorespaces A taxonomy of cryptic crossword subtasks and the clue types which require the skill.}}{10}{table.2.2}\protected@file@percent }
\newlabel{taxonomy}{{2.2}{10}{A taxonomy of cryptic crossword subtasks and the clue types which require the skill}{table.2.2}{}}
\newlabel{taxonomy@cref}{{[table][2][2]2.2}{[1][10][]10}}
\@writefile{toc}{\contentsline {subsection}{\numberline {2.3.1}Hypernymy and hyponymy}{10}{subsection.2.3.1}\protected@file@percent }
\newlabel{hype}{{2}{10}{Hypernymy and hyponymy}{Item.2}{}}
\newlabel{hype@cref}{{[xnumi][2][]2}{[1][10][]10}}
\@writefile{toc}{\contentsline {subsection}{\numberline {2.3.2}Homography}{10}{subsection.2.3.2}\protected@file@percent }
\newlabel{homo}{{3}{11}{Homography}{Item.3}{}}
\newlabel{homo@cref}{{[xnumi][3][]3}{[1][11][]11}}
\@writefile{toc}{\contentsline {section}{\numberline {2.4}Summary}{11}{section.2.4}\protected@file@percent }
\abx@aux@refcontext{nyt/apasortcite//global/global}
\abx@aux@cite{0}{cryptonitecrypticcrosswordEfrat2021}
\abx@aux@segm{0}{0}{cryptonitecrypticcrosswordEfrat2021}
\abx@aux@refcontext{nyt/apasortcite//global/global}
\abx@aux@cite{0}{cryptonitecrypticcrosswordEfrat2021}
\abx@aux@segm{0}{0}{cryptonitecrypticcrosswordEfrat2021}
\abx@aux@cite{0}{cryptonitecrypticcrosswordEfrat2021}
\abx@aux@segm{0}{0}{cryptonitecrypticcrosswordEfrat2021}
\abx@aux@refcontext{nyt/apasortcite//global/global}
\abx@aux@cite{0}{cryptonitecrypticcrosswordEfrat2021}
\abx@aux@segm{0}{0}{cryptonitecrypticcrosswordEfrat2021}
\abx@aux@cite{0}{cryptonitecrypticcrosswordEfrat2021}
\abx@aux@segm{0}{0}{cryptonitecrypticcrosswordEfrat2021}
\@writefile{toc}{\contentsline {chapter}{\numberline {3}Method}{12}{chapter.3}\protected@file@percent }
\@writefile{lof}{\addvspace {10\p@ }}
\@writefile{lot}{\addvspace {10\p@ }}
\@writefile{toc}{\contentsline {section}{\numberline {3.1}Datasets}{12}{section.3.1}\protected@file@percent }
\@writefile{toc}{\contentsline {subsection}{\numberline {3.1.1}Cryptonite}{12}{subsection.3.1.1}\protected@file@percent }
\abx@aux@page{34}{12}
\abx@aux@page{36}{12}
\@writefile{toc}{\contentsline {subsection}{\numberline {3.1.2}Enhanced Cryptonite test set}{12}{subsection.3.1.2}\protected@file@percent }
\abx@aux@page{38}{12}
\@writefile{lot}{\contentsline {table}{\numberline {3.1}{\ignorespaces Sample of three clues from the novel annotated portion of the Cryptonite test set with primary and secondary clue type annotations.}}{12}{table.3.1}\protected@file@percent }
\newlabel{enhanced}{{3.1}{12}{Sample of three clues from the novel annotated portion of the Cryptonite test set with primary and secondary clue type annotations}{table.3.1}{}}
\newlabel{enhanced@cref}{{[table][1][3]3.1}{[1][12][]12}}
\@writefile{lof}{\contentsline {figure}{\numberline {3.1}{\ignorespaces Clue type frequency over ca. 700 clues. Some clues contain multiple steps with different clue types, so these clues are represented twice.}}{13}{figure.3.1}\protected@file@percent }
\newlabel{clue-dist}{{3.1}{13}{Clue type frequency over ca. 700 clues. Some clues contain multiple steps with different clue types, so these clues are represented twice}{figure.3.1}{}}
\newlabel{clue-dist@cref}{{[figure][1][3]3.1}{[1][12][]13}}
\@writefile{toc}{\contentsline {subsection}{\numberline {3.1.3}Annotated dataset}{13}{subsection.3.1.3}\protected@file@percent }
\@writefile{lof}{\contentsline {figure}{\numberline {3.2}{\ignorespaces  Clue annotations by ‘branch’ on Times for The Times (https://timesforthetimes.co.uk/times-cryptic-28806-sat-6-jan-2024-fireworks-now)}}{13}{figure.3.2}\protected@file@percent }
\newlabel{annotation}{{3.2}{13}{Clue annotations by ‘branch’ on Times for The Times (https://timesforthetimes.co.uk/times-cryptic-28806-sat-6-jan-2024-fireworks-now)}{figure.3.2}{}}
\newlabel{annotation@cref}{{[figure][2][3]3.2}{[1][13][]13}}
\@writefile{lof}{\contentsline {figure}{\numberline {3.3}{\ignorespaces Input and target pair sample from training the annotated models on my novel annotated dataset.}}{14}{figure.3.3}\protected@file@percent }
\newlabel{input-target}{{3.3}{14}{Input and target pair sample from training the annotated models on my novel annotated dataset}{figure.3.3}{}}
\newlabel{input-target@cref}{{[figure][3][3]3.3}{[1][13][]14}}
\@writefile{toc}{\contentsline {section}{\numberline {3.2}Statistics for datasets}{14}{section.3.2}\protected@file@percent }
\newlabel{sec-stats}{{3.2}{14}{Statistics for datasets}{section.3.2}{}}
\newlabel{sec-stats@cref}{{[section][2][3]3.2}{[1][14][]14}}
\@writefile{lot}{\contentsline {table}{\numberline {3.2}{\ignorespaces Solutions in the Cryptonite training dataset by total entry length and number of constituent words.}}{14}{table.3.2}\protected@file@percent }
\newlabel{stats}{{3.2}{14}{Solutions in the Cryptonite training dataset by total entry length and number of constituent words}{table.3.2}{}}
\newlabel{stats@cref}{{[table][2][3]3.2}{[1][14][]14}}
\@writefile{toc}{\contentsline {section}{\numberline {3.3}Dataset limitations}{14}{section.3.3}\protected@file@percent }
\newlabel{haulage}{{4}{14}{Dataset limitations}{Item.4}{}}
\newlabel{haulage@cref}{{[xnumi][4][]4}{[1][14][]14}}
\abx@aux@refcontext{nyt/apasortcite//global/global}
\abx@aux@cite{0}{exploringlimitstransferRaffel2020}
\abx@aux@segm{0}{0}{exploringlimitstransferRaffel2020}
\abx@aux@cite{0}{exploringlimitstransferRaffel2020}
\abx@aux@segm{0}{0}{exploringlimitstransferRaffel2020}
\abx@aux@refcontext{nyt/apasortcite//global/global}
\abx@aux@cite{0}{sentencepiecesimplelanguageKudo2018}
\abx@aux@segm{0}{0}{sentencepiecesimplelanguageKudo2018}
\abx@aux@refcontext{nyt/apasortcite//global/global}
\abx@aux@cite{0}{exploringlimitstransferRaffel2020}
\abx@aux@segm{0}{0}{exploringlimitstransferRaffel2020}
\abx@aux@refcontext{nyt/apasortcite//global/global}
\abx@aux@cite{0}{byt5tokenfreefutureXue2022}
\abx@aux@segm{0}{0}{byt5tokenfreefutureXue2022}
\abx@aux@refcontext{nyt/apasortcite//global/global}
\abx@aux@cite{0}{byt5tokenfreefutureXue2022}
\abx@aux@segm{0}{0}{byt5tokenfreefutureXue2022}
\abx@aux@refcontext{nyt/apasortcite//global/global}
\abx@aux@cite{0}{attentionallyouVaswani2017}
\abx@aux@segm{0}{0}{attentionallyouVaswani2017}
\newlabel{1}{{5a}{15}{Dataset limitations}{Item.6}{}}
\newlabel{1@cref}{{[xnumii][1][]5a}{[1][14][]15}}
\newlabel{2}{{5b}{15}{Dataset limitations}{Item.7}{}}
\newlabel{2@cref}{{[xnumii][2][]5b}{[1][15][]15}}
\newlabel{3}{{5c}{15}{Dataset limitations}{Item.8}{}}
\newlabel{3@cref}{{[xnumii][3][]5c}{[1][15][]15}}
\newlabel{oddclues}{{5}{15}{Dataset limitations}{Item.8}{}}
\newlabel{oddclues@cref}{{[xnumi][5][]5}{[1][15][]15}}
\@writefile{toc}{\contentsline {section}{\numberline {3.4}Models}{15}{section.3.4}\protected@file@percent }
\@writefile{toc}{\contentsline {subsection}{\numberline {3.4.1}T5-Large}{15}{subsection.3.4.1}\protected@file@percent }
\abx@aux@page{40}{15}
\abx@aux@page{41}{15}
\@writefile{toc}{\contentsline {subsection}{\numberline {3.4.2}T5-3B}{15}{subsection.3.4.2}\protected@file@percent }
\abx@aux@page{42}{15}
\@writefile{toc}{\contentsline {subsection}{\numberline {3.4.3}ByT5-Large}{15}{subsection.3.4.3}\protected@file@percent }
\abx@aux@page{43}{15}
\@writefile{toc}{\contentsline {subsection}{\numberline {3.4.4}ByT5-XL}{15}{subsection.3.4.4}\protected@file@percent }
\abx@aux@page{44}{15}
\abx@aux@refcontext{nyt/apasortcite//global/global}
\abx@aux@cite{0}{exploringlimitstransferRaffel2020}
\abx@aux@segm{0}{0}{exploringlimitstransferRaffel2020}
\abx@aux@refcontext{nyt/apasortcite//global/global}
\abx@aux@cite{0}{sentencepiecesimplelanguageKudo2018}
\abx@aux@segm{0}{0}{sentencepiecesimplelanguageKudo2018}
\@writefile{toc}{\contentsline {section}{\numberline {3.5}Overall architecture}{16}{section.3.5}\protected@file@percent }
\abx@aux@page{45}{16}
\abx@aux@page{46}{16}
\@writefile{toc}{\contentsline {subsection}{\numberline {3.5.1}Tokenizers}{16}{subsection.3.5.1}\protected@file@percent }
\@writefile{toc}{\contentsline {subsubsection}{SentencePiece}{16}{section*.2}\protected@file@percent }
\abx@aux@page{47}{16}
\@writefile{toc}{\contentsline {subsubsection}{ByT5}{16}{section*.3}\protected@file@percent }
\abx@aux@refcontext{nyt/apasortcite//global/global}
\abx@aux@cite{0}{wolf-etal-2020-transformers}
\abx@aux@segm{0}{0}{wolf-etal-2020-transformers}
\abx@aux@refcontext{nyt/apasortcite//global/global}
\abx@aux@cite{0}{paszke2017automatic}
\abx@aux@segm{0}{0}{paszke2017automatic}
\abx@aux@refcontext{nyt/apasortcite//global/global}
\abx@aux@cite{0}{harris2020array}
\abx@aux@segm{0}{0}{harris2020array}
\abx@aux@refcontext{nyt/apasortcite//global/global}
\abx@aux@cite{0}{mckinney-proc-scipy-2010}
\abx@aux@segm{0}{0}{mckinney-proc-scipy-2010}
\abx@aux@refcontext{nyt/apasortcite//global/global}
\abx@aux@cite{0}{peft}
\abx@aux@segm{0}{0}{peft}
\abx@aux@refcontext{nyt/apasortcite//global/global}
\abx@aux@cite{0}{loralowrankadaptationHu2021}
\abx@aux@segm{0}{0}{loralowrankadaptationHu2021}
\@writefile{toc}{\contentsline {section}{\numberline {3.6}Libraries}{17}{section.3.6}\protected@file@percent }
\abx@aux@page{48}{17}
\abx@aux@page{49}{17}
\abx@aux@page{50}{17}
\abx@aux@page{51}{17}
\@writefile{toc}{\contentsline {section}{\numberline {3.7}Training protocol}{17}{section.3.7}\protected@file@percent }
\abx@aux@page{52}{17}
\abx@aux@page{53}{17}
\@writefile{lot}{\contentsline {table}{\numberline {3.3}{\ignorespaces Training time for each model with its number of trainable parameters.}}{17}{table.3.3}\protected@file@percent }
\newlabel{training}{{3.3}{17}{Training time for each model with its number of trainable parameters}{table.3.3}{}}
\newlabel{training@cref}{{[table][3][3]3.3}{[1][17][]17}}
\@writefile{toc}{\contentsline {section}{\numberline {3.8}Evaluation metrics}{18}{section.3.8}\protected@file@percent }
\@writefile{toc}{\contentsline {subsection}{\numberline {3.8.1}Accuracy}{18}{subsection.3.8.1}\protected@file@percent }
\@writefile{toc}{\contentsline {subsection}{\numberline {3.8.2}Enumeration accuracy}{18}{subsection.3.8.2}\protected@file@percent }
\@writefile{lot}{\contentsline {table}{\numberline {3.4}{\ignorespaces A clue from the test dataset with a prediction produced by the T5-L annotated explanation-forcing model.}}{18}{table.3.4}\protected@file@percent }
\newlabel{enum}{{3.4}{18}{A clue from the test dataset with a prediction produced by the T5-L annotated explanation-forcing model}{table.3.4}{}}
\newlabel{enum@cref}{{[table][4][3]3.4}{[1][18][]18}}
\@writefile{toc}{\contentsline {subsection}{\numberline {3.8.3}Edit distance}{18}{subsection.3.8.3}\protected@file@percent }
\abx@aux@refcontext{nyt/apasortcite//global/global}
\abx@aux@cite{0}{introductionwordnetonlineMiller1990}
\abx@aux@segm{0}{0}{introductionwordnetonlineMiller1990}
\abx@aux@refcontext{nyt/apasortcite//global/global}
\abx@aux@cite{0}{verbsemanticslexicalWu1994}
\abx@aux@segm{0}{0}{verbsemanticslexicalWu1994}
\@writefile{lot}{\contentsline {table}{\numberline {3.5}{\ignorespaces A clue from the test dataset and the prediction produced by the T5-3B unannotated model.}}{19}{table.3.5}\protected@file@percent }
\newlabel{lev}{{3.5}{19}{A clue from the test dataset and the prediction produced by the T5-3B unannotated model}{table.3.5}{}}
\newlabel{lev@cref}{{[table][5][3]3.5}{[1][18][]19}}
\@writefile{toc}{\contentsline {subsection}{\numberline {3.8.4}Semantic similarity}{19}{subsection.3.8.4}\protected@file@percent }
\abx@aux@page{54}{19}
\abx@aux@page{55}{19}
\@writefile{lof}{\contentsline {figure}{\numberline {3.4}{\ignorespaces Equation to calculate Wu–Palmer Similarity between two WordNet synsets s1 and s2}}{19}{figure.3.4}\protected@file@percent }
\newlabel{wup}{{3.4}{19}{Equation to calculate Wu–Palmer Similarity between two WordNet synsets s1 and s2}{figure.3.4}{}}
\newlabel{wup@cref}{{[figure][4][3]3.4}{[1][19][]19}}
\@writefile{lot}{\contentsline {table}{\numberline {3.6}{\ignorespaces A clue from the test dataset and the prediction generated by the T5-3B unannotated model with Levenshtein distance and Semantic Similarity.}}{19}{table.3.6}\protected@file@percent }
\newlabel{semsim}{{3.6}{19}{A clue from the test dataset and the prediction generated by the T5-3B unannotated model with Levenshtein distance and Semantic Similarity}{table.3.6}{}}
\newlabel{semsim@cref}{{[table][6][3]3.6}{[1][19][]19}}
\abx@aux@refcontext{nyt/apasortcite//global/global}
\abx@aux@cite{0}{cryptonitecrypticcrosswordEfrat2021}
\abx@aux@segm{0}{0}{cryptonitecrypticcrosswordEfrat2021}
\abx@aux@cite{0}{cryptonitecrypticcrosswordEfrat2021}
\abx@aux@segm{0}{0}{cryptonitecrypticcrosswordEfrat2021}
\@writefile{toc}{\contentsline {chapter}{\numberline {4}Results}{20}{chapter.4}\protected@file@percent }
\@writefile{lof}{\addvspace {10\p@ }}
\@writefile{lot}{\addvspace {10\p@ }}
\@writefile{toc}{\contentsline {section}{\numberline {4.1}Models}{20}{section.4.1}\protected@file@percent }
\@writefile{toc}{\contentsline {subsection}{\numberline {4.1.1}Baseline (T5-Large unannotated)}{20}{subsection.4.1.1}\protected@file@percent }
\abx@aux@page{57}{20}
\@writefile{lof}{\contentsline {figure}{\numberline {4.1}{\ignorespaces Accuracy, enumeration accuracy, mean edit distance, and mean semantic similarity values for each clue type in the enhanced test dataset with predictions generated by the T5-Large unannotated model.}}{21}{figure.4.1}\protected@file@percent }
\newlabel{t5-l-u-1}{{4.1}{21}{Accuracy, enumeration accuracy, mean edit distance, and mean semantic similarity values for each clue type in the enhanced test dataset with predictions generated by the T5-Large unannotated model}{figure.4.1}{}}
\newlabel{t5-l-u-1@cref}{{[figure][1][4]4.1}{[1][20][]21}}
\@writefile{lof}{\contentsline {figure}{\numberline {4.2}{\ignorespaces Accuracy, enumeration accuracy, mean edit distance, and mean semantic similarity by enumeration of single-word solutions in the test dataset with predictions generated by the T5-Large unannotated model. }}{21}{figure.4.2}\protected@file@percent }
\newlabel{t5-l-u-2}{{4.2}{21}{Accuracy, enumeration accuracy, mean edit distance, and mean semantic similarity by enumeration of single-word solutions in the test dataset with predictions generated by the T5-Large unannotated model}{figure.4.2}{}}
\newlabel{t5-l-u-2@cref}{{[figure][2][4]4.2}{[1][20][]21}}
\@writefile{toc}{\contentsline {subsection}{\numberline {4.1.2}T5-3B unannotated}{22}{subsection.4.1.2}\protected@file@percent }
\@writefile{lof}{\contentsline {figure}{\numberline {4.3}{\ignorespaces Accuracy, enumeration accuracy, mean edit distance, and mean semantic similarity values for each clue type in the enhanced test dataset with predictions generated by the T5-3B unannotated model.}}{23}{figure.4.3}\protected@file@percent }
\newlabel{t5-3b-u-1}{{4.3}{23}{Accuracy, enumeration accuracy, mean edit distance, and mean semantic similarity values for each clue type in the enhanced test dataset with predictions generated by the T5-3B unannotated model}{figure.4.3}{}}
\newlabel{t5-3b-u-1@cref}{{[figure][3][4]4.3}{[1][22][]23}}
\@writefile{lof}{\contentsline {figure}{\numberline {4.4}{\ignorespaces Accuracy, enumeration accuracy, mean edit distance, and mean semantic similarity by enumeration of single-word solutions in the test dataset with predictions generated by the T5-3B unannotated model.}}{23}{figure.4.4}\protected@file@percent }
\newlabel{t5-3b-u-2}{{4.4}{23}{Accuracy, enumeration accuracy, mean edit distance, and mean semantic similarity by enumeration of single-word solutions in the test dataset with predictions generated by the T5-3B unannotated model}{figure.4.4}{}}
\newlabel{t5-3b-u-2@cref}{{[figure][4][4]4.4}{[1][22][]23}}
\@writefile{toc}{\contentsline {subsection}{\numberline {4.1.3}ByT5-Large unannotated}{24}{subsection.4.1.3}\protected@file@percent }
\@writefile{lot}{\contentsline {table}{\numberline {4.1}{\ignorespaces Sample prediction by ByT5-Large on a clue in the test set, with truncation behaviour illustrated.}}{24}{table.4.1}\protected@file@percent }
\newlabel{byt5-pre}{{4.1}{24}{Sample prediction by ByT5-Large on a clue in the test set, with truncation behaviour illustrated}{table.4.1}{}}
\newlabel{byt5-pre@cref}{{[table][1][4]4.1}{[1][24][]24}}
\@writefile{lof}{\contentsline {figure}{\numberline {4.5}{\ignorespaces Accuracy, enumeration accuracy, mean edit distance, and mean semantic similarity values for each clue type in the enhanced test dataset with predictions generated by the ByT5-L unannotated model.}}{25}{figure.4.5}\protected@file@percent }
\newlabel{Byt5-l-u-1}{{4.5}{25}{Accuracy, enumeration accuracy, mean edit distance, and mean semantic similarity values for each clue type in the enhanced test dataset with predictions generated by the ByT5-L unannotated model}{figure.4.5}{}}
\newlabel{Byt5-l-u-1@cref}{{[figure][5][4]4.5}{[1][24][]25}}
\@writefile{lof}{\contentsline {figure}{\numberline {4.6}{\ignorespaces Accuracy, enumeration accuracy, mean edit distance, and mean semantic similarity by enumeration of single-word solutions in the test dataset with predictions generated by the ByT5-Large unannotated model.}}{25}{figure.4.6}\protected@file@percent }
\newlabel{Byt5-l-u-2}{{4.6}{25}{Accuracy, enumeration accuracy, mean edit distance, and mean semantic similarity by enumeration of single-word solutions in the test dataset with predictions generated by the ByT5-Large unannotated model}{figure.4.6}{}}
\newlabel{Byt5-l-u-2@cref}{{[figure][6][4]4.6}{[1][24][]25}}
\@writefile{toc}{\contentsline {subsection}{\numberline {4.1.4}ByT5-XL unannotated}{26}{subsection.4.1.4}\protected@file@percent }
\@writefile{lof}{\contentsline {figure}{\numberline {4.7}{\ignorespaces Accuracy, enumeration accuracy, mean edit distance, and mean semantic similarity values for each clue type in the enhanced test dataset with predictions generated by the ByT5-XL unannotated model.}}{26}{figure.4.7}\protected@file@percent }
\newlabel{Byt5-xl-u-1}{{4.7}{26}{Accuracy, enumeration accuracy, mean edit distance, and mean semantic similarity values for each clue type in the enhanced test dataset with predictions generated by the ByT5-XL unannotated model}{figure.4.7}{}}
\newlabel{Byt5-xl-u-1@cref}{{[figure][7][4]4.7}{[1][26][]26}}
\@writefile{lof}{\contentsline {figure}{\numberline {4.8}{\ignorespaces Accuracy, enumeration accuracy, mean edit distance, and mean semantic similarity by enumeration of single-word solutions in the test dataset with predictions generated by the ByT5-XL unannotated model.}}{27}{figure.4.8}\protected@file@percent }
\newlabel{Byt5-xl-u-2}{{4.8}{27}{Accuracy, enumeration accuracy, mean edit distance, and mean semantic similarity by enumeration of single-word solutions in the test dataset with predictions generated by the ByT5-XL unannotated model}{figure.4.8}{}}
\newlabel{Byt5-xl-u-2@cref}{{[figure][8][4]4.8}{[1][26][]27}}
\@writefile{toc}{\contentsline {subsection}{\numberline {4.1.5}T5-Large annotated}{27}{subsection.4.1.5}\protected@file@percent }
\@writefile{lof}{\contentsline {figure}{\numberline {4.9}{\ignorespaces Accuracy, enumeration accuracy, mean edit distance, and mean semantic similarity values for each clue type in the enhanced test dataset with predictions generated by the T5-Large annotated model, with two bars representing the differential generation conditions of solution-forcing and explanation-forcing.}}{28}{figure.4.9}\protected@file@percent }
\newlabel{T5-l-a-1}{{4.9}{28}{Accuracy, enumeration accuracy, mean edit distance, and mean semantic similarity values for each clue type in the enhanced test dataset with predictions generated by the T5-Large annotated model, with two bars representing the differential generation conditions of solution-forcing and explanation-forcing}{figure.4.9}{}}
\newlabel{T5-l-a-1@cref}{{[figure][9][4]4.9}{[1][27][]28}}
\@writefile{lof}{\contentsline {figure}{\numberline {4.10}{\ignorespaces Accuracy, enumeration accuracy, mean edit distance, and mean semantic similarity by enumeration of single-word solutions in the test dataset with predictions generated by the T5-Large annotated model under both the explanation-forcing (dashed line) and solution-forcing (solid line) generation conditions.}}{29}{figure.4.10}\protected@file@percent }
\newlabel{T5-l-a-2}{{4.10}{29}{Accuracy, enumeration accuracy, mean edit distance, and mean semantic similarity by enumeration of single-word solutions in the test dataset with predictions generated by the T5-Large annotated model under both the explanation-forcing (dashed line) and solution-forcing (solid line) generation conditions}{figure.4.10}{}}
\newlabel{T5-l-a-2@cref}{{[figure][10][4]4.10}{[1][29][]29}}
\@writefile{toc}{\contentsline {subsection}{\numberline {4.1.6}T5-3B annotated}{30}{subsection.4.1.6}\protected@file@percent }
\@writefile{lof}{\contentsline {figure}{\numberline {4.11}{\ignorespaces Accuracy, enumeration accuracy, mean edit distance, and mean semantic similarity values for each clue type in the enhanced test dataset with predictions generated by the T5-3B annotated model, with two bars representing the differential generation conditions of solution-forcing and explanation-forcing.}}{30}{figure.4.11}\protected@file@percent }
\newlabel{T5-3b-a-1}{{4.11}{30}{Accuracy, enumeration accuracy, mean edit distance, and mean semantic similarity values for each clue type in the enhanced test dataset with predictions generated by the T5-3B annotated model, with two bars representing the differential generation conditions of solution-forcing and explanation-forcing}{figure.4.11}{}}
\newlabel{T5-3b-a-1@cref}{{[figure][11][4]4.11}{[1][30][]30}}
\@writefile{lof}{\contentsline {figure}{\numberline {4.12}{\ignorespaces Accuracy, enumeration accuracy, mean edit distance, and mean semantic similarity by enumeration of single-word solutions in the test dataset with predictions generated by the T5-3B annotated model under both the explanation-forcing (dashed line) and solution-forcing (solid line) generation conditions.}}{31}{figure.4.12}\protected@file@percent }
\newlabel{T5-3b-a-2}{{4.12}{31}{Accuracy, enumeration accuracy, mean edit distance, and mean semantic similarity by enumeration of single-word solutions in the test dataset with predictions generated by the T5-3B annotated model under both the explanation-forcing (dashed line) and solution-forcing (solid line) generation conditions}{figure.4.12}{}}
\newlabel{T5-3b-a-2@cref}{{[figure][12][4]4.12}{[1][30][]31}}
\@writefile{toc}{\contentsline {section}{\numberline {4.2}Overall comparison}{32}{section.4.2}\protected@file@percent }
\@writefile{toc}{\contentsline {subsection}{\numberline {4.2.1}Clue types}{32}{subsection.4.2.1}\protected@file@percent }
\@writefile{toc}{\contentsline {subsubsection}{Anagrams}{32}{section*.4}\protected@file@percent }
\@writefile{lof}{\contentsline {figure}{\numberline {4.13}{\ignorespaces Accuracy, enumeration accuracy, mean edit distance, and mean semantic similarity for each model on only anagram clues in the enhanced test dataset.}}{32}{figure.4.13}\protected@file@percent }
\newlabel{anagram}{{4.13}{32}{Accuracy, enumeration accuracy, mean edit distance, and mean semantic similarity for each model on only anagram clues in the enhanced test dataset}{figure.4.13}{}}
\newlabel{anagram@cref}{{[figure][13][4]4.13}{[1][32][]32}}
\@writefile{toc}{\contentsline {subsubsection}{Charades}{34}{section*.5}\protected@file@percent }
\@writefile{lof}{\contentsline {figure}{\numberline {4.14}{\ignorespaces Accuracy, enumeration accuracy, mean edit distance, and mean semantic similarity for each model on only charade clues in the enhanced test dataset.}}{34}{figure.4.14}\protected@file@percent }
\newlabel{charade}{{4.14}{34}{Accuracy, enumeration accuracy, mean edit distance, and mean semantic similarity for each model on only charade clues in the enhanced test dataset}{figure.4.14}{}}
\newlabel{charade@cref}{{[figure][14][4]4.14}{[1][34][]34}}
\@writefile{toc}{\contentsline {subsubsection}{Containments}{35}{section*.6}\protected@file@percent }
\@writefile{lof}{\contentsline {figure}{\numberline {4.15}{\ignorespaces Accuracy, enumeration accuracy, mean edit distance, and mean semantic similarity for each model on only containment clues in the enhanced test dataset.}}{35}{figure.4.15}\protected@file@percent }
\newlabel{containment}{{4.15}{35}{Accuracy, enumeration accuracy, mean edit distance, and mean semantic similarity for each model on only containment clues in the enhanced test dataset}{figure.4.15}{}}
\newlabel{containment@cref}{{[figure][15][4]4.15}{[1][35][]35}}
\abx@aux@refcontext{nyt/apasortcite//global/global}
\abx@aux@cite{0}{introductionwordnetonlineMiller1990}
\abx@aux@segm{0}{0}{introductionwordnetonlineMiller1990}
\@writefile{toc}{\contentsline {subsection}{\numberline {4.2.2}Single- vs. multi-word}{36}{subsection.4.2.2}\protected@file@percent }
\newlabel{multi}{{4.2.2}{36}{Single- vs. multi-word}{subsection.4.2.2}{}}
\newlabel{multi@cref}{{[subsection][2][4,2]4.2.2}{[1][36][]36}}
\@writefile{lof}{\contentsline {figure}{\numberline {4.16}{\ignorespaces Accuracy, enumeration accuracy, and mean edit distance for each model with separated values for single-word (white) and multi-word (black) solutions.}}{36}{figure.4.16}\protected@file@percent }
\newlabel{words}{{4.16}{36}{Accuracy, enumeration accuracy, and mean edit distance for each model with separated values for single-word (white) and multi-word (black) solutions}{figure.4.16}{}}
\newlabel{words@cref}{{[figure][16][4]4.16}{[1][36][]36}}
\abx@aux@page{58}{36}
\@writefile{toc}{\contentsline {subsection}{\numberline {4.2.3}Effect of perceived ease of puzzle}{37}{subsection.4.2.3}\protected@file@percent }
\abx@aux@refcontext{nyt/apasortcite//global/global}
\abx@aux@cite{0}{bleumethodautomaticPapineni2002}
\abx@aux@segm{0}{0}{bleumethodautomaticPapineni2002}
\@writefile{lof}{\contentsline {figure}{\numberline {4.17}{\ignorespaces Accuracy, enumeration accuracy, mean edit distance, and mean semantic similarity for each model by puzzle series: The Times Quick Cryptic (gray), The Telegraph (black), and The Times Cryptic (white).}}{38}{figure.4.17}\protected@file@percent }
\newlabel{series}{{4.17}{38}{Accuracy, enumeration accuracy, mean edit distance, and mean semantic similarity for each model by puzzle series: The Times Quick Cryptic (gray), The Telegraph (black), and The Times Cryptic (white)}{figure.4.17}{}}
\newlabel{series@cref}{{[figure][17][4]4.17}{[1][37][]38}}
\@writefile{toc}{\contentsline {subsection}{\numberline {4.2.4}Subjective analysis of explanations}{38}{subsection.4.2.4}\protected@file@percent }
\newlabel{explanations}{{4.2.4}{38}{Subjective analysis of explanations}{subsection.4.2.4}{}}
\newlabel{explanations@cref}{{[subsection][4][4,2]4.2.4}{[1][38][]38}}
\abx@aux@page{59}{38}
\@writefile{lot}{\contentsline {table}{\numberline {4.2}{\ignorespaces Sample of 4 clues from the test dataset with predicted solutions and explanations by both the T5-Large and T5-3B models.}}{39}{table.4.2}\protected@file@percent }
\newlabel{sample-clues}{{4.2}{39}{Sample of 4 clues from the test dataset with predicted solutions and explanations by both the T5-Large and T5-3B models}{table.4.2}{}}
\newlabel{sample-clues@cref}{{[table][2][4]4.2}{[1][38][]39}}
\abx@aux@refcontext{nyt/apasortcite//global/global}
\abx@aux@cite{0}{sentencepiecesimplelanguageKudo2018}
\abx@aux@segm{0}{0}{sentencepiecesimplelanguageKudo2018}
\abx@aux@refcontext{nyt/apasortcite//global/global}
\abx@aux@cite{0}{scalinglanguagemodelsRae2022}
\abx@aux@segm{0}{0}{scalinglanguagemodelsRae2022}
\@writefile{toc}{\contentsline {chapter}{\numberline {5}Discussion}{41}{chapter.5}\protected@file@percent }
\@writefile{lof}{\addvspace {10\p@ }}
\@writefile{lot}{\addvspace {10\p@ }}
\abx@aux@page{60}{41}
\@writefile{toc}{\contentsline {section}{\numberline {5.1}Key findings}{41}{section.5.1}\protected@file@percent }
\@writefile{toc}{\contentsline {subsection}{\numberline {5.1.1}Larger models lead to better results}{41}{subsection.5.1.1}\protected@file@percent }
\abx@aux@page{61}{41}
\abx@aux@refcontext{nyt/apasortcite//global/global}
\abx@aux@cite{0}{chainofthoughtpromptingelicitsWei2022}
\abx@aux@segm{0}{0}{chainofthoughtpromptingelicitsWei2022}
\@writefile{toc}{\contentsline {subsection}{\numberline {5.1.2}Character-level tokenization strategies perform better on tasks which require character-level information content}{42}{subsection.5.1.2}\protected@file@percent }
\@writefile{toc}{\contentsline {subsection}{\numberline {5.1.3}Including annotations improves enumeration accuracy, mean edit distance, and mean semantic similarity, but not accuracy}{42}{subsection.5.1.3}\protected@file@percent }
\newlabel{incl}{{5.1.3}{42}{Including annotations improves enumeration accuracy, mean edit distance, and mean semantic similarity, but not accuracy}{subsection.5.1.3}{}}
\newlabel{incl@cref}{{[subsection][3][5,1]5.1.3}{[1][42][]42}}
\abx@aux@page{62}{42}
\abx@aux@refcontext{nyt/apasortcite//global/global}
\abx@aux@cite{0}{decryptingcrypticcrosswordsRozner2021}
\abx@aux@segm{0}{0}{decryptingcrypticcrosswordsRozner2021}
\abx@aux@cite{0}{decryptingcrypticcrosswordsRozner2021}
\abx@aux@segm{0}{0}{decryptingcrypticcrosswordsRozner2021}
\abx@aux@refcontext{nyt/apasortcite//global/global}
\abx@aux@cite{0}{decryptingcrypticcrosswordsRozner2021}
\abx@aux@segm{0}{0}{decryptingcrypticcrosswordsRozner2021}
\abx@aux@cite{0}{decryptingcrypticcrosswordsRozner2021}
\abx@aux@segm{0}{0}{decryptingcrypticcrosswordsRozner2021}
\abx@aux@refcontext{nyt/apasortcite//global/global}
\abx@aux@cite{0}{cryptonitecrypticcrosswordEfrat2021}
\abx@aux@segm{0}{0}{cryptonitecrypticcrosswordEfrat2021}
\@writefile{toc}{\contentsline {subsection}{\numberline {5.1.4}Human perceptions of puzzle difficulty track across all models}{43}{subsection.5.1.4}\protected@file@percent }
\@writefile{toc}{\contentsline {section}{\numberline {5.2}Limitations}{43}{section.5.2}\protected@file@percent }
\abx@aux@page{64}{43}
\abx@aux@page{66}{44}
\abx@aux@page{67}{44}
\@writefile{toc}{\contentsline {section}{\numberline {5.3}Summary}{44}{section.5.3}\protected@file@percent }
\abx@aux@page{68}{45}
\abx@aux@page{69}{45}
\abx@aux@page{70}{45}
\abx@aux@page{71}{45}
\abx@aux@page{72}{45}
\abx@aux@page{73}{45}
\abx@aux@page{74}{45}
\abx@aux@page{75}{45}
\abx@aux@page{76}{45}
\abx@aux@page{77}{45}
\abx@aux@page{78}{45}
\abx@aux@page{79}{46}
\abx@aux@page{80}{46}
\abx@aux@page{81}{46}
\abx@aux@page{82}{46}
\abx@aux@page{83}{46}
\abx@aux@page{84}{46}
\abx@aux@page{85}{46}
\abx@aux@page{86}{46}
\abx@aux@page{87}{46}
\abx@aux@page{88}{46}
\abx@aux@page{89}{46}
\abx@aux@page{90}{47}
\abx@aux@page{91}{47}
\gdef \LT@i {\LT@entry 
    {1}{98.15825pt}\LT@entry 
    {1}{67.16pt}\LT@entry 
    {1}{97.75826pt}\LT@entry 
    {1}{154.66377pt}\LT@entry 
    {1}{97.75826pt}}
\@writefile{toc}{\contentsline {chapter}{\numberline {A}Explanations of each type of clue}{48}{appendix.A}\protected@file@percent }
\@writefile{lof}{\addvspace {10\p@ }}
\@writefile{lot}{\addvspace {10\p@ }}
\newlabel{appendixa}{{A}{48}{Explanations of each type of clue}{appendix.A}{}}
\newlabel{appendixa@cref}{{[appendix][1][2147483647]A}{[1][48][]48}}
\gdef \LT@ii {\LT@entry 
    {1}{98.15825pt}\LT@entry 
    {1}{62.13pt}\LT@entry 
    {1}{55.07912pt}\LT@entry 
    {1}{126.21101pt}\LT@entry 
    {1}{55.07912pt}\LT@entry 
    {1}{126.21101pt}}
\@writefile{toc}{\contentsline {chapter}{\numberline {B}Sample Predictions}{50}{appendix.B}\protected@file@percent }
\@writefile{lof}{\addvspace {10\p@ }}
\@writefile{lot}{\addvspace {10\p@ }}
\newlabel{full-explanations}{{B}{50}{Sample Predictions}{appendix.B}{}}
\newlabel{full-explanations@cref}{{[appendix][2][2147483647]B}{[1][50][]50}}
\abx@aux@read@bbl@mdfivesum{18D30F264259FF299267ABF2C372C791}
\abx@aux@read@bblrerun
\abx@aux@defaultrefcontext{0}{languagemodelunderstoodAina2021}{nyt/global//global/global}
\abx@aux@defaultrefcontext{0}{githubcomrdeitsDeits2015}{nyt/global//global/global}
\abx@aux@defaultrefcontext{0}{bertpretrainingdeepDevlin2019}{nyt/global//global/global}
\abx@aux@defaultrefcontext{0}{cryptonitecrypticcrosswordEfrat2021}{nyt/global//global/global}
\abx@aux@defaultrefcontext{0}{harris2020array}{nyt/global//global/global}
\abx@aux@defaultrefcontext{0}{loralowrankadaptationHu2021}{nyt/global//global/global}
\abx@aux@defaultrefcontext{0}{sentencepiecesimplelanguageKudo2018}{nyt/global//global/global}
\abx@aux@defaultrefcontext{0}{wereafraidLiu2023}{nyt/global//global/global}
\abx@aux@defaultrefcontext{0}{analysisevaluationlanguageLoureiro2021}{nyt/global//global/global}
\abx@aux@defaultrefcontext{0}{ximenesartcrosswordMacnutt1966}{nyt/global//global/global}
\abx@aux@defaultrefcontext{0}{peft}{nyt/global//global/global}
\abx@aux@defaultrefcontext{0}{chamberscrosswordmanualManley1986}{nyt/global//global/global}
\abx@aux@defaultrefcontext{0}{introductionwordnetonlineMiller1990}{nyt/global//global/global}
\abx@aux@defaultrefcontext{0}{bleumethodautomaticPapineni2002}{nyt/global//global/global}
\abx@aux@defaultrefcontext{0}{paszke2017automatic}{nyt/global//global/global}
\abx@aux@defaultrefcontext{0}{scalinglanguagemodelsRae2022}{nyt/global//global/global}
\abx@aux@defaultrefcontext{0}{exploringlimitstransferRaffel2020}{nyt/global//global/global}
\abx@aux@defaultrefcontext{0}{decryptingcrypticcrosswordsRozner2021}{nyt/global//global/global}
\abx@aux@defaultrefcontext{0}{attentionallyouVaswani2017}{nyt/global//global/global}
\abx@aux@defaultrefcontext{0}{chainofthoughtpromptingelicitsWei2022}{nyt/global//global/global}
\abx@aux@defaultrefcontext{0}{mckinney-proc-scipy-2010}{nyt/global//global/global}
\abx@aux@defaultrefcontext{0}{wolf-etal-2020-transformers}{nyt/global//global/global}
\abx@aux@defaultrefcontext{0}{verbsemanticslexicalWu1994}{nyt/global//global/global}
\abx@aux@defaultrefcontext{0}{byt5tokenfreefutureXue2022}{nyt/global//global/global}
\gdef \@abspage@last{54}
