\relax 
\bibstyle{aclnatbib}
\providecommand\hyper@newdestlabel[2]{}
\providecommand\HyField@AuxAddToFields[1]{}
\providecommand\HyField@AuxAddToCoFields[2]{}
\catcode 95\active
\providecommand\babel@aux[2]{}
\@nameuse{bbl@beforestart}
\citation{wereafraidLiu2023}
\citation{attentionallyouVaswani2017}
\citation{analysisevaluationlanguageLoureiro2021}
\citation{bertpretrainingdeepDevlin2019}
\citation{languagemodelunderstoodAina2021}
\citation{githubcomrdeitsDeits2015}
\citation{cryptonitecrypticcrosswordEfrat2021}
\citation{githubcomrdeitsDeits2015}
\citation{cryptonitecrypticcrosswordEfrat2021}
\citation{exploringlimitstransferRaffel2020}
\citation{decryptingcrypticcrosswordsRozner2021}
\citation{decryptingcrypticcrosswordsRozner2021}
\citation{decryptingcrypticcrosswordsRozner2021}
\citation{decryptingcrypticcrosswordsRozner2021}
\citation{decryptingcrypticcrosswordsRozner2021}
\citation{cryptonitecrypticcrosswordEfrat2021}
\@LN@col{1}
\babel@aux{english}{}
\@LN{0}{0}
\@LN{1}{0}
\@LN{2}{0}
\@LN{3}{0}
\@LN{4}{0}
\@LN{5}{0}
\@LN{6}{0}
\@LN{7}{0}
\@LN{8}{0}
\@LN{9}{0}
\@LN{10}{0}
\@LN{11}{0}
\@LN{12}{0}
\@LN{13}{0}
\@LN{14}{0}
\@LN{15}{0}
\@LN{16}{0}
\@LN{17}{0}
\@LN{18}{0}
\@LN{19}{0}
\@LN{20}{0}
\@LN{21}{0}
\@writefile{toc}{\contentsline {section}{\numberline {1}Ambiguity resolution}{1}{section.1}\protected@file@percent }
\@LN{22}{0}
\@LN{23}{0}
\@LN{24}{0}
\@LN{25}{0}
\@LN{26}{0}
\@LN{27}{0}
\@LN{28}{0}
\@LN{29}{0}
\@LN{30}{0}
\@LN{31}{0}
\@LN{32}{0}
\@LN{33}{0}
\@LN{34}{0}
\@LN{35}{0}
\@LN{36}{0}
\@LN{37}{0}
\@LN{38}{0}
\@LN{39}{0}
\@LN@col{2}
\@LN{40}{0}
\@LN{41}{0}
\@LN{42}{0}
\@writefile{toc}{\contentsline {section}{\numberline {2}Existing work}{1}{section.2}\protected@file@percent }
\@LN{43}{0}
\@LN{44}{0}
\@LN{45}{0}
\@LN{46}{0}
\@LN{47}{0}
\@LN{48}{0}
\@LN{49}{0}
\@LN{50}{0}
\@LN{51}{0}
\@LN{52}{0}
\@LN{53}{0}
\@LN{54}{0}
\@LN{55}{0}
\@LN{56}{0}
\@LN{57}{0}
\@LN{58}{0}
\@LN{59}{0}
\@LN{60}{0}
\@LN{61}{0}
\@LN{62}{0}
\@LN{63}{0}
\@LN{64}{0}
\@LN{65}{0}
\@LN{66}{0}
\@LN{67}{0}
\@LN{68}{0}
\@LN{69}{0}
\@LN{70}{0}
\@LN{71}{0}
\@LN{72}{0}
\@LN{73}{0}
\@LN{74}{0}
\@LN{75}{0}
\@LN{76}{0}
\@LN{77}{0}
\@LN{78}{0}
\citation{scalinglanguagemodelsRae2022}
\citation{chainofthoughtpromptingelicitsWei2022}
\citation{exploringlimitstransferRaffel2020}
\citation{byt5tokenfreefutureXue2022}
\citation{chamberscrosswordmanualManley1986}
\citation{ximenesartcrosswordMacnutt1966}
\@LN@col{1}
\@LN{79}{1}
\@LN{80}{1}
\@LN{81}{1}
\@LN{82}{1}
\@LN{83}{1}
\@LN{84}{1}
\@LN{85}{1}
\@LN{86}{1}
\@LN{87}{1}
\@LN{88}{1}
\@LN{89}{1}
\@LN{90}{1}
\@LN{91}{1}
\@LN{92}{1}
\@LN{93}{1}
\@LN{94}{1}
\@LN{95}{1}
\@LN{96}{1}
\@LN{97}{1}
\@LN{98}{1}
\@LN{99}{1}
\@LN{100}{1}
\@writefile{toc}{\contentsline {section}{\numberline {3}Hypotheses and experimental outline}{2}{section.3}\protected@file@percent }
\@LN{101}{1}
\@LN{102}{1}
\@LN{103}{1}
\@LN{104}{1}
\@LN{105}{1}
\@LN{106}{1}
\@LN{107}{1}
\@LN{108}{1}
\@LN{109}{1}
\@LN{110}{1}
\@LN{111}{1}
\@LN{112}{1}
\@LN{113}{1}
\@LN{114}{1}
\@LN{115}{1}
\@LN{116}{1}
\@LN{117}{1}
\@LN{118}{1}
\@LN{119}{1}
\@LN{120}{1}
\@LN{121}{1}
\@LN{122}{1}
\@LN{123}{1}
\@LN{124}{1}
\@LN{125}{1}
\@LN{126}{1}
\@LN{127}{1}
\@LN{128}{1}
\@LN@col{2}
\@LN{129}{1}
\@LN{130}{1}
\@LN{131}{1}
\@LN{132}{1}
\@LN{133}{1}
\@LN{134}{1}
\@LN{135}{1}
\@LN{136}{1}
\@writefile{toc}{\contentsline {section}{\numberline {4}Background}{2}{section.4}\protected@file@percent }
\@LN{137}{1}
\@LN{138}{1}
\@LN{139}{1}
\@LN{140}{1}
\@LN{141}{1}
\@LN{142}{1}
\@LN{143}{1}
\@LN{144}{1}
\@LN{145}{1}
\@LN{146}{1}
\@writefile{lof}{\contentsline {figure}{\numberline {1}{\ignorespaces The first crossword (or word-cross) puzzle by Arthur Wynne}}{2}{figure.caption.1}\protected@file@percent }
\providecommand*\caption@xref[2]{\@setref\relax\@undefined{#1}}
\newlabel{word-cross}{{1}{2}{The first crossword (or word-cross) puzzle by Arthur Wynne}{figure.caption.1}{}}
\newlabel{word-cross@cref}{{[figure][1][]1}{[1][2][]2}}
\@LN{147}{1}
\@LN{148}{1}
\@LN{149}{1}
\@LN{150}{1}
\@LN{151}{1}
\@LN{152}{1}
\@LN{153}{1}
\@LN@col{1}
\@LN{154}{2}
\@LN{155}{2}
\@LN{156}{2}
\@LN{157}{2}
\@LN{158}{2}
\@LN{159}{2}
\@LN{160}{2}
\@LN{161}{2}
\@LN{162}{2}
\@LN{163}{2}
\@LN{164}{2}
\@LN{165}{2}
\@LN{166}{2}
\@LN{167}{2}
\@LN{168}{2}
\@LN{169}{2}
\@LN{170}{2}
\@LN{171}{2}
\@LN{172}{2}
\@LN{173}{2}
\@LN{174}{2}
\@LN{175}{2}
\@LN{176}{2}
\@LN{177}{2}
\@LN{178}{2}
\@LN{179}{2}
\@LN{180}{2}
\@writefile{lof}{\contentsline {figure}{\numberline {2}{\ignorespaces A standard 15x15 crossword grid with 26 entries}}{3}{figure.caption.2}\protected@file@percent }
\newlabel{grid}{{2}{3}{A standard 15x15 crossword grid with 26 entries}{figure.caption.2}{}}
\newlabel{grid@cref}{{[figure][2][]2}{[1][3][]3}}
\@LN{181}{2}
\@LN{182}{2}
\@LN{183}{2}
\@LN{184}{2}
\@LN{185}{2}
\@LN{186}{2}
\@LN@col{2}
\@LN{187}{2}
\@LN{188}{2}
\@LN{189}{2}
\@LN{190}{2}
\@LN{191}{2}
\@LN{192}{2}
\@LN{193}{2}
\@LN{194}{2}
\@LN{195}{2}
\@LN{196}{2}
\@LN{197}{2}
\@LN{198}{2}
\@LN{199}{2}
\@LN{200}{2}
\@LN{201}{2}
\@LN{202}{2}
\@LN{203}{2}
\newlabel{clue1}{{1}{3}{Background}{Item.1}{}}
\newlabel{clue1@cref}{{[xnumi][1][]1}{[1][3][]3}}
\@LN{204}{2}
\@LN{205}{2}
\@LN{206}{2}
\@writefile{toc}{\contentsline {section}{\numberline {5}Why are cryptic crossword clues a challenge for NLP?}{3}{section.5}\protected@file@percent }
\@LN{207}{2}
\@LN{208}{2}
\@LN{209}{2}
\@LN{210}{2}
\@LN{211}{2}
\@LN{212}{2}
\@LN{213}{2}
\@LN{214}{2}
\@LN{215}{2}
\@LN{216}{2}
\@LN{217}{2}
\@LN{218}{2}
\@LN{219}{2}
\@LN{220}{2}
\@LN{221}{2}
\@LN{222}{2}
\@LN{223}{2}
\@LN{224}{2}
\@LN{225}{2}
\@LN{226}{2}
\@LN{227}{2}
\@LN{228}{2}
\@LN{229}{2}
\@LN{230}{2}
\@writefile{lot}{\contentsline {table}{\numberline {1}{\ignorespaces A selection of the most frequent abbreviations used in cryptic clues.}}{4}{table.caption.3}\protected@file@percent }
\newlabel{abbreviations}{{1}{4}{A selection of the most frequent abbreviations used in cryptic clues}{table.caption.3}{}}
\newlabel{abbreviations@cref}{{[table][1][]1}{[1][3][]4}}
\@LN@col{1}
\@LN{231}{3}
\@writefile{toc}{\contentsline {section}{\numberline {6}Taxonomy of clue-solving skills}{4}{section.6}\protected@file@percent }
\@LN{232}{3}
\@LN{233}{3}
\@LN{234}{3}
\@LN{235}{3}
\@LN{236}{3}
\@LN{237}{3}
\@LN{238}{3}
\@LN{239}{3}
\@LN{240}{3}
\@LN{241}{3}
\@LN{242}{3}
\@LN{243}{3}
\@LN{244}{3}
\@LN{245}{3}
\@LN{246}{3}
\@writefile{toc}{\contentsline {subsection}{\numberline {6.1}Hypernymy and hyponymy}{4}{subsection.6.1}\protected@file@percent }
\@LN{247}{3}
\@LN{248}{3}
\@LN{249}{3}
\@LN{250}{3}
\@LN{251}{3}
\@LN{252}{3}
\@LN{253}{3}
\@LN@col{2}
\newlabel{hype}{{2}{4}{Hypernymy and hyponymy}{Item.2}{}}
\newlabel{hype@cref}{{[xnumi][2][]2}{[1][4][]4}}
\@LN{254}{3}
\@LN{255}{3}
\@writefile{toc}{\contentsline {subsection}{\numberline {6.2}Homography}{4}{subsection.6.2}\protected@file@percent }
\@LN{256}{3}
\@LN{257}{3}
\@LN{258}{3}
\@LN{259}{3}
\@LN{260}{3}
\@LN{261}{3}
\@LN{262}{3}
\@LN{263}{3}
\@LN{264}{3}
\@LN{265}{3}
\@LN{266}{3}
\newlabel{homo}{{3}{4}{Homography}{Item.3}{}}
\newlabel{homo@cref}{{[xnumi][3][]3}{[1][4][]4}}
\@LN{267}{3}
\citation{cryptonitecrypticcrosswordEfrat2021}
\citation{cryptonitecrypticcrosswordEfrat2021}
\citation{cryptonitecrypticcrosswordEfrat2021}
\@writefile{lot}{\contentsline {table}{\numberline {2}{\ignorespaces A taxonomy of cryptic crossword subtasks and the clue types which require the skill.}}{5}{table.caption.4}\protected@file@percent }
\newlabel{taxonomy}{{2}{5}{A taxonomy of cryptic crossword subtasks and the clue types which require the skill}{table.caption.4}{}}
\newlabel{taxonomy@cref}{{[table][2][]2}{[1][4][]5}}
\@LN@col{1}
\@LN{268}{4}
\@writefile{toc}{\contentsline {section}{\numberline {7}Summary}{5}{section.7}\protected@file@percent }
\@LN{269}{4}
\@LN{270}{4}
\@LN{271}{4}
\@LN{272}{4}
\@LN{273}{4}
\@LN{274}{4}
\@LN{275}{4}
\@writefile{toc}{\contentsline {section}{\numberline {8}Method}{5}{section.8}\protected@file@percent }
\@LN{276}{4}
\@writefile{toc}{\contentsline {section}{\numberline {9}Datasets}{5}{section.9}\protected@file@percent }
\@LN{277}{4}
\@writefile{toc}{\contentsline {subsection}{\numberline {9.1}Cryptonite}{5}{subsection.9.1}\protected@file@percent }
\@LN{278}{4}
\@LN{279}{4}
\@LN{280}{4}
\@LN{281}{4}
\@LN{282}{4}
\@LN{283}{4}
\@LN{284}{4}
\@LN{285}{4}
\@LN{286}{4}
\@writefile{toc}{\contentsline {subsection}{\numberline {9.2}Enhanced Cryptonite test set}{5}{subsection.9.2}\protected@file@percent }
\@LN{287}{4}
\@LN{288}{4}
\@LN{289}{4}
\@LN{290}{4}
\@LN{291}{4}
\@LN{292}{4}
\@LN{293}{4}
\@LN{294}{4}
\@LN{295}{4}
\@LN@col{2}
\@writefile{lof}{\contentsline {figure}{\numberline {3}{\ignorespaces Clue type frequency over ca. 700 clues. Some clues contain multiple steps with different clue types, so these clues are represented twice.}}{5}{figure.caption.6}\protected@file@percent }
\newlabel{clue-dist}{{3}{5}{Clue type frequency over ca. 700 clues. Some clues contain multiple steps with different clue types, so these clues are represented twice}{figure.caption.6}{}}
\newlabel{clue-dist@cref}{{[figure][3][]3}{[1][5][]5}}
\@LN{296}{4}
\@writefile{toc}{\contentsline {subsection}{\numberline {9.3}Annotated dataset}{5}{subsection.9.3}\protected@file@percent }
\@LN{297}{4}
\@LN{298}{4}
\@LN{299}{4}
\@LN{300}{4}
\@LN{301}{4}
\@LN{302}{4}
\@LN{303}{4}
\@LN{304}{4}
\@LN{305}{4}
\@writefile{lot}{\contentsline {table}{\numberline {3}{\ignorespaces Sample of three clues from the novel annotated portion of the Cryptonite test set with primary and secondary clue type annotations.}}{6}{table.caption.5}\protected@file@percent }
\newlabel{enhanced}{{3}{6}{Sample of three clues from the novel annotated portion of the Cryptonite test set with primary and secondary clue type annotations}{table.caption.5}{}}
\newlabel{enhanced@cref}{{[table][3][]3}{[1][5][]6}}
\@LN@col{1}
\@LN{306}{5}
\@LN{307}{5}
\@LN{308}{5}
\@LN{309}{5}
\@LN{310}{5}
\@LN{311}{5}
\@LN{312}{5}
\@LN{313}{5}
\@LN{314}{5}
\@LN{315}{5}
\@LN{316}{5}
\@LN{317}{5}
\@LN{318}{5}
\@LN{319}{5}
\@LN{320}{5}
\@LN@col{2}
\@writefile{lof}{\contentsline {figure}{\numberline {4}{\ignorespaces  Clue annotations by ‘branch’ on Times for The Times (https://timesforthetimes.co.uk/times-cryptic-28806-sat-6-jan-2024-fireworks-now)}}{7}{figure.caption.7}\protected@file@percent }
\newlabel{annotation}{{4}{7}{Clue annotations by ‘branch’ on Times for The Times (https://timesforthetimes.co.uk/times-cryptic-28806-sat-6-jan-2024-fireworks-now)}{figure.caption.7}{}}
\newlabel{annotation@cref}{{[figure][4][]4}{[1][6][]7}}
\@writefile{lof}{\contentsline {figure}{\numberline {5}{\ignorespaces Input and target pair sample from training the annotated models on my novel annotated dataset.}}{7}{figure.caption.8}\protected@file@percent }
\newlabel{input-target}{{5}{7}{Input and target pair sample from training the annotated models on my novel annotated dataset}{figure.caption.8}{}}
\newlabel{input-target@cref}{{[figure][5][]5}{[1][6][]7}}
\@LN@col{1}
\@LN{321}{6}
\@writefile{toc}{\contentsline {section}{\numberline {10}Statistics for datasets}{7}{section.10}\protected@file@percent }
\newlabel{sec-stats}{{10}{7}{Statistics for datasets}{section.10}{}}
\newlabel{sec-stats@cref}{{[section][10][]10}{[1][7][]7}}
\@LN{322}{6}
\@LN{323}{6}
\@LN@col{2}
\citation{exploringlimitstransferRaffel2020}
\citation{sentencepiecesimplelanguageKudo2018}
\citation{exploringlimitstransferRaffel2020}
\citation{byt5tokenfreefutureXue2022}
\citation{byt5tokenfreefutureXue2022}
\citation{attentionallyouVaswani2017}
\citation{exploringlimitstransferRaffel2020}
\@writefile{lot}{\contentsline {table}{\numberline {4}{\ignorespaces Solutions in the Cryptonite training dataset by total entry length and number of constituent words.}}{8}{table.caption.9}\protected@file@percent }
\newlabel{stats}{{4}{8}{Solutions in the Cryptonite training dataset by total entry length and number of constituent words}{table.caption.9}{}}
\newlabel{stats@cref}{{[table][4][]4}{[1][7][]8}}
\@LN@col{1}
\@LN{324}{7}
\@writefile{toc}{\contentsline {section}{\numberline {11}Dataset limitations}{8}{section.11}\protected@file@percent }
\@LN{325}{7}
\@LN{326}{7}
\@LN{327}{7}
\@LN{328}{7}
\@LN{329}{7}
\@LN{330}{7}
\@LN{331}{7}
\@LN{332}{7}
\@LN{333}{7}
\@LN{334}{7}
\newlabel{haulage}{{4}{8}{Dataset limitations}{Item.4}{}}
\newlabel{haulage@cref}{{[xnumi][4][]4}{[1][8][]8}}
\@LN{335}{7}
\@LN{336}{7}
\@LN{337}{7}
\@LN{338}{7}
\@LN{339}{7}
\@LN{340}{7}
\newlabel{1}{{5a}{8}{Dataset limitations}{Item.6}{}}
\newlabel{1@cref}{{[xnumii][1][]5a}{[1][8][]8}}
\@LN{341}{7}
\@LN{342}{7}
\newlabel{2}{{5b}{8}{Dataset limitations}{Item.7}{}}
\newlabel{2@cref}{{[xnumii][2][]5b}{[1][8][]8}}
\@LN{343}{7}
\newlabel{3}{{5c}{8}{Dataset limitations}{Item.8}{}}
\newlabel{3@cref}{{[xnumii][3][]5c}{[1][8][]8}}
\@LN{344}{7}
\newlabel{oddclues}{{5}{8}{Dataset limitations}{Item.8}{}}
\newlabel{oddclues@cref}{{[xnumi][5][]5}{[1][8][]8}}
\@LN{345}{7}
\@LN{346}{7}
\@LN{347}{7}
\@LN{348}{7}
\@LN{349}{7}
\@LN{350}{7}
\@LN{351}{7}
\@LN{352}{7}
\@LN{353}{7}
\@LN{354}{7}
\@LN{355}{7}
\@LN{356}{7}
\@LN{357}{7}
\@LN{358}{7}
\@LN{359}{7}
\@LN{360}{7}
\@LN@col{2}
\@LN{361}{7}
\@writefile{toc}{\contentsline {section}{\numberline {12}Models}{8}{section.12}\protected@file@percent }
\@LN{362}{7}
\@writefile{toc}{\contentsline {subsection}{\numberline {12.1}T5-Large}{8}{subsection.12.1}\protected@file@percent }
\@LN{363}{7}
\@LN{364}{7}
\@LN{365}{7}
\@LN{366}{7}
\@LN{367}{7}
\@LN{368}{7}
\@writefile{toc}{\contentsline {subsection}{\numberline {12.2}T5-3B}{8}{subsection.12.2}\protected@file@percent }
\@LN{369}{7}
\@LN{370}{7}
\@LN{371}{7}
\@writefile{toc}{\contentsline {subsection}{\numberline {12.3}ByT5-Large}{8}{subsection.12.3}\protected@file@percent }
\@LN{372}{7}
\@LN{373}{7}
\@LN{374}{7}
\@LN{375}{7}
\@LN{376}{7}
\@writefile{toc}{\contentsline {subsection}{\numberline {12.4}ByT5-XL}{8}{subsection.12.4}\protected@file@percent }
\@LN{377}{7}
\@LN{378}{7}
\@LN{379}{7}
\@writefile{toc}{\contentsline {section}{\numberline {13}Overall architecture}{8}{section.13}\protected@file@percent }
\@LN{380}{7}
\@LN{381}{7}
\@LN{382}{7}
\@LN{383}{7}
\@LN{384}{7}
\@LN{385}{7}
\@LN{386}{7}
\@LN{387}{7}
\@LN{388}{7}
\@LN{389}{7}
\@LN{390}{7}
\@LN{391}{7}
\@LN{392}{7}
\@LN{393}{7}
\@LN{394}{7}
\@LN{395}{7}
\@LN{396}{7}
\@LN{397}{7}
\citation{sentencepiecesimplelanguageKudo2018}
\citation{wolf-etal-2020-transformers}
\citation{paszke2017automatic}
\citation{harris2020array}
\citation{mckinney-proc-scipy-2010}
\citation{peft}
\citation{loralowrankadaptationHu2021}
\@LN@col{1}
\@LN{398}{8}
\@LN{399}{8}
\@LN{400}{8}
\@LN{401}{8}
\@LN{402}{8}
\@LN{403}{8}
\@LN{404}{8}
\@LN{405}{8}
\@LN{406}{8}
\@LN{407}{8}
\@LN{408}{8}
\@LN{409}{8}
\@LN{410}{8}
\@LN{411}{8}
\@LN{412}{8}
\@LN{413}{8}
\@LN{414}{8}
\@LN{415}{8}
\@LN{416}{8}
\@LN{417}{8}
\@LN{418}{8}
\@writefile{toc}{\contentsline {subsection}{\numberline {13.1}Tokenizers}{9}{subsection.13.1}\protected@file@percent }
\@LN{419}{8}
\@writefile{toc}{\contentsline {subsubsection}{\numberline {13.1.1}SentencePiece}{9}{subsubsection.13.1.1}\protected@file@percent }
\@LN{420}{8}
\@LN{421}{8}
\@LN{422}{8}
\@LN{423}{8}
\@LN{424}{8}
\@LN{425}{8}
\@LN{426}{8}
\@LN{427}{8}
\@LN{428}{8}
\@LN{429}{8}
\@LN{430}{8}
\@LN{431}{8}
\@LN{432}{8}
\@writefile{toc}{\contentsline {subsubsection}{\numberline {13.1.2}ByT5}{9}{subsubsection.13.1.2}\protected@file@percent }
\@LN{433}{8}
\@LN{434}{8}
\@LN{435}{8}
\@LN{436}{8}
\@LN{437}{8}
\@LN{438}{8}
\@LN{439}{8}
\@LN{440}{8}
\@LN{441}{8}
\@LN{442}{8}
\@LN{443}{8}
\@LN{444}{8}
\@LN{445}{8}
\@LN@col{2}
\@LN{446}{8}
\@writefile{toc}{\contentsline {section}{\numberline {14}Libraries}{9}{section.14}\protected@file@percent }
\@LN{447}{8}
\@LN{448}{8}
\@LN{449}{8}
\@LN{450}{8}
\@LN{451}{8}
\@LN{452}{8}
\@writefile{toc}{\contentsline {section}{\numberline {15}Training protocol}{9}{section.15}\protected@file@percent }
\@LN{453}{8}
\@LN{454}{8}
\@LN{455}{8}
\@LN{456}{8}
\@LN{457}{8}
\@LN{458}{8}
\@LN{459}{8}
\@LN{460}{8}
\@LN{461}{8}
\@LN{462}{8}
\@LN{463}{8}
\@LN{464}{8}
\@LN{465}{8}
\@LN{466}{8}
\@LN{467}{8}
\@LN{468}{8}
\@LN{469}{8}
\@LN{470}{8}
\@LN{471}{8}
\@LN{472}{8}
\@LN{473}{8}
\@LN{474}{8}
\@LN{475}{8}
\@LN{476}{8}
\@LN{477}{8}
\@LN{478}{8}
\@LN{479}{8}
\@LN{480}{8}
\@LN{481}{8}
\@LN{482}{8}
\@LN{483}{8}
\@LN{484}{8}
\@LN{485}{8}
\@LN{486}{8}
\@LN{487}{8}
\citation{introductionwordnetonlineMiller1990}
\citation{verbsemanticslexicalWu1994}
\@writefile{lot}{\contentsline {table}{\numberline {5}{\ignorespaces Training time for each model with its number of trainable parameters.}}{10}{table.caption.10}\protected@file@percent }
\newlabel{training}{{5}{10}{Training time for each model with its number of trainable parameters}{table.caption.10}{}}
\newlabel{training@cref}{{[table][5][]5}{[1][9][]10}}
\@LN@col{1}
\@LN{488}{9}
\@writefile{toc}{\contentsline {section}{\numberline {16}Evaluation metrics}{10}{section.16}\protected@file@percent }
\@LN{489}{9}
\@writefile{toc}{\contentsline {subsection}{\numberline {16.1}Accuracy}{10}{subsection.16.1}\protected@file@percent }
\@LN{490}{9}
\@LN{491}{9}
\@LN{492}{9}
\@LN{493}{9}
\@LN{494}{9}
\@LN{495}{9}
\@LN{496}{9}
\@LN{497}{9}
\@LN{498}{9}
\@LN{499}{9}
\@LN{500}{9}
\@LN{501}{9}
\@writefile{toc}{\contentsline {subsection}{\numberline {16.2}Enumeration accuracy}{10}{subsection.16.2}\protected@file@percent }
\@LN{502}{9}
\@LN{503}{9}
\@LN{504}{9}
\@LN{505}{9}
\@LN{506}{9}
\@LN{507}{9}
\@LN{508}{9}
\@LN{509}{9}
\@LN{510}{9}
\@writefile{toc}{\contentsline {subsection}{\numberline {16.3}Edit distance}{10}{subsection.16.3}\protected@file@percent }
\@LN{511}{9}
\@LN{512}{9}
\@LN{513}{9}
\@LN{514}{9}
\@LN{515}{9}
\@LN{516}{9}
\@LN{517}{9}
\@LN{518}{9}
\@LN{519}{9}
\@LN{520}{9}
\@LN{521}{9}
\@LN{522}{9}
\@LN{523}{9}
\@LN{524}{9}
\@LN{525}{9}
\@LN@col{2}
\@LN{526}{9}
\@LN{527}{9}
\@LN{528}{9}
\@writefile{toc}{\contentsline {subsection}{\numberline {16.4}Semantic similarity}{10}{subsection.16.4}\protected@file@percent }
\@LN{529}{9}
\@LN{530}{9}
\@LN{531}{9}
\@LN{532}{9}
\@LN{533}{9}
\@LN{534}{9}
\@LN{535}{9}
\@LN{536}{9}
\@LN{537}{9}
\@LN{538}{9}
\@LN{539}{9}
\@LN{540}{9}
\@writefile{lof}{\contentsline {figure}{\numberline {6}{\ignorespaces Equation to calculate Wu–Palmer Similarity between two WordNet synsets s1 and s2}}{10}{figure.caption.13}\protected@file@percent }
\newlabel{wup}{{6}{10}{Equation to calculate Wu–Palmer Similarity between two WordNet synsets s1 and s2}{figure.caption.13}{}}
\newlabel{wup@cref}{{[figure][6][]6}{[1][10][]10}}
\@LN{541}{9}
\@LN{542}{9}
\@LN{543}{9}
\@LN{544}{9}
\@LN{545}{9}
\@LN{546}{9}
\@LN{547}{9}
\@LN{548}{9}
\@LN{549}{9}
\@writefile{lot}{\contentsline {table}{\numberline {6}{\ignorespaces A clue from the test dataset with a prediction produced by the T5-L annotated explanation-forcing model.}}{11}{table.caption.11}\protected@file@percent }
\newlabel{enum}{{6}{11}{A clue from the test dataset with a prediction produced by the T5-L annotated explanation-forcing model}{table.caption.11}{}}
\newlabel{enum@cref}{{[table][6][]6}{[1][10][]11}}
\@writefile{lot}{\contentsline {table}{\numberline {7}{\ignorespaces A clue from the test dataset and the prediction produced by the T5-3B unannotated model.}}{11}{table.caption.12}\protected@file@percent }
\newlabel{lev}{{7}{11}{A clue from the test dataset and the prediction produced by the T5-3B unannotated model}{table.caption.12}{}}
\newlabel{lev@cref}{{[table][7][]7}{[1][10][]11}}
\@writefile{lot}{\contentsline {table}{\numberline {8}{\ignorespaces A clue from the test dataset and the prediction generated by the T5-3B unannotated model with Levenshtein distance and Semantic Similarity.}}{11}{table.caption.14}\protected@file@percent }
\newlabel{semsim}{{8}{11}{A clue from the test dataset and the prediction generated by the T5-3B unannotated model with Levenshtein distance and Semantic Similarity}{table.caption.14}{}}
\newlabel{semsim@cref}{{[table][8][]8}{[1][10][]11}}
\citation{cryptonitecrypticcrosswordEfrat2021}
\@LN@col{1}
\@LN{550}{11}
\@writefile{toc}{\contentsline {section}{\numberline {17}Results}{12}{section.17}\protected@file@percent }
\@LN{551}{11}
\@LN{552}{11}
\@LN{553}{11}
\@LN{554}{11}
\@writefile{toc}{\contentsline {subsection}{\numberline {17.1}Models}{12}{subsection.17.1}\protected@file@percent }
\@LN{555}{11}
\@writefile{toc}{\contentsline {subsubsection}{\numberline {17.1.1}Baseline (T5-Large unannotated)}{12}{subsubsection.17.1.1}\protected@file@percent }
\@LN{556}{11}
\@LN{557}{11}
\@LN{558}{11}
\@LN{559}{11}
\@LN{560}{11}
\@LN{561}{11}
\@LN{562}{11}
\@LN{563}{11}
\@LN{564}{11}
\@LN{565}{11}
\@LN{566}{11}
\@LN{567}{11}
\@LN{568}{11}
\@LN{569}{11}
\@LN{570}{11}
\@LN{571}{11}
\@LN{572}{11}
\@LN{573}{11}
\@LN{574}{11}
\@LN{575}{11}
\@LN{576}{11}
\@LN{577}{11}
\@LN{578}{11}
\@LN{579}{11}
\@LN{580}{11}
\@LN{581}{11}
\@LN{582}{11}
\@LN{583}{11}
\@LN{584}{11}
\@LN{585}{11}
\@LN{586}{11}
\@LN{587}{11}
\@LN{588}{11}
\@LN@col{2}
\@LN{589}{11}
\@LN{590}{11}
\@LN{591}{11}
\@LN{592}{11}
\@LN{593}{11}
\@LN{594}{11}
\@LN{595}{11}
\@LN{596}{11}
\@LN{597}{11}
\@LN{598}{11}
\@LN{599}{11}
\@LN{600}{11}
\@LN{601}{11}
\@LN{602}{11}
\@LN{603}{11}
\@LN{604}{11}
\@LN{605}{11}
\@LN{606}{11}
\@writefile{toc}{\contentsline {subsubsection}{\numberline {17.1.2}T5-3B unannotated}{12}{subsubsection.17.1.2}\protected@file@percent }
\@LN{607}{11}
\@LN{608}{11}
\@LN{609}{11}
\@LN{610}{11}
\@LN{611}{11}
\@LN{612}{11}
\@LN{613}{11}
\@LN{614}{11}
\@LN{615}{11}
\@LN{616}{11}
\@LN{617}{11}
\@LN{618}{11}
\@LN{619}{11}
\@LN{620}{11}
\@LN{621}{11}
\@LN{622}{11}
\@LN{623}{11}
\@LN{624}{11}
\@LN{625}{11}
\@LN{626}{11}
\@LN{627}{11}
\@LN{628}{11}
\@LN{629}{11}
\@LN{630}{11}
\@LN{631}{11}
\@LN{632}{11}
\@LN{633}{11}
\@LN{634}{11}
\@LN{635}{11}
\@LN{636}{11}
\@LN{637}{11}
\@LN{638}{11}
\@LN{639}{11}
\@writefile{lof}{\contentsline {figure}{\numberline {7}{\ignorespaces Accuracy, enumeration accuracy, mean edit distance, and mean semantic similarity values for each clue type in the enhanced test dataset with predictions generated by the T5-Large unannotated model.}}{13}{figure.caption.15}\protected@file@percent }
\newlabel{t5-l-u-1}{{7}{13}{Accuracy, enumeration accuracy, mean edit distance, and mean semantic similarity values for each clue type in the enhanced test dataset with predictions generated by the T5-Large unannotated model}{figure.caption.15}{}}
\newlabel{t5-l-u-1@cref}{{[figure][7][]7}{[1][12][]13}}
\@writefile{lof}{\contentsline {figure}{\numberline {8}{\ignorespaces Accuracy, enumeration accuracy, mean edit distance, and mean semantic similarity by enumeration of single-word solutions in the test dataset with predictions generated by the T5-Large unannotated model. }}{13}{figure.caption.16}\protected@file@percent }
\newlabel{t5-l-u-2}{{8}{13}{Accuracy, enumeration accuracy, mean edit distance, and mean semantic similarity by enumeration of single-word solutions in the test dataset with predictions generated by the T5-Large unannotated model}{figure.caption.16}{}}
\newlabel{t5-l-u-2@cref}{{[figure][8][]8}{[1][12][]13}}
\@LN@col{1}
\@LN{640}{12}
\@LN{641}{12}
\@LN{642}{12}
\@LN{643}{12}
\@LN{644}{12}
\@LN{645}{12}
\@LN{646}{12}
\@LN{647}{12}
\@LN{648}{12}
\@LN{649}{12}
\@LN{650}{12}
\@LN{651}{12}
\@LN{652}{12}
\@LN{653}{12}
\@LN@col{2}
\@LN{654}{12}
\@LN{655}{12}
\@LN{656}{12}
\@LN{657}{12}
\@writefile{toc}{\contentsline {subsubsection}{\numberline {17.1.3}ByT5-Large unannotated}{13}{subsubsection.17.1.3}\protected@file@percent }
\@LN{658}{12}
\@LN{659}{12}
\@LN{660}{12}
\@LN{661}{12}
\@LN{662}{12}
\@LN{663}{12}
\@LN{664}{12}
\@LN{665}{12}
\@LN{666}{12}
\@LN{667}{12}
\@writefile{lof}{\contentsline {figure}{\numberline {9}{\ignorespaces Accuracy, enumeration accuracy, mean edit distance, and mean semantic similarity values for each clue type in the enhanced test dataset with predictions generated by the T5-3B unannotated model.}}{14}{figure.caption.17}\protected@file@percent }
\newlabel{t5-3b-u-1}{{9}{14}{Accuracy, enumeration accuracy, mean edit distance, and mean semantic similarity values for each clue type in the enhanced test dataset with predictions generated by the T5-3B unannotated model}{figure.caption.17}{}}
\newlabel{t5-3b-u-1@cref}{{[figure][9][]9}{[1][12][]14}}
\@writefile{lof}{\contentsline {figure}{\numberline {10}{\ignorespaces Accuracy, enumeration accuracy, mean edit distance, and mean semantic similarity by enumeration of single-word solutions in the test dataset with predictions generated by the T5-3B unannotated model.}}{14}{figure.caption.18}\protected@file@percent }
\newlabel{t5-3b-u-2}{{10}{14}{Accuracy, enumeration accuracy, mean edit distance, and mean semantic similarity by enumeration of single-word solutions in the test dataset with predictions generated by the T5-3B unannotated model}{figure.caption.18}{}}
\newlabel{t5-3b-u-2@cref}{{[figure][10][]10}{[1][13][]14}}
\@LN@col{1}
\@LN{668}{13}
\@LN{669}{13}
\@LN{670}{13}
\@LN{671}{13}
\@LN{672}{13}
\@LN{673}{13}
\@LN{674}{13}
\@LN{675}{13}
\@LN{676}{13}
\@LN{677}{13}
\@LN{678}{13}
\@LN{679}{13}
\@LN{680}{13}
\@LN{681}{13}
\@LN@col{2}
\@LN{682}{13}
\@LN{683}{13}
\@LN{684}{13}
\@LN{685}{13}
\@LN{686}{13}
\@LN{687}{13}
\@LN{688}{13}
\@LN{689}{13}
\@LN{690}{13}
\@LN{691}{13}
\@LN{692}{13}
\@LN{693}{13}
\@LN{694}{13}
\@LN{695}{13}
\@writefile{lot}{\contentsline {table}{\numberline {9}{\ignorespaces Sample prediction by ByT5-Large on a clue in the test set, with truncation behaviour illustrated.}}{15}{table.caption.19}\protected@file@percent }
\newlabel{byt5-pre}{{9}{15}{Sample prediction by ByT5-Large on a clue in the test set, with truncation behaviour illustrated}{table.caption.19}{}}
\newlabel{byt5-pre@cref}{{[table][9][]9}{[1][14][]15}}
\@writefile{lof}{\contentsline {figure}{\numberline {11}{\ignorespaces Accuracy, enumeration accuracy, mean edit distance, and mean semantic similarity values for each clue type in the enhanced test dataset with predictions generated by the ByT5-L unannotated model.}}{15}{figure.caption.20}\protected@file@percent }
\newlabel{Byt5-l-u-1}{{11}{15}{Accuracy, enumeration accuracy, mean edit distance, and mean semantic similarity values for each clue type in the enhanced test dataset with predictions generated by the ByT5-L unannotated model}{figure.caption.20}{}}
\newlabel{Byt5-l-u-1@cref}{{[figure][11][]11}{[1][14][]15}}
\@LN@col{1}
\@LN{696}{14}
\@LN{697}{14}
\@LN{698}{14}
\@LN{699}{14}
\@LN{700}{14}
\@LN{701}{14}
\@LN{702}{14}
\@LN{703}{14}
\@LN{704}{14}
\@LN{705}{14}
\@LN{706}{14}
\@LN{707}{14}
\@LN{708}{14}
\@LN{709}{14}
\@LN{710}{14}
\@LN{711}{14}
\@LN{712}{14}
\@LN{713}{14}
\@LN{714}{14}
\@LN{715}{14}
\@LN{716}{14}
\@LN{717}{14}
\@LN{718}{14}
\@LN{719}{14}
\@LN{720}{14}
\@LN{721}{14}
\@LN{722}{14}
\@LN{723}{14}
\@LN{724}{14}
\@LN@col{2}
\@LN{725}{14}
\@writefile{toc}{\contentsline {subsubsection}{\numberline {17.1.4}ByT5-XL unannotated}{15}{subsubsection.17.1.4}\protected@file@percent }
\@LN{726}{14}
\@LN{727}{14}
\@LN{728}{14}
\@LN{729}{14}
\@LN{730}{14}
\@LN{731}{14}
\@LN{732}{14}
\@LN{733}{14}
\@LN{734}{14}
\@LN{735}{14}
\@LN{736}{14}
\@LN{737}{14}
\@LN{738}{14}
\@LN{739}{14}
\@LN{740}{14}
\@LN{741}{14}
\@LN{742}{14}
\@LN{743}{14}
\@LN{744}{14}
\@LN{745}{14}
\@LN{746}{14}
\@LN{747}{14}
\@LN{748}{14}
\@LN{749}{14}
\@LN{750}{14}
\@LN{751}{14}
\@LN{752}{14}
\@writefile{lof}{\contentsline {figure}{\numberline {12}{\ignorespaces Accuracy, enumeration accuracy, mean edit distance, and mean semantic similarity by enumeration of single-word solutions in the test dataset with predictions generated by the ByT5-Large unannotated model.}}{16}{figure.caption.21}\protected@file@percent }
\newlabel{Byt5-l-u-2}{{12}{16}{Accuracy, enumeration accuracy, mean edit distance, and mean semantic similarity by enumeration of single-word solutions in the test dataset with predictions generated by the ByT5-Large unannotated model}{figure.caption.21}{}}
\newlabel{Byt5-l-u-2@cref}{{[figure][12][]12}{[1][15][]16}}
\@writefile{lof}{\contentsline {figure}{\numberline {13}{\ignorespaces Accuracy, enumeration accuracy, mean edit distance, and mean semantic similarity values for each clue type in the enhanced test dataset with predictions generated by the ByT5-XL unannotated model.}}{16}{figure.caption.22}\protected@file@percent }
\newlabel{Byt5-xl-u-1}{{13}{16}{Accuracy, enumeration accuracy, mean edit distance, and mean semantic similarity values for each clue type in the enhanced test dataset with predictions generated by the ByT5-XL unannotated model}{figure.caption.22}{}}
\newlabel{Byt5-xl-u-1@cref}{{[figure][13][]13}{[1][15][]16}}
\@LN@col{1}
\@LN{753}{15}
\@LN{754}{15}
\@LN{755}{15}
\@LN{756}{15}
\@LN{757}{15}
\@LN{758}{15}
\@LN{759}{15}
\@LN{760}{15}
\@LN{761}{15}
\@LN{762}{15}
\@LN{763}{15}
\@LN{764}{15}
\@LN{765}{15}
\@LN{766}{15}
\@LN{767}{15}
\@LN@col{2}
\@LN{768}{15}
\@LN{769}{15}
\@LN{770}{15}
\@LN{771}{15}
\@LN{772}{15}
\@writefile{toc}{\contentsline {subsubsection}{\numberline {17.1.5}T5-Large annotated}{16}{subsubsection.17.1.5}\protected@file@percent }
\@LN{773}{15}
\@LN{774}{15}
\@LN{775}{15}
\@LN{776}{15}
\@LN{777}{15}
\@LN{778}{15}
\@LN{779}{15}
\@LN{780}{15}
\@LN{781}{15}
\@writefile{lof}{\contentsline {figure}{\numberline {14}{\ignorespaces Accuracy, enumeration accuracy, mean edit distance, and mean semantic similarity by enumeration of single-word solutions in the test dataset with predictions generated by the ByT5-XL unannotated model.}}{17}{figure.caption.23}\protected@file@percent }
\newlabel{Byt5-xl-u-2}{{14}{17}{Accuracy, enumeration accuracy, mean edit distance, and mean semantic similarity by enumeration of single-word solutions in the test dataset with predictions generated by the ByT5-XL unannotated model}{figure.caption.23}{}}
\newlabel{Byt5-xl-u-2@cref}{{[figure][14][]14}{[1][15][]17}}
\@LN@col{1}
\@LN{782}{16}
\@LN{783}{16}
\@LN{784}{16}
\@LN{785}{16}
\@LN{786}{16}
\@LN{787}{16}
\@LN{788}{16}
\@LN{789}{16}
\@LN{790}{16}
\@LN{791}{16}
\@LN{792}{16}
\@LN{793}{16}
\@LN{794}{16}
\@LN{795}{16}
\@LN{796}{16}
\@LN{797}{16}
\@LN{798}{16}
\@LN{799}{16}
\@LN{800}{16}
\@LN{801}{16}
\@LN{802}{16}
\@LN{803}{16}
\@LN{804}{16}
\@LN{805}{16}
\@LN{806}{16}
\@LN{807}{16}
\@LN{808}{16}
\@LN{809}{16}
\@LN{810}{16}
\@LN{811}{16}
\@LN{812}{16}
\@LN@col{2}
\@LN{813}{16}
\@LN{814}{16}
\@LN{815}{16}
\@LN{816}{16}
\@LN{817}{16}
\@LN{818}{16}
\@LN{819}{16}
\@LN{820}{16}
\@LN{821}{16}
\@LN{822}{16}
\@LN{823}{16}
\@LN{824}{16}
\@LN{825}{16}
\@LN{826}{16}
\@LN{827}{16}
\@LN{828}{16}
\@LN{829}{16}
\@LN{830}{16}
\@LN{831}{16}
\@LN{832}{16}
\@LN{833}{16}
\@LN{834}{16}
\@LN{835}{16}
\@LN{836}{16}
\@LN{837}{16}
\@LN{838}{16}
\@LN{839}{16}
\@writefile{toc}{\contentsline {subsubsection}{\numberline {17.1.6}T5-3B annotated}{17}{subsubsection.17.1.6}\protected@file@percent }
\@LN{840}{16}
\@LN{841}{16}
\@LN{842}{16}
\@LN{843}{16}
\@writefile{lof}{\contentsline {figure}{\numberline {15}{\ignorespaces Accuracy, enumeration accuracy, mean edit distance, and mean semantic similarity values for each clue type in the enhanced test dataset with predictions generated by the T5-Large annotated model, with two bars representing the differential generation conditions of solution-forcing and explanation-forcing.}}{18}{figure.caption.24}\protected@file@percent }
\newlabel{T5-l-a-1}{{15}{18}{Accuracy, enumeration accuracy, mean edit distance, and mean semantic similarity values for each clue type in the enhanced test dataset with predictions generated by the T5-Large annotated model, with two bars representing the differential generation conditions of solution-forcing and explanation-forcing}{figure.caption.24}{}}
\newlabel{T5-l-a-1@cref}{{[figure][15][]15}{[1][17][]18}}
\@LN@col{1}
\@LN{844}{17}
\@LN{845}{17}
\@LN{846}{17}
\@LN{847}{17}
\@LN{848}{17}
\@LN{849}{17}
\@LN{850}{17}
\@LN{851}{17}
\@LN{852}{17}
\@LN{853}{17}
\@LN{854}{17}
\@LN{855}{17}
\@LN{856}{17}
\@LN{857}{17}
\@LN{858}{17}
\@LN{859}{17}
\@LN{860}{17}
\@LN{861}{17}
\@LN{862}{17}
\@LN{863}{17}
\@LN{864}{17}
\@LN{865}{17}
\@LN{866}{17}
\@LN{867}{17}
\@LN{868}{17}
\@LN{869}{17}
\@LN{870}{17}
\@LN{871}{17}
\@LN{872}{17}
\@LN@col{2}
\@LN{873}{17}
\@LN{874}{17}
\@LN{875}{17}
\@LN{876}{17}
\@LN{877}{17}
\@LN{878}{17}
\@LN{879}{17}
\@LN{880}{17}
\@LN{881}{17}
\@LN{882}{17}
\@LN{883}{17}
\@writefile{toc}{\contentsline {subsection}{\numberline {17.2}Overall comparison}{18}{subsection.17.2}\protected@file@percent }
\@LN{884}{17}
\@LN{885}{17}
\@LN{886}{17}
\@LN{887}{17}
\@LN{888}{17}
\@LN{889}{17}
\@LN{890}{17}
\@LN{891}{17}
\@writefile{toc}{\contentsline {subsubsection}{\numberline {17.2.1}Anagrams}{18}{subsubsection.17.2.1}\protected@file@percent }
\@LN{892}{17}
\@LN{893}{17}
\@LN{894}{17}
\@LN{895}{17}
\@LN{896}{17}
\@LN{897}{17}
\@LN{898}{17}
\@LN{899}{17}
\@LN{900}{17}
\@LN@col{1}
\@LN{901}{18}
\@LN{902}{18}
\@LN{903}{18}
\@LN{904}{18}
\@LN{905}{18}
\@LN{906}{18}
\@LN{907}{18}
\@LN{908}{18}
\@LN{909}{18}
\@LN{910}{18}
\@LN{911}{18}
\@LN{912}{18}
\@LN{913}{18}
\@LN@col{2}
\@LN{914}{18}
\@writefile{toc}{\contentsline {subsubsection}{\numberline {17.2.2}Charades}{19}{subsubsection.17.2.2}\protected@file@percent }
\@LN{915}{18}
\@LN{916}{18}
\@LN{917}{18}
\@LN{918}{18}
\@LN{919}{18}
\@LN{920}{18}
\@LN{921}{18}
\@LN{922}{18}
\@LN{923}{18}
\@LN{924}{18}
\@LN{925}{18}
\@LN{926}{18}
\@LN{927}{18}
\citation{introductionwordnetonlineMiller1990}
\@LN@col{1}
\@LN{928}{19}
\@writefile{toc}{\contentsline {subsubsection}{\numberline {17.2.3}Containments}{20}{subsubsection.17.2.3}\protected@file@percent }
\@LN{929}{19}
\@LN{930}{19}
\@LN{931}{19}
\@LN{932}{19}
\@LN{933}{19}
\@LN{934}{19}
\@LN{935}{19}
\@LN{936}{19}
\@LN{937}{19}
\@LN{938}{19}
\@LN{939}{19}
\@LN{940}{19}
\@LN@col{2}
\@LN{941}{19}
\@writefile{toc}{\contentsline {subsubsection}{\numberline {17.2.4}Single- vs. multi-word}{20}{subsubsection.17.2.4}\protected@file@percent }
\newlabel{multi}{{17.2.4}{20}{Single- vs. multi-word}{subsubsection.17.2.4}{}}
\newlabel{multi@cref}{{[subsubsection][4][17,2]17.2.4}{[1][20][]20}}
\@LN{942}{19}
\@LN{943}{19}
\@LN{944}{19}
\@LN{945}{19}
\@LN{946}{19}
\@LN{947}{19}
\@LN{948}{19}
\@LN{949}{19}
\@LN{950}{19}
\@LN{951}{19}
\@LN{952}{19}
\@LN{953}{19}
\@LN{954}{19}
\@LN{955}{19}
\@LN{956}{19}
\@LN{957}{19}
\@LN{958}{19}
\@LN{959}{19}
\@LN{960}{19}
\@LN{961}{19}
\@LN{962}{19}
\@LN{963}{19}
\@LN{964}{19}
\@LN{965}{19}
\@LN{966}{19}
\@LN{967}{19}
\@LN{968}{19}
\@LN{969}{19}
\@LN{970}{19}
\@LN{971}{19}
\@LN{972}{19}
\@LN{973}{19}
\@LN{974}{19}
\@LN{975}{19}
\@LN{976}{19}
\@LN{977}{19}
\@LN{978}{19}
\@LN{979}{19}
\@LN{980}{19}
\@LN{981}{19}
\@LN{982}{19}
\@LN{983}{19}
\@LN{984}{19}
\@LN{985}{19}
\@LN{986}{19}
\@LN{987}{19}
\@LN{988}{19}
\@writefile{toc}{\contentsline {subsubsection}{\numberline {17.2.5}Effect of perceived ease of puzzle}{20}{subsubsection.17.2.5}\protected@file@percent }
\@LN{989}{19}
\@LN{990}{19}
\@LN{991}{19}
\citation{bleumethodautomaticPapineni2002}
\@LN@col{1}
\@LN{992}{20}
\@LN{993}{20}
\@LN{994}{20}
\@LN{995}{20}
\@LN{996}{20}
\@LN{997}{20}
\@LN{998}{20}
\@LN{999}{20}
\@LN{1000}{20}
\@LN{1001}{20}
\@LN{1002}{20}
\@LN{1003}{20}
\@LN{1004}{20}
\@LN{1005}{20}
\@LN{1006}{20}
\@LN{1007}{20}
\@LN{1008}{20}
\@LN{1009}{20}
\@LN{1010}{20}
\@LN{1011}{20}
\@LN{1012}{20}
\@LN{1013}{20}
\@LN{1014}{20}
\@LN{1015}{20}
\@LN{1016}{20}
\@LN{1017}{20}
\@LN{1018}{20}
\@LN{1019}{20}
\@LN{1020}{20}
\@LN{1021}{20}
\@LN{1022}{20}
\@LN{1023}{20}
\@LN@col{2}
\@LN{1024}{20}
\@writefile{toc}{\contentsline {subsection}{\numberline {17.3}Subjective analysis of explanations}{21}{subsection.17.3}\protected@file@percent }
\newlabel{explanations}{{17.3}{21}{Subjective analysis of explanations}{subsection.17.3}{}}
\newlabel{explanations@cref}{{[subsection][3][17]17.3}{[1][21][]21}}
\@LN{1025}{20}
\@LN{1026}{20}
\@LN{1027}{20}
\@LN{1028}{20}
\@LN{1029}{20}
\@LN{1030}{20}
\@LN{1031}{20}
\@LN{1032}{20}
\@LN{1033}{20}
\@LN{1034}{20}
\@LN{1035}{20}
\@LN{1036}{20}
\@LN{1037}{20}
\@LN{1038}{20}
\@LN{1039}{20}
\@LN{1040}{20}
\@LN{1041}{20}
\@LN{1042}{20}
\@LN{1043}{20}
\@LN{1044}{20}
\@LN{1045}{20}
\@LN{1046}{20}
\@LN{1047}{20}
\@LN{1048}{20}
\@LN{1049}{20}
\@LN{1050}{20}
\@LN{1051}{20}
\@LN{1052}{20}
\@LN{1053}{20}
\@LN{1054}{20}
\@LN{1055}{20}
\@LN{1056}{20}
\@LN{1057}{20}
\@LN{1058}{20}
\@LN{1059}{20}
\@LN{1060}{20}
\@LN{1061}{20}
\@LN{1062}{20}
\@LN{1063}{20}
\@writefile{lot}{\contentsline {table}{\numberline {10}{\ignorespaces Sample of 4 clues from the test dataset with predicted solutions and explanations by both the T5-Large and T5-3B models.}}{22}{table.caption.33}\protected@file@percent }
\newlabel{sample-clues}{{10}{22}{Sample of 4 clues from the test dataset with predicted solutions and explanations by both the T5-Large and T5-3B models}{table.caption.33}{}}
\newlabel{sample-clues@cref}{{[table][10][]10}{[1][21][]22}}
\@writefile{lof}{\contentsline {figure}{\numberline {16}{\ignorespaces Accuracy, enumeration accuracy, mean edit distance, and mean semantic similarity by enumeration of single-word solutions in the test dataset with predictions generated by the T5-Large annotated model under both the explanation-forcing (dashed line) and solution-forcing (solid line) generation conditions.}}{22}{figure.caption.25}\protected@file@percent }
\newlabel{T5-l-a-2}{{16}{22}{Accuracy, enumeration accuracy, mean edit distance, and mean semantic similarity by enumeration of single-word solutions in the test dataset with predictions generated by the T5-Large annotated model under both the explanation-forcing (dashed line) and solution-forcing (solid line) generation conditions}{figure.caption.25}{}}
\newlabel{T5-l-a-2@cref}{{[figure][16][]16}{[1][17][]22}}
\@writefile{lof}{\contentsline {figure}{\numberline {17}{\ignorespaces Accuracy, enumeration accuracy, mean edit distance, and mean semantic similarity values for each clue type in the enhanced test dataset with predictions generated by the T5-3B annotated model, with two bars representing the differential generation conditions of solution-forcing and explanation-forcing.}}{23}{figure.caption.26}\protected@file@percent }
\newlabel{T5-3b-a-1}{{17}{23}{Accuracy, enumeration accuracy, mean edit distance, and mean semantic similarity values for each clue type in the enhanced test dataset with predictions generated by the T5-3B annotated model, with two bars representing the differential generation conditions of solution-forcing and explanation-forcing}{figure.caption.26}{}}
\newlabel{T5-3b-a-1@cref}{{[figure][17][]17}{[1][18][]23}}
\@writefile{lof}{\contentsline {figure}{\numberline {18}{\ignorespaces Accuracy, enumeration accuracy, mean edit distance, and mean semantic similarity by enumeration of single-word solutions in the test dataset with predictions generated by the T5-3B annotated model under both the explanation-forcing (dashed line) and solution-forcing (solid line) generation conditions.}}{23}{figure.caption.27}\protected@file@percent }
\newlabel{T5-3b-a-2}{{18}{23}{Accuracy, enumeration accuracy, mean edit distance, and mean semantic similarity by enumeration of single-word solutions in the test dataset with predictions generated by the T5-3B annotated model under both the explanation-forcing (dashed line) and solution-forcing (solid line) generation conditions}{figure.caption.27}{}}
\newlabel{T5-3b-a-2@cref}{{[figure][18][]18}{[1][18][]23}}
\@writefile{lof}{\contentsline {figure}{\numberline {19}{\ignorespaces Accuracy, enumeration accuracy, mean edit distance, and mean semantic similarity for each model on only anagram clues in the enhanced test dataset.}}{24}{figure.caption.28}\protected@file@percent }
\newlabel{anagram}{{19}{24}{Accuracy, enumeration accuracy, mean edit distance, and mean semantic similarity for each model on only anagram clues in the enhanced test dataset}{figure.caption.28}{}}
\newlabel{anagram@cref}{{[figure][19][]19}{[1][18][]24}}
\@writefile{lof}{\contentsline {figure}{\numberline {20}{\ignorespaces Accuracy, enumeration accuracy, mean edit distance, and mean semantic similarity for each model on only charade clues in the enhanced test dataset.}}{24}{figure.caption.29}\protected@file@percent }
\newlabel{charade}{{20}{24}{Accuracy, enumeration accuracy, mean edit distance, and mean semantic similarity for each model on only charade clues in the enhanced test dataset}{figure.caption.29}{}}
\newlabel{charade@cref}{{[figure][20][]20}{[1][19][]24}}
\@writefile{lof}{\contentsline {figure}{\numberline {21}{\ignorespaces Accuracy, enumeration accuracy, mean edit distance, and mean semantic similarity for each model on only containment clues in the enhanced test dataset.}}{25}{figure.caption.30}\protected@file@percent }
\newlabel{containment}{{21}{25}{Accuracy, enumeration accuracy, mean edit distance, and mean semantic similarity for each model on only containment clues in the enhanced test dataset}{figure.caption.30}{}}
\newlabel{containment@cref}{{[figure][21][]21}{[1][20][]25}}
\@writefile{lof}{\contentsline {figure}{\numberline {22}{\ignorespaces Accuracy, enumeration accuracy, and mean edit distance for each model with separated values for single-word (white) and multi-word (black) solutions.}}{25}{figure.caption.31}\protected@file@percent }
\newlabel{words}{{22}{25}{Accuracy, enumeration accuracy, and mean edit distance for each model with separated values for single-word (white) and multi-word (black) solutions}{figure.caption.31}{}}
\newlabel{words@cref}{{[figure][22][]22}{[1][20][]25}}
\@writefile{lof}{\contentsline {figure}{\numberline {23}{\ignorespaces Accuracy, enumeration accuracy, mean edit distance, and mean semantic similarity for each model by puzzle series: The Times Quick Cryptic (gray), The Telegraph (black), and The Times Cryptic (white).}}{26}{figure.caption.32}\protected@file@percent }
\newlabel{series}{{23}{26}{Accuracy, enumeration accuracy, mean edit distance, and mean semantic similarity for each model by puzzle series: The Times Quick Cryptic (gray), The Telegraph (black), and The Times Cryptic (white)}{figure.caption.32}{}}
\newlabel{series@cref}{{[figure][23][]23}{[1][21][]26}}
\citation{sentencepiecesimplelanguageKudo2018}
\citation{scalinglanguagemodelsRae2022}
\citation{chainofthoughtpromptingelicitsWei2022}
\@LN@col{1}
\@LN{1064}{26}
\@writefile{toc}{\contentsline {section}{\numberline {18}Discussion}{27}{section.18}\protected@file@percent }
\@LN{1065}{26}
\@LN{1066}{26}
\@LN{1067}{26}
\@LN{1068}{26}
\@LN{1069}{26}
\@LN{1070}{26}
\@LN{1071}{26}
\@LN{1072}{26}
\@LN{1073}{26}
\@LN{1074}{26}
\@LN{1075}{26}
\@LN{1076}{26}
\@LN{1077}{26}
\@LN{1078}{26}
\@LN{1079}{26}
\@LN{1080}{26}
\@LN{1081}{26}
\@LN{1082}{26}
\@LN{1083}{26}
\@LN{1084}{26}
\@LN{1085}{26}
\@LN@col{2}
\@LN{1086}{26}
\@writefile{toc}{\contentsline {section}{\numberline {19}Key findings}{27}{section.19}\protected@file@percent }
\@LN{1087}{26}
\@LN{1088}{26}
\@LN{1089}{26}
\@LN{1090}{26}
\@writefile{toc}{\contentsline {subsection}{\numberline {19.1}Larger models lead to better results}{27}{subsection.19.1}\protected@file@percent }
\@LN{1091}{26}
\@LN{1092}{26}
\@LN{1093}{26}
\@LN{1094}{26}
\@LN{1095}{26}
\@LN{1096}{26}
\@LN{1097}{26}
\@LN{1098}{26}
\@LN{1099}{26}
\@LN{1100}{26}
\@LN{1101}{26}
\@LN{1102}{26}
\@LN{1103}{26}
\@writefile{toc}{\contentsline {subsection}{\numberline {19.2}Character-level tokenization strategies perform better on tasks which require character-level information content}{27}{subsection.19.2}\protected@file@percent }
\@LN{1104}{26}
\@LN{1105}{26}
\@LN{1106}{26}
\@LN{1107}{26}
\@LN{1108}{26}
\@LN{1109}{26}
\@LN{1110}{26}
\@LN{1111}{26}
\@LN{1112}{26}
\@LN{1113}{26}
\@LN{1114}{26}
\@LN{1115}{26}
\@LN{1116}{26}
\@LN{1117}{26}
\@LN{1118}{26}
\@LN{1119}{26}
\@LN{1120}{26}
\@LN{1121}{26}
\@LN{1122}{26}
\@LN{1123}{26}
\@LN{1124}{26}
\@LN{1125}{26}
\@writefile{toc}{\contentsline {subsection}{\numberline {19.3}Including annotations improves enumeration accuracy, mean edit distance, and mean semantic similarity, but not accuracy}{27}{subsection.19.3}\protected@file@percent }
\newlabel{incl}{{19.3}{27}{Including annotations improves enumeration accuracy, mean edit distance, and mean semantic similarity, but not accuracy}{subsection.19.3}{}}
\newlabel{incl@cref}{{[subsection][3][19]19.3}{[1][27][]27}}
\@LN{1126}{26}
\@LN{1127}{26}
\@LN{1128}{26}
\@LN{1129}{26}
\@LN{1130}{26}
\@LN{1131}{26}
\@LN{1132}{26}
\@LN{1133}{26}
\citation{decryptingcrypticcrosswordsRozner2021}
\citation{decryptingcrypticcrosswordsRozner2021}
\citation{cryptonitecrypticcrosswordEfrat2021}
\@LN@col{1}
\@LN{1134}{27}
\@LN{1135}{27}
\@LN{1136}{27}
\@LN{1137}{27}
\@LN{1138}{27}
\@LN{1139}{27}
\@LN{1140}{27}
\@LN{1141}{27}
\@LN{1142}{27}
\@LN{1143}{27}
\@LN{1144}{27}
\@LN{1145}{27}
\@LN{1146}{27}
\@LN{1147}{27}
\@LN{1148}{27}
\@LN{1149}{27}
\@LN{1150}{27}
\@LN{1151}{27}
\@LN{1152}{27}
\@LN{1153}{27}
\@LN{1154}{27}
\@LN{1155}{27}
\@LN{1156}{27}
\@LN{1157}{27}
\@LN{1158}{27}
\@LN{1159}{27}
\@LN{1160}{27}
\@LN{1161}{27}
\@writefile{toc}{\contentsline {subsection}{\numberline {19.4}Human perceptions of puzzle difficulty track across all models}{28}{subsection.19.4}\protected@file@percent }
\@LN{1162}{27}
\@LN{1163}{27}
\@LN{1164}{27}
\@LN{1165}{27}
\@LN{1166}{27}
\@LN{1167}{27}
\@LN{1168}{27}
\@LN{1169}{27}
\@LN{1170}{27}
\@LN{1171}{27}
\@LN{1172}{27}
\@LN{1173}{27}
\@LN{1174}{27}
\@LN{1175}{27}
\@LN{1176}{27}
\@writefile{toc}{\contentsline {section}{\numberline {20}Limitations}{28}{section.20}\protected@file@percent }
\@LN{1177}{27}
\@LN{1178}{27}
\@LN{1179}{27}
\@LN{1180}{27}
\@LN{1181}{27}
\@LN{1182}{27}
\@LN@col{2}
\@LN{1183}{27}
\@LN{1184}{27}
\@LN{1185}{27}
\@LN{1186}{27}
\@LN{1187}{27}
\@LN{1188}{27}
\@LN{1189}{27}
\@LN{1190}{27}
\@LN{1191}{27}
\@LN{1192}{27}
\@LN{1193}{27}
\@LN{1194}{27}
\@LN{1195}{27}
\@LN{1196}{27}
\@LN{1197}{27}
\@LN{1198}{27}
\@LN{1199}{27}
\@LN{1200}{27}
\@LN{1201}{27}
\@LN{1202}{27}
\@LN{1203}{27}
\@LN{1204}{27}
\@LN{1205}{27}
\@LN{1206}{27}
\@LN{1207}{27}
\@LN{1208}{27}
\@LN{1209}{27}
\@LN{1210}{27}
\@LN{1211}{27}
\@LN{1212}{27}
\@LN{1213}{27}
\@LN{1214}{27}
\@LN{1215}{27}
\@LN{1216}{27}
\@LN{1217}{27}
\@LN{1218}{27}
\@LN{1219}{27}
\@LN{1220}{27}
\@LN{1221}{27}
\@LN{1222}{27}
\@LN{1223}{27}
\@LN{1224}{27}
\@LN{1225}{27}
\@LN{1226}{27}
\@LN{1227}{27}
\@LN{1228}{27}
\@LN{1229}{27}
\@LN{1230}{27}
\@writefile{toc}{\contentsline {section}{\numberline {21}Summary}{28}{section.21}\protected@file@percent }
\@LN{1231}{27}
\@LN{1232}{27}
\bibdata{../library.bib}
\bibcite{languagemodelunderstoodAina2021}{{1}{}{{Aina and Linzen}}{{}}}
\bibcite{githubcomrdeitsDeits2015}{{2}{}{{Deits}}{{}}}
\bibcite{bertpretrainingdeepDevlin2019}{{3}{}{{Devlin et~al.}}{{Devlin, Chang, Lee, and Toutanova}}}
\bibcite{cryptonitecrypticcrosswordEfrat2021}{{4}{}{{Efrat et~al.}}{{Efrat, Shaham, Kilman, and Levy}}}
\bibcite{harris2020array}{{5}{}{{Harris et~al.}}{{Harris, Millman, van~der Walt, Gommers, Virtanen, Cournapeau, Wieser, Taylor, Berg, Smith, Kern, Picus, Hoyer, van Kerkwijk, Brett, Haldane, del R\'io, Wiebe, Peterson, G\'erard-Marchant, Sheppard, Reddy, Weckesser, Abbasi, Gohlke, and Oliphant}}}
\bibcite{loralowrankadaptationHu2021}{{6}{}{{Hu et~al.}}{{Hu, Shen, Wallis, Allen-Zhu, Li, Wang, Wang, and Chen}}}
\bibcite{sentencepiecesimplelanguageKudo2018}{{7}{}{{Kudo and Richardson}}{{}}}
\bibcite{wereafraidLiu2023}{{8}{}{{Liu et~al.}}{{Liu, Wu, Michael, Suhr, West, Koller, Swayamdipta, Smith, and Choi}}}
\bibcite{analysisevaluationlanguageLoureiro2021}{{9}{}{{Loureiro et~al.}}{{Loureiro, Rezaee, Pilehvar, and Camacho-Collados}}}
\bibcite{ximenesartcrosswordMacnutt1966}{{10}{}{{Macnutt}}{{}}}
\bibcite{peft}{{11}{}{{Mangrulkar et~al.}}{{Mangrulkar, Gugger, Debut, Belkada, Paul, and Bossan}}}
\bibcite{chamberscrosswordmanualManley1986}{{12}{}{{Manley}}{{}}}
\bibcite{introductionwordnetonlineMiller1990}{{13}{}{{Miller et~al.}}{{Miller, Beckwith, Fellbaum, Gross, and Miller}}}
\bibcite{bleumethodautomaticPapineni2002}{{14}{}{{Papineni et~al.}}{{Papineni, Roukos, Ward, and Zhu}}}
\bibcite{paszke2017automatic}{{15}{}{{Paszke et~al.}}{{Paszke, Gross, Chintala, Chanan, Yang, DeVito, Lin, Desmaison, Antiga, and Lerer}}}
\bibcite{scalinglanguagemodelsRae2022}{{16}{}{{Rae et~al.}}{{Rae, Borgeaud, Cai, Millican, Hoffmann, Song, Aslanides, Henderson, Ring, Young, Rutherford, Hennigan, Menick, Cassirer, Powell, van~den Driessche, Hendricks, Rauh, Huang, Glaese, Welbl, Dathathri, Huang, Uesato, Mellor, Higgins, Creswell, McAleese, Wu, Elsen, Jayakumar, Buchatskaya, Budden, Sutherland, Simonyan, Paganini, Sifre, Martens, Li, Kuncoro, Nematzadeh, Gribovskaya, Donato, Lazaridou, Mensch, Lespiau, Tsimpoukelli, Grigorev, Fritz, Sottiaux, Pajarskas, Pohlen, Gong, Toyama, d'~Autume, Li, Terzi, Mikulik, Babuschkin, Clark, Casas, Guy, Jones, Bradbury, Johnson, Hechtman, Weidinger, Gabriel, Isaac, Lockhart, Osindero, Rimell, Dyer, Vinyals, Ayoub, Stanway, Bennett, Hassabis, Kavukcuoglu, and Irving}}}
\@LN@col{1}
\@LN{1233}{28}
\@LN{1234}{28}
\@LN{1235}{28}
\@LN{1236}{28}
\@LN{1237}{28}
\@LN{1238}{28}
\@LN{1239}{28}
\@LN{1240}{28}
\@LN{1241}{28}
\@LN{1242}{28}
\@LN{1243}{28}
\@LN{1244}{28}
\@LN{1245}{28}
\@LN{1246}{28}
\@LN{1247}{28}
\@LN{1248}{28}
\@LN{1249}{28}
\@LN{1250}{28}
\@LN{1251}{28}
\@LN{1252}{28}
\@LN{1253}{28}
\@LN{1254}{28}
\@LN{1255}{28}
\@LN{1256}{28}
\@LN{1257}{28}
\@LN{1258}{28}
\@LN{1259}{28}
\@LN{1260}{28}
\@LN{1261}{28}
\@LN{1262}{28}
\@LN{1263}{28}
\@LN{1264}{28}
\@LN{1265}{28}
\@LN{1266}{28}
\@LN{1267}{28}
\@LN{1268}{28}
\@LN{1269}{28}
\@LN{1270}{28}
\@LN{1271}{28}
\@LN{1272}{28}
\@LN{1273}{28}
\@LN{1274}{28}
\@LN{1275}{28}
\@LN{1276}{28}
\@LN{1277}{28}
\@LN{1278}{28}
\@LN{1279}{28}
\@LN{1280}{28}
\@LN{1281}{28}
\@LN{1282}{28}
\@LN{1283}{28}
\@LN{1284}{28}
\@LN@col{2}
\@LN{1285}{28}
\@LN{1286}{28}
\@LN{1287}{28}
\@LN{1288}{28}
\@LN{1289}{28}
\@LN{1290}{28}
\@LN{1291}{28}
\@LN{1292}{28}
\@LN{1293}{28}
\@LN{1294}{28}
\@LN{1295}{28}
\@LN{1296}{28}
\@LN{1297}{28}
\@LN{1298}{28}
\@LN{1299}{28}
\@LN{1300}{28}
\@LN{1301}{28}
\@LN{1302}{28}
\@LN{1303}{28}
\@LN{1304}{28}
\@LN{1305}{28}
\@LN{1306}{28}
\@LN{1307}{28}
\@LN{1308}{28}
\@LN{1309}{28}
\@LN{1310}{28}
\@LN{1311}{28}
\@LN{1312}{28}
\@LN{1313}{28}
\@LN{1314}{28}
\@LN{1315}{28}
\@LN{1316}{28}
\@LN{1317}{28}
\@LN{1318}{28}
\@LN{1319}{28}
\@LN{1320}{28}
\@LN{1321}{28}
\@LN{1322}{28}
\@LN{1323}{28}
\@LN{1324}{28}
\@LN{1325}{28}
\@LN{1326}{28}
\@LN{1327}{28}
\@LN{1328}{28}
\@LN{1329}{28}
\@LN{1330}{28}
\@LN{1331}{28}
\@LN{1332}{28}
\@LN{1333}{28}
\@LN{1334}{28}
\@LN{1335}{28}
\@LN{1336}{28}
\@LN{1337}{28}
\@LN{1338}{28}
\@LN{1339}{28}
\@LN{1340}{28}
\bibcite{exploringlimitstransferRaffel2020}{{17}{}{{Raffel et~al.}}{{Raffel, Shazeer, Roberts, Lee, Narang, Matena, Zhou, Li, and Liu}}}
\bibcite{decryptingcrypticcrosswordsRozner2021}{{18}{}{{Rozner et~al.}}{{Rozner, Potts, and Mahowald}}}
\bibcite{attentionallyouVaswani2017}{{19}{}{{Vaswani et~al.}}{{Vaswani, Shazeer, Parmar, Uszkoreit, Jones, Gomez, Kaiser, and Polosukhin}}}
\bibcite{chainofthoughtpromptingelicitsWei2022}{{20}{}{{Wei et~al.}}{{Wei, Wang, Schuurmans, Bosma, {ichter}, Xia, Chi, Le, and Zhou}}}
\bibcite{mckinney-proc-scipy-2010}{{21}{}{{Wes McKinney}}{{}}}
\bibcite{wolf-etal-2020-transformers}{{22}{}{{Wolf et~al.}}{{Wolf, Debut, Sanh, Chaumond, Delangue, Moi, Cistac, Rault, Louf, Funtowicz, Davison, Shleifer, von Platen, Ma, Jernite, Plu, Xu, Scao, Gugger, Drame, Lhoest, and Rush}}}
\bibcite{verbsemanticslexicalWu1994}{{23}{}{{Wu and Palmer}}{{}}}
\bibcite{byt5tokenfreefutureXue2022}{{24}{}{{Xue et~al.}}{{Xue, Barua, Constant, Al-Rfou, Narang, Kale, Roberts, and Raffel}}}
\@LN@col{1}
\@LN{1341}{29}
\@LN{1342}{29}
\@LN{1343}{29}
\@LN{1344}{29}
\@LN{1345}{29}
\@LN{1346}{29}
\@LN{1347}{29}
\@LN{1348}{29}
\@LN{1349}{29}
\@LN{1350}{29}
\@LN{1351}{29}
\@LN{1352}{29}
\@LN{1353}{29}
\@LN{1354}{29}
\@LN{1355}{29}
\@LN{1356}{29}
\@LN{1357}{29}
\@LN{1358}{29}
\@LN{1359}{29}
\@LN{1360}{29}
\@LN{1361}{29}
\@LN{1362}{29}
\@LN{1363}{29}
\@LN{1364}{29}
\@LN{1365}{29}
\@LN{1366}{29}
\@LN{1367}{29}
\@LN{1368}{29}
\@LN{1369}{29}
\@LN{1370}{29}
\@LN{1371}{29}
\@LN{1372}{29}
\@LN{1373}{29}
\@LN{1374}{29}
\@LN{1375}{29}
\@LN{1376}{29}
\@LN{1377}{29}
\@LN{1378}{29}
\@LN{1379}{29}
\@LN{1380}{29}
\@LN{1381}{29}
\@LN{1382}{29}
\@LN{1383}{29}
\@LN{1384}{29}
\@LN{1385}{29}
\@LN{1386}{29}
\@LN{1387}{29}
\@LN{1388}{29}
\@LN{1389}{29}
\@LN{1390}{29}
\@LN{1391}{29}
\@LN{1392}{29}
\@LN{1393}{29}
\@LN{1394}{29}
\@LN{1395}{29}
\@LN{1396}{29}
\@LN{1397}{29}
\@LN@col{2}
\@LN{1398}{29}
\@writefile{toc}{\contentsline {section}{\numberline {A}Explanations of each type of clue}{30}{appendix.A}\protected@file@percent }
\newlabel{appendixa}{{A}{30}{Explanations of each type of clue}{appendix.A}{}}
\newlabel{appendixa@cref}{{[appendix][1][2147483647]A}{[1][30][]30}}
\@LN@col{2}
\@LN@col{1}
\@LN{1399}{31}
\@writefile{toc}{\contentsline {section}{\numberline {B}Sample Predictions}{32}{appendix.B}\protected@file@percent }
\newlabel{full-explanations}{{B}{32}{Sample Predictions}{appendix.B}{}}
\newlabel{full-explanations@cref}{{[appendix][2][2147483647]B}{[1][32][]32}}
\@LN{1400}{31}
\@LN{1401}{31}
\gdef \@abspage@last{32}
