\BOOKMARK [0][-]{chapter.1}{\376\377\000I\000n\000t\000r\000o\000d\000u\000c\000t\000i\000o\000n}{}% 1
\BOOKMARK [1][-]{section.1.1}{\376\377\000A\000m\000b\000i\000g\000u\000i\000t\000y\000\040\000r\000e\000s\000o\000l\000u\000t\000i\000o\000n}{chapter.1}% 2
\BOOKMARK [1][-]{section.1.2}{\376\377\000E\000x\000i\000s\000t\000i\000n\000g\000\040\000w\000o\000r\000k}{chapter.1}% 3
\BOOKMARK [1][-]{section.1.3}{\376\377\000H\000y\000p\000o\000t\000h\000e\000s\000e\000s\000\040\000a\000n\000d\000\040\000e\000x\000p\000e\000r\000i\000m\000e\000n\000t\000a\000l\000\040\000o\000u\000t\000l\000i\000n\000e}{chapter.1}% 4
\BOOKMARK [0][-]{chapter.2}{\376\377\000B\000a\000c\000k\000g\000r\000o\000u\000n\000d}{}% 5
\BOOKMARK [1][-]{section.2.1}{\376\377\000H\000i\000s\000t\000o\000r\000i\000c\000a\000l\000\040\000b\000a\000c\000k\000g\000r\000o\000u\000n\000d}{chapter.2}% 6
\BOOKMARK [1][-]{section.2.2}{\376\377\000W\000h\000y\000\040\000a\000r\000e\000\040\000c\000r\000y\000p\000t\000i\000c\000\040\000c\000r\000o\000s\000s\000w\000o\000r\000d\000\040\000c\000l\000u\000e\000s\000\040\000a\000\040\000c\000h\000a\000l\000l\000e\000n\000g\000e\000\040\000f\000o\000r\000\040\000N\000L\000P\000?}{chapter.2}% 7
\BOOKMARK [1][-]{section.2.3}{\376\377\000T\000a\000x\000o\000n\000o\000m\000y\000\040\000o\000f\000\040\000c\000l\000u\000e\000-\000s\000o\000l\000v\000i\000n\000g\000\040\000s\000k\000i\000l\000l\000s}{chapter.2}% 8
\BOOKMARK [2][-]{subsection.2.3.1}{\376\377\000H\000y\000p\000e\000r\000n\000y\000m\000y\000\040\000a\000n\000d\000\040\000h\000y\000p\000o\000n\000y\000m\000y}{section.2.3}% 9
\BOOKMARK [2][-]{subsection.2.3.2}{\376\377\000H\000o\000m\000o\000g\000r\000a\000p\000h\000y}{section.2.3}% 10
\BOOKMARK [1][-]{section.2.4}{\376\377\000S\000u\000m\000m\000a\000r\000y}{chapter.2}% 11
\BOOKMARK [0][-]{chapter.3}{\376\377\000M\000e\000t\000h\000o\000d}{}% 12
\BOOKMARK [1][-]{section.3.1}{\376\377\000D\000a\000t\000a\000s\000e\000t\000s}{chapter.3}% 13
\BOOKMARK [2][-]{subsection.3.1.1}{\376\377\000C\000r\000y\000p\000t\000o\000n\000i\000t\000e}{section.3.1}% 14
\BOOKMARK [2][-]{subsection.3.1.2}{\376\377\000E\000n\000h\000a\000n\000c\000e\000d\000\040\000C\000r\000y\000p\000t\000o\000n\000i\000t\000e\000\040\000t\000e\000s\000t\000\040\000s\000e\000t}{section.3.1}% 15
\BOOKMARK [2][-]{subsection.3.1.3}{\376\377\000A\000n\000n\000o\000t\000a\000t\000e\000d\000\040\000d\000a\000t\000a\000s\000e\000t}{section.3.1}% 16
\BOOKMARK [1][-]{section.3.2}{\376\377\000S\000t\000a\000t\000i\000s\000t\000i\000c\000s\000\040\000f\000o\000r\000\040\000d\000a\000t\000a\000s\000e\000t\000s}{chapter.3}% 17
\BOOKMARK [1][-]{section.3.3}{\376\377\000D\000a\000t\000a\000s\000e\000t\000\040\000l\000i\000m\000i\000t\000a\000t\000i\000o\000n\000s}{chapter.3}% 18
\BOOKMARK [1][-]{section.3.4}{\376\377\000M\000o\000d\000e\000l\000s}{chapter.3}% 19
\BOOKMARK [2][-]{subsection.3.4.1}{\376\377\000T\0005\000-\000L\000a\000r\000g\000e}{section.3.4}% 20
\BOOKMARK [2][-]{subsection.3.4.2}{\376\377\000T\0005\000-\0003\000B}{section.3.4}% 21
\BOOKMARK [2][-]{subsection.3.4.3}{\376\377\000B\000y\000T\0005\000-\000L\000a\000r\000g\000e}{section.3.4}% 22
\BOOKMARK [2][-]{subsection.3.4.4}{\376\377\000B\000y\000T\0005\000-\000X\000L}{section.3.4}% 23
\BOOKMARK [1][-]{section.3.5}{\376\377\000O\000v\000e\000r\000a\000l\000l\000\040\000a\000r\000c\000h\000i\000t\000e\000c\000t\000u\000r\000e}{chapter.3}% 24
\BOOKMARK [2][-]{subsection.3.5.1}{\376\377\000T\000o\000k\000e\000n\000i\000z\000e\000r\000s}{section.3.5}% 25
\BOOKMARK [1][-]{section.3.6}{\376\377\000L\000i\000b\000r\000a\000r\000i\000e\000s}{chapter.3}% 26
\BOOKMARK [1][-]{section.3.7}{\376\377\000T\000r\000a\000i\000n\000i\000n\000g\000\040\000p\000r\000o\000t\000o\000c\000o\000l}{chapter.3}% 27
\BOOKMARK [1][-]{section.3.8}{\376\377\000E\000v\000a\000l\000u\000a\000t\000i\000o\000n\000\040\000m\000e\000t\000r\000i\000c\000s}{chapter.3}% 28
\BOOKMARK [2][-]{subsection.3.8.1}{\376\377\000A\000c\000c\000u\000r\000a\000c\000y}{section.3.8}% 29
\BOOKMARK [2][-]{subsection.3.8.2}{\376\377\000E\000n\000u\000m\000e\000r\000a\000t\000i\000o\000n\000\040\000a\000c\000c\000u\000r\000a\000c\000y}{section.3.8}% 30
\BOOKMARK [2][-]{subsection.3.8.3}{\376\377\000E\000d\000i\000t\000\040\000d\000i\000s\000t\000a\000n\000c\000e}{section.3.8}% 31
\BOOKMARK [2][-]{subsection.3.8.4}{\376\377\000S\000e\000m\000a\000n\000t\000i\000c\000\040\000s\000i\000m\000i\000l\000a\000r\000i\000t\000y}{section.3.8}% 32
\BOOKMARK [0][-]{chapter.4}{\376\377\000R\000e\000s\000u\000l\000t\000s}{}% 33
\BOOKMARK [1][-]{section.4.1}{\376\377\000M\000o\000d\000e\000l\000s}{chapter.4}% 34
\BOOKMARK [2][-]{subsection.4.1.1}{\376\377\000B\000a\000s\000e\000l\000i\000n\000e\000\040\000\050\000T\0005\000-\000L\000a\000r\000g\000e\000\040\000u\000n\000a\000n\000n\000o\000t\000a\000t\000e\000d\000\051}{section.4.1}% 35
\BOOKMARK [2][-]{subsection.4.1.2}{\376\377\000T\0005\000-\0003\000B\000\040\000u\000n\000a\000n\000n\000o\000t\000a\000t\000e\000d}{section.4.1}% 36
\BOOKMARK [2][-]{subsection.4.1.3}{\376\377\000B\000y\000T\0005\000-\000L\000a\000r\000g\000e\000\040\000u\000n\000a\000n\000n\000o\000t\000a\000t\000e\000d}{section.4.1}% 37
\BOOKMARK [2][-]{subsection.4.1.4}{\376\377\000B\000y\000T\0005\000-\000X\000L\000\040\000u\000n\000a\000n\000n\000o\000t\000a\000t\000e\000d}{section.4.1}% 38
\BOOKMARK [2][-]{subsection.4.1.5}{\376\377\000T\0005\000-\000L\000a\000r\000g\000e\000\040\000a\000n\000n\000o\000t\000a\000t\000e\000d}{section.4.1}% 39
\BOOKMARK [2][-]{subsection.4.1.6}{\376\377\000T\0005\000-\0003\000B\000\040\000a\000n\000n\000o\000t\000a\000t\000e\000d}{section.4.1}% 40
\BOOKMARK [1][-]{section.4.2}{\376\377\000O\000v\000e\000r\000a\000l\000l\000\040\000c\000o\000m\000p\000a\000r\000i\000s\000o\000n}{chapter.4}% 41
\BOOKMARK [2][-]{subsection.4.2.1}{\376\377\000C\000l\000u\000e\000\040\000t\000y\000p\000e\000s}{section.4.2}% 42
\BOOKMARK [2][-]{subsection.4.2.2}{\376\377\000S\000i\000n\000g\000l\000e\000-\000\040\000v\000s\000.\000\040\000m\000u\000l\000t\000i\000-\000w\000o\000r\000d}{section.4.2}% 43
\BOOKMARK [2][-]{subsection.4.2.3}{\376\377\000E\000f\000f\000e\000c\000t\000\040\000o\000f\000\040\000p\000e\000r\000c\000e\000i\000v\000e\000d\000\040\000e\000a\000s\000e\000\040\000o\000f\000\040\000p\000u\000z\000z\000l\000e}{section.4.2}% 44
\BOOKMARK [2][-]{subsection.4.2.4}{\376\377\000S\000u\000b\000j\000e\000c\000t\000i\000v\000e\000\040\000a\000n\000a\000l\000y\000s\000i\000s\000\040\000o\000f\000\040\000e\000x\000p\000l\000a\000n\000a\000t\000i\000o\000n\000s}{section.4.2}% 45
\BOOKMARK [0][-]{chapter.5}{\376\377\000D\000i\000s\000c\000u\000s\000s\000i\000o\000n}{}% 46
\BOOKMARK [1][-]{section.5.1}{\376\377\000K\000e\000y\000\040\000f\000i\000n\000d\000i\000n\000g\000s}{chapter.5}% 47
\BOOKMARK [2][-]{subsection.5.1.1}{\376\377\000L\000a\000r\000g\000e\000r\000\040\000m\000o\000d\000e\000l\000s\000\040\000l\000e\000a\000d\000\040\000t\000o\000\040\000b\000e\000t\000t\000e\000r\000\040\000r\000e\000s\000u\000l\000t\000s}{section.5.1}% 48
\BOOKMARK [2][-]{subsection.5.1.2}{\376\377\000C\000h\000a\000r\000a\000c\000t\000e\000r\000-\000l\000e\000v\000e\000l\000\040\000t\000o\000k\000e\000n\000i\000z\000a\000t\000i\000o\000n\000\040\000s\000t\000r\000a\000t\000e\000g\000i\000e\000s\000\040\000p\000e\000r\000f\000o\000r\000m\000\040\000b\000e\000t\000t\000e\000r\000\040\000o\000n\000\040\000t\000a\000s\000k\000s\000\040\000w\000h\000i\000c\000h\000\040\000r\000e\000q\000u\000i\000r\000e\000\040\000c\000h\000a\000r\000a\000c\000t\000e\000r\000-\000l\000e\000v\000e\000l\000\040\000i\000n\000f\000o\000r\000m\000a\000t\000i\000o\000n\000\040\000c\000o\000n\000t\000e\000n\000t}{section.5.1}% 49
\BOOKMARK [2][-]{subsection.5.1.3}{\376\377\000I\000n\000c\000l\000u\000d\000i\000n\000g\000\040\000a\000n\000n\000o\000t\000a\000t\000i\000o\000n\000s\000\040\000i\000m\000p\000r\000o\000v\000e\000s\000\040\000e\000n\000u\000m\000e\000r\000a\000t\000i\000o\000n\000\040\000a\000c\000c\000u\000r\000a\000c\000y\000,\000\040\000m\000e\000a\000n\000\040\000e\000d\000i\000t\000\040\000d\000i\000s\000t\000a\000n\000c\000e\000,\000\040\000a\000n\000d\000\040\000m\000e\000a\000n\000\040\000s\000e\000m\000a\000n\000t\000i\000c\000\040\000s\000i\000m\000i\000l\000a\000r\000i\000t\000y\000,\000\040\000b\000u\000t\000\040\000n\000o\000t\000\040\000a\000c\000c\000u\000r\000a\000c\000y}{section.5.1}% 50
\BOOKMARK [2][-]{subsection.5.1.4}{\376\377\000H\000u\000m\000a\000n\000\040\000p\000e\000r\000c\000e\000p\000t\000i\000o\000n\000s\000\040\000o\000f\000\040\000p\000u\000z\000z\000l\000e\000\040\000d\000i\000f\000f\000i\000c\000u\000l\000t\000y\000\040\000t\000r\000a\000c\000k\000\040\000a\000c\000r\000o\000s\000s\000\040\000a\000l\000l\000\040\000m\000o\000d\000e\000l\000s}{section.5.1}% 51
\BOOKMARK [1][-]{section.5.2}{\376\377\000L\000i\000m\000i\000t\000a\000t\000i\000o\000n\000s}{chapter.5}% 52
\BOOKMARK [1][-]{section.5.3}{\376\377\000S\000u\000m\000m\000a\000r\000y}{chapter.5}% 53
\BOOKMARK [0][-]{appendix.A}{\376\377\000E\000x\000p\000l\000a\000n\000a\000t\000i\000o\000n\000s\000\040\000o\000f\000\040\000e\000a\000c\000h\000\040\000t\000y\000p\000e\000\040\000o\000f\000\040\000c\000l\000u\000e}{}% 54
\BOOKMARK [0][-]{appendix.B}{\376\377\000S\000a\000m\000p\000l\000e\000\040\000P\000r\000e\000d\000i\000c\000t\000i\000o\000n\000s}{}% 55
